{
  "_id": "q57duTZ8PIxxyuoq",
  "name": "Absorb Blood",
  "type": "feat",
  "img": "modules/pf1spheres/assets/icons/spheres/blood.webp",
  "effects": [],
  "folder": null,
  "sort": 0,
  "flags": {
    "pf1spheres": {
      "sphere": "blood"
    }
  },
  "system": {
    "description": {
      "value": "<p>When a creature within blood control range takes bleed damage to their hit points, as a free action that may be taken even when it is not your turn you may choose a different creature under the effects of your blood control to gain an amount of temporary hit points equal to the bleed damage taken by the first creature. These temporary hit points last for 1 minute per caster level. Each creature may only provide temporary hit points to one other creature.</p>\n<p>As a standard action, you may spend a spell point to inflict 1d2 points of Constitution damage to a creature under the effects of your blood control, then choose a different creature under the effects of your blood control to heal a number of hit points equal to the Hit Dice of the first creature times the amount of Constitution damage dealt. If you possess Mass Blood Magic, you may spend an additional spell point as per that talent to inflict the Constitution damage on multiple creatures and heal multiple creatures. The total number of affected creatures cannot exceed your Mass Blood Magic limit and no creature can be targeted by the Constitution damage more than once per round. A single creature can be healed multiple times.</p>\n",
      "unidentified": ""
    },
    "tags": [],
    "actions": [],
    "uses": {
      "per": null,
      "value": 0,
      "maxFormula": "",
      "autoDeductChargesCost": "1"
    },
    "attackNotes": [],
    "effectNotes": [],
    "changes": [],
    "changeFlags": {
      "loseDexToAC": false,
      "noEncumbrance": false,
      "mediumArmorFullSpeed": false,
      "heavyArmorFullSpeed": false
    },
    "contextNotes": [],
    "links": {
      "children": [],
      "charges": []
    },
    "tag": "",
    "useCustomTag": false,
    "armorProf": {
      "value": [],
      "custom": ""
    },
    "weaponProf": {
      "value": [],
      "custom": ""
    },
    "languages": {
      "value": [],
      "custom": ""
    },
    "flags": {
      "boolean": {},
      "dictionary": {}
    },
    "scriptCalls": [],
    "subType": "magicTalent",
    "associations": {
      "classes": []
    },
    "showInQuickbar": false,
    "abilityType": "none",
    "crOffset": "",
    "disabled": false,
    "classSkills": {},
    "nonlethal": false,
    "duration": {
      "value": null,
      "units": ""
    },
    "target": {
      "value": ""
    },
    "attackName": "",
    "actionType": null,
    "attackBonus": "",
    "critConfirmBonus": "",
    "damage": {
      "parts": [],
      "critParts": [],
      "nonCritParts": []
    },
    "attackParts": [],
    "formulaicAttacks": {
      "count": {
        "formula": ""
      },
      "bonus": {
        "formula": ""
      },
      "label": null
    },
    "formula": "",
    "ability": {
      "attack": null,
      "damage": null,
      "damageMult": 1,
      "critRange": 20,
      "critMult": 2
    },
    "save": {
      "dc": 0,
      "type": "",
      "description": ""
    },
    "soundEffect": "",
    "powerAttack": {
      "multiplier": "",
      "damageBonus": 2,
      "critMultiplier": 1
    }
  },
  "ownership": {
    "default": 0
  },
  "_stats": {
    "systemId": "pf1",
    "systemVersion": "9.0",
    "coreVersion": "10.291",
    "createdTime": 1663168894241,
    "modifiedTime": 1689623923746,
    "lastModifiedBy": "pf1spheres-db000"
  }
}
