{
  "_id": "0kpsySD4d1qliKz5",
  "name": "Affix",
  "type": "feat",
  "img": "modules/pf1spheres/assets/icons/spheres/telekinesis.webp",
  "effects": [],
  "folder": null,
  "sort": 0,
  "flags": {
    "pf1spheres": {
      "sphere": "telekinesis"
    }
  },
  "system": {
    "description": {
      "value": "<p><strong>Prerequisites:</strong> Telekinesis sphere (Effortless Telekinesis (advanced), Idle Concentration), caster level 10th</p>\n<p>By spending two spell points, you may permanently affix a single object you are lifting with your telekinesis to a specific point in space. This is an instantaneous effect that binds the object to that specific point, preventing it from moving in any direction even due to gravity.</p>\n<p>An unwilling creature lifted through the use of Hostile Lift gains an immediate opportunity to break your telekinetic hold with a Will save. If the save fails they remain held by your telekinesis, and must attempt a Reflex save to avoid being fixed in place permanently with no further saves. A creature affected by Affix can still take actions and can freely move their limbs, but cannot move away from the point they have been affixed to, even with teleportation effects.</p>\n<p>Since this is an instantaneous effect, it cannot be dispelled. However, a successful application of telekinesis or brute force can break an object free with a magic skill check or Strength check against your MSD + 4. If applying your own telekinesis against an object you have affixed, you automatically succeed on your magic skill check. This effect can also be ended by the Make Whole advanced talent from the Life sphere, the Freedom (word) from the Fate sphere, or the freedom of movement spell.</p>\n",
      "unidentified": ""
    },
    "tags": [],
    "actions": [],
    "uses": {
      "per": null,
      "value": 0,
      "maxFormula": "",
      "autoDeductChargesCost": "1"
    },
    "attackNotes": [],
    "effectNotes": [],
    "changes": [],
    "changeFlags": {
      "loseDexToAC": false,
      "noEncumbrance": false,
      "mediumArmorFullSpeed": false,
      "heavyArmorFullSpeed": false
    },
    "contextNotes": [],
    "links": {
      "children": [],
      "charges": []
    },
    "tag": "",
    "useCustomTag": false,
    "armorProf": {
      "value": [],
      "custom": ""
    },
    "weaponProf": {
      "value": [],
      "custom": ""
    },
    "languages": {
      "value": [],
      "custom": ""
    },
    "flags": {
      "boolean": {},
      "dictionary": {}
    },
    "scriptCalls": [],
    "subType": "magicTalent",
    "associations": {
      "classes": []
    },
    "showInQuickbar": false,
    "abilityType": "none",
    "crOffset": "",
    "disabled": false,
    "classSkills": {},
    "nonlethal": false,
    "duration": {
      "value": null,
      "units": ""
    },
    "target": {
      "value": ""
    },
    "attackName": "",
    "actionType": null,
    "attackBonus": "",
    "critConfirmBonus": "",
    "damage": {
      "parts": [],
      "critParts": [],
      "nonCritParts": []
    },
    "attackParts": [],
    "formulaicAttacks": {
      "count": {
        "formula": ""
      },
      "bonus": {
        "formula": ""
      },
      "label": null
    },
    "formula": "",
    "ability": {
      "attack": null,
      "damage": null,
      "damageMult": 1,
      "critRange": 20,
      "critMult": 2
    },
    "save": {
      "dc": 0,
      "type": "",
      "description": ""
    },
    "soundEffect": "",
    "powerAttack": {
      "multiplier": "",
      "damageBonus": 2,
      "critMultiplier": 1
    }
  },
  "ownership": {
    "default": 0
  },
  "_stats": {
    "systemId": "pf1",
    "systemVersion": "9.0",
    "coreVersion": "10.291",
    "createdTime": 1663168890397,
    "modifiedTime": 1689623922692,
    "lastModifiedBy": "pf1spheres-db000"
  }
}
