{
  "_id": "yB7wkGjXh0PoFRsK",
  "name": "Astral Travel",
  "type": "feat",
  "img": "modules/pf1spheres/assets/icons/spheres/death.webp",
  "effects": [],
  "folder": null,
  "sort": 0,
  "flags": {
    "pf1spheres": {
      "sphere": "death"
    }
  },
  "system": {
    "description": {
      "value": "<p><strong>Prerequisites:</strong> Death sphere (Astral Projection (advanced), Project Spirit (advanced)), caster level 15th.</p>\n<p>When projecting yourself and/or your allies into the Astral Plane, you may spend an additional spell point (bringing the total to 3) to allow you and your allies to travel astrally to any of the other planes that border the Astral Plane. If you choose to enter one of these planes, you form a new physical body (and equipment) on that plane of existence, exactly like your true form, although the silver cord remains invisibly attached to this new body, and magic items used still count against the item&#8217;s total uses. You are still subject to the weaknesses of an astral form (you may be dispelled, your cord may be broken, etc.). If your new form is killed, you are returned to your original body, gaining 2 permanent negative levels as normal.</p>\n",
      "unidentified": ""
    },
    "tags": [],
    "actions": [],
    "uses": {
      "per": null,
      "value": 0,
      "maxFormula": "",
      "autoDeductChargesCost": "1"
    },
    "attackNotes": [],
    "effectNotes": [],
    "changes": [],
    "changeFlags": {
      "loseDexToAC": false,
      "noEncumbrance": false,
      "mediumArmorFullSpeed": false,
      "heavyArmorFullSpeed": false
    },
    "contextNotes": [],
    "links": {
      "children": [],
      "charges": []
    },
    "tag": "",
    "useCustomTag": false,
    "armorProf": {
      "value": [],
      "custom": ""
    },
    "weaponProf": {
      "value": [],
      "custom": ""
    },
    "languages": {
      "value": [],
      "custom": ""
    },
    "flags": {
      "boolean": {},
      "dictionary": {}
    },
    "scriptCalls": [],
    "subType": "magicTalent",
    "associations": {
      "classes": []
    },
    "showInQuickbar": false,
    "abilityType": "none",
    "crOffset": "",
    "disabled": false,
    "classSkills": {},
    "nonlethal": false,
    "duration": {
      "value": null,
      "units": ""
    },
    "target": {
      "value": ""
    },
    "attackName": "",
    "actionType": null,
    "attackBonus": "",
    "critConfirmBonus": "",
    "damage": {
      "parts": [],
      "critParts": [],
      "nonCritParts": []
    },
    "attackParts": [],
    "formulaicAttacks": {
      "count": {
        "formula": ""
      },
      "bonus": {
        "formula": ""
      },
      "label": null
    },
    "formula": "",
    "ability": {
      "attack": null,
      "damage": null,
      "damageMult": 1,
      "critRange": 20,
      "critMult": 2
    },
    "save": {
      "dc": 0,
      "type": "",
      "description": ""
    },
    "soundEffect": "",
    "powerAttack": {
      "multiplier": "",
      "damageBonus": 2,
      "critMultiplier": 1
    }
  },
  "ownership": {
    "default": 0
  },
  "_stats": {
    "systemId": "pf1",
    "systemVersion": "9.0",
    "coreVersion": "10.291",
    "createdTime": 1663168894697,
    "modifiedTime": 1689623923848,
    "lastModifiedBy": "pf1spheres-db000"
  }
}
