{
  "_id": "oxEiy5KSiK4zqV98",
  "name": "Blot Talents",
  "type": "feat",
  "img": "modules/pf1spheres/assets/icons/spheres/dark.webp",
  "effects": [],
  "folder": null,
  "sort": 0,
  "flags": {
    "pf1spheres": {
      "sphere": "dark"
    }
  },
  "system": {
    "description": {
      "value": "<p>Dark talents listed with the (blot) tag are treated the same as talents with the (darkness) tag, except in addition to adding an effect, they cause the darkness to manifest as a blot. A blot is a darkness effect created on a two-dimensional surface, such as the ground or a wall, appearing as an inky coating rather than a volume of decreased illumination. Blots do not affect the light level of the area.</p>\n<p>Only one (blot) talent may be applied to an individual blot, and a single darkness effect cannot be affected by both a (blot) and (darkness) talent at the same time, but blots and darknesses with different effects may overlap. Individual blots do not stack with themselves, nor do they stack with similar (darkness) talents.</p>\n<p>If a talent is labeled as (blot) and (darkness), the caster may decide which tag to use when applying the talent to an area of darkness.</p>\n<p>In order for a blot to affect a target, it must be in contact with the blot. Blots count as areas of darkness with respect to melds and interactions with Light sphere effects and talents.</p>\n",
      "unidentified": ""
    },
    "tags": [],
    "actions": [],
    "uses": {
      "per": null,
      "value": 0,
      "maxFormula": "",
      "autoDeductChargesCost": "1"
    },
    "attackNotes": [],
    "effectNotes": [],
    "changes": [],
    "changeFlags": {
      "loseDexToAC": false,
      "noEncumbrance": false,
      "mediumArmorFullSpeed": false,
      "heavyArmorFullSpeed": false
    },
    "contextNotes": [],
    "links": {
      "children": [],
      "charges": []
    },
    "tag": "",
    "useCustomTag": false,
    "armorProf": {
      "value": [],
      "custom": ""
    },
    "weaponProf": {
      "value": [],
      "custom": ""
    },
    "languages": {
      "value": [],
      "custom": ""
    },
    "flags": {
      "boolean": {},
      "dictionary": {}
    },
    "scriptCalls": [],
    "subType": "magicTalent",
    "associations": {
      "classes": []
    },
    "showInQuickbar": false,
    "abilityType": "none",
    "crOffset": "",
    "disabled": false,
    "classSkills": {},
    "nonlethal": false,
    "duration": {
      "value": null,
      "units": ""
    },
    "target": {
      "value": ""
    },
    "attackName": "",
    "actionType": null,
    "attackBonus": "",
    "critConfirmBonus": "",
    "damage": {
      "parts": [],
      "critParts": [],
      "nonCritParts": []
    },
    "attackParts": [],
    "formulaicAttacks": {
      "count": {
        "formula": ""
      },
      "bonus": {
        "formula": ""
      },
      "label": null
    },
    "formula": "",
    "ability": {
      "attack": null,
      "damage": null,
      "damageMult": 1,
      "critRange": 20,
      "critMult": 2
    },
    "save": {
      "dc": 0,
      "type": "",
      "description": ""
    },
    "soundEffect": "",
    "powerAttack": {
      "multiplier": "",
      "damageBonus": 2,
      "critMultiplier": 1
    }
  },
  "ownership": {
    "default": 0
  },
  "_stats": {
    "systemId": "pf1",
    "systemVersion": "9.0",
    "coreVersion": "10.291",
    "createdTime": 1663168894072,
    "modifiedTime": 1689623923660,
    "lastModifiedBy": "pf1spheres-db000"
  }
}
