{
  "_id": "hqGb2Ke49we6CFRM",
  "name": "Bulwark (Mana)",
  "type": "feat",
  "img": "icons/svg/item-bag.svg",
  "effects": [],
  "folder": null,
  "sort": 0,
  "flags": {
    "pf1spheres": {
      "sphere": "mana"
    }
  },
  "system": {
    "description": {
      "value": "<p>You may manipulate your magic around a creature, spending a spell point to form a bulwark of magic around the target that absorbs damage. The target of this talent gains a temporary spell point, and they gain DR 4/-, but this damage reduction only persists for as long as they retain temporary spell points from this talent. If the target would suffer damage more than twice the amount of damage the bulwark absorbs from a single attack, the bulwark is damaged and the target loses a temporary spell point granted by this talent. For every 12 points of damage absorbed by the bulwark in one round, the target loses a temporary spell point granted by this talent. If the creature has no more spell points granted by this talent, the shell shatters at the end of the creature&#8217;s next turn, ending the effect. You may spend an additional spell point as part of casting this ability for every 4 caster levels you possess, granting the target an additional temporary spell point for every extra spell point spent and allowing the shell to suffer more damage before shattering.</p>\n<p>At 5th caster level, this damage reduction increases to 8/-, and the amount of damage a bulwark can reduce each round before losing a spell point increases by 12. These bonuses increase by 4 and 12 respectively every 5 caster levels thereafter.</p>\n",
      "unidentified": ""
    },
    "tags": ["Manipulation"],
    "actions": [],
    "uses": {
      "per": null,
      "value": 0,
      "maxFormula": "",
      "autoDeductChargesCost": "1"
    },
    "attackNotes": [],
    "effectNotes": [],
    "changes": [],
    "changeFlags": {
      "loseDexToAC": false,
      "noEncumbrance": false,
      "mediumArmorFullSpeed": false,
      "heavyArmorFullSpeed": false
    },
    "contextNotes": [],
    "links": {
      "children": [],
      "charges": []
    },
    "tag": "",
    "useCustomTag": false,
    "armorProf": {
      "value": [],
      "custom": ""
    },
    "weaponProf": {
      "value": [],
      "custom": ""
    },
    "languages": {
      "value": [],
      "custom": ""
    },
    "flags": {
      "boolean": {},
      "dictionary": {}
    },
    "scriptCalls": [],
    "subType": "magicTalent",
    "associations": {
      "classes": []
    },
    "showInQuickbar": false,
    "abilityType": "none",
    "crOffset": "",
    "disabled": false,
    "classSkills": {},
    "nonlethal": false,
    "duration": {
      "value": null,
      "units": ""
    },
    "target": {
      "value": ""
    },
    "attackName": "",
    "actionType": null,
    "attackBonus": "",
    "critConfirmBonus": "",
    "damage": {
      "parts": [],
      "critParts": [],
      "nonCritParts": []
    },
    "attackParts": [],
    "formulaicAttacks": {
      "count": {
        "formula": ""
      },
      "bonus": {
        "formula": ""
      },
      "label": null
    },
    "formula": "",
    "ability": {
      "attack": null,
      "damage": null,
      "damageMult": 1,
      "critRange": 20,
      "critMult": 2
    },
    "save": {
      "dc": 0,
      "type": "",
      "description": ""
    },
    "soundEffect": "",
    "powerAttack": {
      "multiplier": "",
      "damageBonus": 2,
      "critMultiplier": 1
    }
  },
  "ownership": {
    "default": 0
  },
  "_stats": {
    "systemId": "pf1",
    "systemVersion": "9.0",
    "coreVersion": "10.291",
    "createdTime": 1663168893101,
    "modifiedTime": 1689623923529,
    "lastModifiedBy": "pf1spheres-db000"
  }
}
