{
  "_id": "tGsfm2eKjNoKlREs",
  "name": "Cerebral Strike",
  "type": "feat",
  "img": "modules/pf1spheres/assets/icons/spheres/mind.webp",
  "effects": [],
  "folder": null,
  "sort": 0,
  "flags": {
    "pf1spheres": {
      "sphere": "mind"
    }
  },
  "system": {
    "description": {
      "value": "<p>You unleash a storm of psychic energy that invades the mind of your subject.</p>\n<p><strong>Lesser Charm:</strong> The force of your mind directly attacks the psyche of your enemy. The target takes 1d8 points of nonlethal damage per 2 caster levels (minimum 1d8, Will negates).</p>\n<p><strong>Greater Charm:</strong> The mental damage you deal is lasting and no longer superficial. In addition to dealing 1d8 points of nonlethal damage per 2 caster levels (minimum 1d8), you also deal 1d4 points of ability damage to the target&#8217;s Intelligence, Wisdom, or Charisma (your choice) + an additional 1 point of ability damage per 6 caster levels. Against a successful Will save, you instead deal half of the nonlethal damage you would have dealt and no ability damage. (For example, a 10th level caster would deal 5d8 points of nonlethal damage + 1d4+1 points of ability score damage to either Intelligence, Wisdom, or Charisma, but against a successful save would only deal half of 5d8 nonlethal damage.) Ability damage dealt this way cannot decrease an ability score below 1.</p>\n<p><strong>Powerful Charm:</strong> The force of your mental assault causes a physiological backlash in the target, along with self-inflicted wounds. You deal 1d8 points of nonlethal damage per 2 caster levels (no save) and 1d8 + 1 per 6 caster levels of ability damage to your choice of the target&#8217;s Intelligence, Wisdom, or Charisma (Will halves).</p>\n",
      "unidentified": ""
    },
    "tags": ["Charm"],
    "actions": [],
    "uses": {
      "per": null,
      "value": 0,
      "maxFormula": "",
      "autoDeductChargesCost": "1"
    },
    "attackNotes": [],
    "effectNotes": [],
    "changes": [],
    "changeFlags": {
      "loseDexToAC": false,
      "noEncumbrance": false,
      "mediumArmorFullSpeed": false,
      "heavyArmorFullSpeed": false
    },
    "contextNotes": [],
    "links": {
      "children": [],
      "charges": []
    },
    "tag": "",
    "useCustomTag": false,
    "armorProf": {
      "value": [],
      "custom": ""
    },
    "weaponProf": {
      "value": [],
      "custom": ""
    },
    "languages": {
      "value": [],
      "custom": ""
    },
    "flags": {
      "boolean": {},
      "dictionary": {}
    },
    "scriptCalls": [],
    "subType": "magicTalent",
    "associations": {
      "classes": []
    },
    "showInQuickbar": false,
    "abilityType": "none",
    "crOffset": "",
    "disabled": false,
    "classSkills": {},
    "nonlethal": false,
    "duration": {
      "value": null,
      "units": ""
    },
    "target": {
      "value": ""
    },
    "attackName": "",
    "actionType": null,
    "attackBonus": "",
    "critConfirmBonus": "",
    "damage": {
      "parts": [],
      "critParts": [],
      "nonCritParts": []
    },
    "attackParts": [],
    "formulaicAttacks": {
      "count": {
        "formula": ""
      },
      "bonus": {
        "formula": ""
      },
      "label": null
    },
    "formula": "",
    "ability": {
      "attack": null,
      "damage": null,
      "damageMult": 1,
      "critRange": 20,
      "critMult": 2
    },
    "save": {
      "dc": 0,
      "type": "",
      "description": ""
    },
    "soundEffect": "",
    "powerAttack": {
      "multiplier": "",
      "damageBonus": 2,
      "critMultiplier": 1
    }
  },
  "ownership": {
    "default": 0
  },
  "_stats": {
    "systemId": "pf1",
    "systemVersion": "9.0",
    "coreVersion": "10.291",
    "createdTime": 1663168894360,
    "modifiedTime": 1689623923787,
    "lastModifiedBy": "pf1spheres-db000"
  }
}
