{
  "_id": "X3YxKhoALMcBgEvN",
  "name": "Create Minds Think Alike",
  "type": "feat",
  "img": "modules/pf1spheres/assets/icons/spheres/creation.webp",
  "effects": [],
  "folder": null,
  "sort": 0,
  "flags": {
    "pf1spheres": {
      "sphere": "creation"
    }
  },
  "system": {
    "description": {
      "value": "<p><strong>Prerequisites:</strong> Creation sphere (Exquisite Detail), Enhancement sphere (Bestow Intelligence (enhance)), caster level 5th.</p>\n<p>You may create a statue or similar object which is a perfect likeness of yourself or another creature, even if you could not ordinarily succeed at a Craft check to create an object of that complexity.</p>\n<p>This statue may be any size you choose, to a maximum of the largest object size you could create. An object created this way is still a statue, and while details can be as close to accurate as possible, the object is not mistaken for a real creature without additional disguises.</p>\n<p>When you enhance a target using the Bestow Intelligence talent to grant an object intelligence, you may spend an additional spell point to grant the target object an imprinted duplicate of your mind. The target gains all your mental traits and quirks, such as your memories and mannerisms. This allows the target to use either its normal skill ranks and modifiers, if it possesses any, or your skill ranks and modifiers, whichever is better. The target does not gain any other abilities because of this effect. The target&#8217;s starting attitude is friendly towards you, as normal, and the target is aware of the circumstances of its sentience and how you created it, but its attitude may change.</p>\n",
      "unidentified": ""
    },
    "tags": [],
    "actions": [],
    "uses": {
      "per": null,
      "value": 0,
      "maxFormula": "",
      "autoDeductChargesCost": "1"
    },
    "attackNotes": [],
    "effectNotes": [],
    "changes": [],
    "changeFlags": {
      "loseDexToAC": false,
      "noEncumbrance": false,
      "mediumArmorFullSpeed": false,
      "heavyArmorFullSpeed": false
    },
    "contextNotes": [],
    "links": {
      "children": [],
      "charges": []
    },
    "tag": "",
    "useCustomTag": false,
    "armorProf": {
      "value": [],
      "custom": ""
    },
    "weaponProf": {
      "value": [],
      "custom": ""
    },
    "languages": {
      "value": [],
      "custom": ""
    },
    "flags": {
      "boolean": {},
      "dictionary": {}
    },
    "scriptCalls": [],
    "subType": "magicTalent",
    "associations": {
      "classes": []
    },
    "showInQuickbar": false,
    "abilityType": "none",
    "crOffset": "",
    "disabled": false,
    "classSkills": {},
    "nonlethal": false,
    "duration": {
      "value": null,
      "units": ""
    },
    "target": {
      "value": ""
    },
    "attackName": "",
    "actionType": null,
    "attackBonus": "",
    "critConfirmBonus": "",
    "damage": {
      "parts": [],
      "critParts": [],
      "nonCritParts": []
    },
    "attackParts": [],
    "formulaicAttacks": {
      "count": {
        "formula": ""
      },
      "bonus": {
        "formula": ""
      },
      "label": null
    },
    "formula": "",
    "ability": {
      "attack": null,
      "damage": null,
      "damageMult": 1,
      "critRange": 20,
      "critMult": 2
    },
    "save": {
      "dc": 0,
      "type": "",
      "description": ""
    },
    "soundEffect": "",
    "powerAttack": {
      "multiplier": "",
      "damageBonus": 2,
      "critMultiplier": 1
    }
  },
  "ownership": {
    "default": 0
  },
  "_stats": {
    "systemId": "pf1",
    "systemVersion": "9.0",
    "coreVersion": "10.291",
    "createdTime": 1663168892631,
    "modifiedTime": 1689623923343,
    "lastModifiedBy": "pf1spheres-db000"
  }
}
