{
  "_id": "x1bCs2cHpyWgtq94",
  "name": "Diagram",
  "type": "feat",
  "img": "modules/pf1spheres/assets/icons/spheres/conjuration.webp",
  "effects": [],
  "folder": null,
  "sort": 0,
  "flags": {
    "pf1spheres": {
      "sphere": "conjuration"
    }
  },
  "system": {
    "description": {
      "value": "<p><strong>Prerequisites:</strong> Conjuration sphere (Call Planar Creature (advanced)), caster level 1st.</p>\n<p>When using the Call Planar Creature advanced talent to call hostile creatures, your traps are even harder to break than usual. If you spend 10 minutes and succeed at a DC 20 Spellcraft check to prepare a summoning circle before you call a creature, that creature finds it very difficult to escape. You cannot know the result of your Spellcraft check until after the calling is performed, but you may take 20 on this check by dedicating 3 hours and 20 minutes to creating the circle.</p>\n<p>If your check is successful, the called creature cannot use its spell resistance to attempt to escape its prison, nor use any dimensional or teleportation effects, nor can any of its abilities or attacks cross the prison&#8217;s border. When pitting its Charisma against your trap, the DC increases by 5. While a creature cannot disturb the summoning circle, if any outside force disturbs the circle (even a hair falling across it), the called creature is immediately freed.</p>\n",
      "unidentified": ""
    },
    "tags": [],
    "actions": [],
    "uses": {
      "per": null,
      "value": 0,
      "maxFormula": "",
      "autoDeductChargesCost": "1"
    },
    "attackNotes": [],
    "effectNotes": [],
    "changes": [],
    "changeFlags": {
      "loseDexToAC": false,
      "noEncumbrance": false,
      "mediumArmorFullSpeed": false,
      "heavyArmorFullSpeed": false
    },
    "contextNotes": [],
    "links": {
      "children": [],
      "charges": []
    },
    "tag": "",
    "useCustomTag": false,
    "armorProf": {
      "value": [],
      "custom": ""
    },
    "weaponProf": {
      "value": [],
      "custom": ""
    },
    "languages": {
      "value": [],
      "custom": ""
    },
    "flags": {
      "boolean": {},
      "dictionary": {}
    },
    "scriptCalls": [],
    "subType": "magicTalent",
    "associations": {
      "classes": []
    },
    "showInQuickbar": false,
    "abilityType": "none",
    "crOffset": "",
    "disabled": false,
    "classSkills": {},
    "nonlethal": false,
    "duration": {
      "value": null,
      "units": ""
    },
    "target": {
      "value": ""
    },
    "attackName": "",
    "actionType": null,
    "attackBonus": "",
    "critConfirmBonus": "",
    "damage": {
      "parts": [],
      "critParts": [],
      "nonCritParts": []
    },
    "attackParts": [],
    "formulaicAttacks": {
      "count": {
        "formula": ""
      },
      "bonus": {
        "formula": ""
      },
      "label": null
    },
    "formula": "",
    "ability": {
      "attack": null,
      "damage": null,
      "damageMult": 1,
      "critRange": 20,
      "critMult": 2
    },
    "save": {
      "dc": 0,
      "type": "",
      "description": ""
    },
    "soundEffect": "",
    "powerAttack": {
      "multiplier": "",
      "damageBonus": 2,
      "critMultiplier": 1
    }
  },
  "ownership": {
    "default": 0
  },
  "_stats": {
    "systemId": "pf1",
    "systemVersion": "9.0",
    "coreVersion": "10.291",
    "createdTime": 1663168894666,
    "modifiedTime": 1689623923836,
    "lastModifiedBy": "pf1spheres-db000"
  }
}
