{
  "_id": "7ImYoRfXjzOSkUYw",
  "name": "Divine Pressure",
  "type": "feat",
  "img": "modules/pf1spheres/assets/icons/spheres/fate.webp",
  "effects": [],
  "folder": null,
  "sort": 0,
  "flags": {
    "pf1spheres": {
      "sphere": "fate"
    }
  },
  "system": {
    "description": {
      "value": "<p>You may spend a spell point to fill an area with an enduring presence of an alignment you possess (chaotic, evil, good, or lawful).</p>\n<p>Any creature of that alignment&#8217;s opposite (good for evil, lawful for chaotic, etc.) who enters or begins their turn inside the consecration must succeed at a Fortitude saving throw or suffer one of the following conditions: deafened, exhausted, or sickened (chosen at the time of casting). Creatures who fail their saving throw remain under the effects of the condition until they leave the area of the consecration or the consecration ends.</p>\n<p>As this power is cosmic in origin, it can affect undead and constructs, even though they are usually immune to effects requiring a Fortitude saving throw. If you are true neutral, you may choose neutrality with this consecration, in which case all creatures at the extremes of the alignment spectrum (chaotic evil, chaotic good, lawful evil, and lawful good) suffer the ill effects.</p>\n<p>You must concentrate to maintain this consecration. You may always spend an additional spell point as a free action to allow this consecration to continue for 1 minute per caster level without concentration.</p>\n",
      "unidentified": ""
    },
    "tags": ["Consecration"],
    "actions": [],
    "uses": {
      "per": null,
      "value": 0,
      "maxFormula": "",
      "autoDeductChargesCost": "1"
    },
    "attackNotes": [],
    "effectNotes": [],
    "changes": [],
    "changeFlags": {
      "loseDexToAC": false,
      "noEncumbrance": false,
      "mediumArmorFullSpeed": false,
      "heavyArmorFullSpeed": false
    },
    "contextNotes": [],
    "links": {
      "children": [],
      "charges": []
    },
    "tag": "",
    "useCustomTag": false,
    "armorProf": {
      "value": [],
      "custom": ""
    },
    "weaponProf": {
      "value": [],
      "custom": ""
    },
    "languages": {
      "value": [],
      "custom": ""
    },
    "flags": {
      "boolean": {},
      "dictionary": {}
    },
    "scriptCalls": [],
    "subType": "magicTalent",
    "associations": {
      "classes": []
    },
    "showInQuickbar": false,
    "abilityType": "none",
    "crOffset": "",
    "disabled": false,
    "classSkills": {},
    "nonlethal": false,
    "duration": {
      "value": null,
      "units": ""
    },
    "target": {
      "value": ""
    },
    "attackName": "",
    "actionType": null,
    "attackBonus": "",
    "critConfirmBonus": "",
    "damage": {
      "parts": [],
      "critParts": [],
      "nonCritParts": []
    },
    "attackParts": [],
    "formulaicAttacks": {
      "count": {
        "formula": ""
      },
      "bonus": {
        "formula": ""
      },
      "label": null
    },
    "formula": "",
    "ability": {
      "attack": null,
      "damage": null,
      "damageMult": 1,
      "critRange": 20,
      "critMult": 2
    },
    "save": {
      "dc": 0,
      "type": "",
      "description": ""
    },
    "soundEffect": "",
    "powerAttack": {
      "multiplier": "",
      "damageBonus": 2,
      "critMultiplier": 1
    }
  },
  "ownership": {
    "default": 0
  },
  "_stats": {
    "systemId": "pf1",
    "systemVersion": "9.0",
    "coreVersion": "10.291",
    "createdTime": 1663168890518,
    "modifiedTime": 1689623922787,
    "lastModifiedBy": "pf1spheres-db000"
  }
}
