{
  "_id": "m0tBcyQbGgt6KWyB",
  "name": "Dominion",
  "type": "feat",
  "img": "modules/pf1spheres/assets/icons/spheres/death.webp",
  "effects": [],
  "folder": null,
  "sort": 0,
  "flags": {
    "pf1spheres": {
      "sphere": "death"
    }
  },
  "system": {
    "description": {
      "value": "<p>New to The Gravecaller&#8217;s Handbook is an update and errata to a number of talents that previously used or interacted with the Master&#8217;s Presence talent, primarily to use its range if you possessed the talent, or a default range otherwise. This change standardizes the range of these talents to close range and taking the Ranged Death talent can increase this range, instead of needing to take Master&#8217;s Presence additional times.</p>\n<p>This handbook has added the (dominion) descriptor to the following talents and advanced talent in addition to other minor changes:</p>\n<ul>\n<li>Dark Sacrifice (Ultimate Spheres of Power pg. 269)</li>\n<li>Master&#8217;s Presence (Ultimate Spheres of Power pg. 270)</li>\n<li>Reanimated Warriors (Ultimate Spheres of Power pg. 270)</li>\n<li>Shroud (Ultimate Spheres of Power pg. 270)</li>\n<li>Undead Whisperer (Ultimate Spheres of Power pg. 271)</li>\n<li>Corpse Forge (advanced talent) (Ultimate Spheres of Power pg. 393)</li>\n</ul>\n<p>Some Death talents are designated (dominion), which grant you new ways to interact with your raised and controlled undead. (Dominion) talents have a range of close.</p>\n",
      "unidentified": ""
    },
    "tags": [],
    "actions": [],
    "uses": {
      "per": null,
      "value": 0,
      "maxFormula": "",
      "autoDeductChargesCost": "1"
    },
    "attackNotes": [],
    "effectNotes": [],
    "changes": [],
    "changeFlags": {
      "loseDexToAC": false,
      "noEncumbrance": false,
      "mediumArmorFullSpeed": false,
      "heavyArmorFullSpeed": false
    },
    "contextNotes": [],
    "links": {
      "children": [],
      "charges": []
    },
    "tag": "",
    "useCustomTag": false,
    "armorProf": {
      "value": [],
      "custom": ""
    },
    "weaponProf": {
      "value": [],
      "custom": ""
    },
    "languages": {
      "value": [],
      "custom": ""
    },
    "flags": {
      "boolean": {},
      "dictionary": {}
    },
    "scriptCalls": [],
    "subType": "magicTalent",
    "associations": {
      "classes": []
    },
    "showInQuickbar": false,
    "abilityType": "none",
    "crOffset": "",
    "disabled": false,
    "classSkills": {},
    "nonlethal": false,
    "duration": {
      "value": null,
      "units": ""
    },
    "target": {
      "value": ""
    },
    "attackName": "",
    "actionType": null,
    "attackBonus": "",
    "critConfirmBonus": "",
    "damage": {
      "parts": [],
      "critParts": [],
      "nonCritParts": []
    },
    "attackParts": [],
    "formulaicAttacks": {
      "count": {
        "formula": ""
      },
      "bonus": {
        "formula": ""
      },
      "label": null
    },
    "formula": "",
    "ability": {
      "attack": null,
      "damage": null,
      "damageMult": 1,
      "critRange": 20,
      "critMult": 2
    },
    "save": {
      "dc": 0,
      "type": "",
      "description": ""
    },
    "soundEffect": "",
    "powerAttack": {
      "multiplier": "",
      "damageBonus": 2,
      "critMultiplier": 1
    }
  },
  "ownership": {
    "default": 0
  },
  "_stats": {
    "systemId": "pf1",
    "systemVersion": "9.0",
    "coreVersion": "10.291",
    "createdTime": 1663168893576,
    "modifiedTime": 1689623923624,
    "lastModifiedBy": "pf1spheres-db000"
  }
}
