{
  "_id": "1SZ3SrnPPTLFyJ8S",
  "name": "Dragon Transformation",
  "type": "feat",
  "img": "modules/pf1spheres/assets/icons/spheres/alteration.webp",
  "effects": [],
  "folder": null,
  "sort": 0,
  "flags": {
    "pf1spheres": {
      "sphere": "alteration"
    }
  },
  "system": {
    "description": {
      "value": "<p>You may grant the form of a dragon with your shapeshift.<br>\n<strong>Limbs:</strong> 1 head, 4 legs (front 2 end in hands<sup>1</sup>), 1 tail<br>\n<strong>Speech:</strong> Yes; <strong>Hands:</strong> Yes<br>\n<strong>Speed:</strong> 40 ft. land speed<br>\n<strong>Natural weapons:</strong> bite (primary, 1d6 Medium, 1d4 Small)<br>\n<strong>AC:</strong> +2 natural armor bonus, +1 per 5 caster levels<br>\n<strong>Special:</strong> Darkvision 60 ft., a breath weapon. The breath weapon is a 60-ft. line or a 30-ft. cone, and deals either fire, electricity, acid, or cold damage as chosen at the time it is gained. The breath weapon deals 1d8 damage per 2 caster levels, and allows a Reflex save for half damage. The target must wait at least 1d4 rounds between uses of their breath weapon. A target may only possess one breath weapon at a time.</p>\n<p>Dragon Transformation offers the following traits, which you may apply to any form:</p>\n<ul>\n<li><strong>Affinity for Treasure:</strong> The target gains the scent ability, except it can detect only precious metals (such as copper, silver, and gold), gemstones, and creatures primarily made of such materials. In addition, the target gains a bonus equal to half your caster level on Appraise checks.</li>\n<li><strong>Breath Weapon:</strong> Gains a breath weapon as given by the dragon base form.</li>\n<li>Double the size of a breath weapon (must possess a breath weapon to gain this trait).</li>\n<li><strong>Draconic Resistances:</strong> The target gains a +2 racial bonus on saving throws made against magic sleep and paralysis, increasing by +1 per 5 caster levels. In addition, the target adds half your caster level (minimum 1) to the DC of any attempts to intimidate the target.</li>\n<li><strong>Warding Scales:</strong> 1/2 of the target's natural armor bonus to AC applies against touch attacks. [SA:EAO]</li>\n</ul>\n<p><sup><strong>1:</strong> The hands granted by Dragon Transformation can fulfill somatic components and manipulate items, but they're not suitable for combat purposes and cannot wield weapons or shields.</sup></p>\n",
      "unidentified": ""
    },
    "tags": ["Transformation"],
    "actions": [],
    "uses": {
      "per": null,
      "value": 0,
      "maxFormula": "",
      "autoDeductChargesCost": "1"
    },
    "attackNotes": [],
    "effectNotes": [],
    "changes": [],
    "changeFlags": {
      "loseDexToAC": false,
      "noEncumbrance": false,
      "mediumArmorFullSpeed": false,
      "heavyArmorFullSpeed": false
    },
    "contextNotes": [],
    "links": {
      "children": [],
      "charges": []
    },
    "tag": "",
    "useCustomTag": false,
    "armorProf": {
      "value": [],
      "custom": ""
    },
    "weaponProf": {
      "value": [],
      "custom": ""
    },
    "languages": {
      "value": [],
      "custom": ""
    },
    "flags": {
      "boolean": {},
      "dictionary": {}
    },
    "scriptCalls": [],
    "subType": "magicTalent",
    "associations": {
      "classes": []
    },
    "showInQuickbar": false,
    "abilityType": "none",
    "crOffset": "",
    "disabled": false,
    "classSkills": {},
    "nonlethal": false,
    "duration": {
      "value": null,
      "units": ""
    },
    "target": {
      "value": ""
    },
    "attackName": "",
    "actionType": null,
    "attackBonus": "",
    "critConfirmBonus": "",
    "damage": {
      "parts": [],
      "critParts": [],
      "nonCritParts": []
    },
    "attackParts": [],
    "formulaicAttacks": {
      "count": {
        "formula": ""
      },
      "bonus": {
        "formula": ""
      },
      "label": null
    },
    "formula": "",
    "ability": {
      "attack": null,
      "damage": null,
      "damageMult": 1,
      "critRange": 20,
      "critMult": 2
    },
    "save": {
      "dc": 0,
      "type": "",
      "description": ""
    },
    "soundEffect": "",
    "powerAttack": {
      "multiplier": "",
      "damageBonus": 2,
      "critMultiplier": 1
    }
  },
  "ownership": {
    "default": 0
  },
  "_stats": {
    "systemId": "pf1",
    "systemVersion": "9.0",
    "coreVersion": "10.291",
    "createdTime": 1663168890409,
    "modifiedTime": 1689623922702,
    "lastModifiedBy": "pf1spheres-db000"
  }
}
