{
  "_id": "oKuXeDTW3NJ2lTqg",
  "name": "Energy Satellite",
  "type": "feat",
  "img": "modules/pf1spheres/assets/icons/spheres/destruction.webp",
  "effects": [],
  "folder": null,
  "sort": 0,
  "flags": {
    "pf1spheres": {
      "sphere": "destruction"
    }
  },
  "system": {
    "description": {
      "value": "<p>You may spend 1 spell point to form your destructive blast into 1 satellite that orbits your body that lasts for one minute per caster level or until discharged. This cannot be combined with Gather Energy or spending a spell point to increase the destructive blast&#8217;s damage. You may maintain 1 satellite at a time + 1 additional satellite per 10 caster levels. You may increase the casting time when using this (blast shape) by 1 step in order to form multiple satellites (up to your normal maximum). You may select different (blast types) for each satellite formed this way, spending any additional spell points or costs required.</p>\n<p>As an immediate action, you may discharge a single satellite, targeting any creature within 5 feet + 5 feet per 2 caster levels to deal your destructive blast damage (Reflex half).</p>\n",
      "unidentified": ""
    },
    "tags": ["Blast Shape"],
    "actions": [],
    "uses": {
      "per": null,
      "value": 0,
      "maxFormula": "",
      "autoDeductChargesCost": "1"
    },
    "attackNotes": [],
    "effectNotes": [],
    "changes": [],
    "changeFlags": {
      "loseDexToAC": false,
      "noEncumbrance": false,
      "mediumArmorFullSpeed": false,
      "heavyArmorFullSpeed": false
    },
    "contextNotes": [],
    "links": {
      "children": [],
      "charges": []
    },
    "tag": "",
    "useCustomTag": false,
    "armorProf": {
      "value": [],
      "custom": ""
    },
    "weaponProf": {
      "value": [],
      "custom": ""
    },
    "languages": {
      "value": [],
      "custom": ""
    },
    "flags": {
      "boolean": {},
      "dictionary": {}
    },
    "scriptCalls": [],
    "subType": "magicTalent",
    "associations": {
      "classes": []
    },
    "showInQuickbar": false,
    "abilityType": "none",
    "crOffset": "",
    "disabled": false,
    "classSkills": {},
    "nonlethal": false,
    "duration": {
      "value": null,
      "units": ""
    },
    "target": {
      "value": ""
    },
    "attackName": "",
    "actionType": null,
    "attackBonus": "",
    "critConfirmBonus": "",
    "damage": {
      "parts": [],
      "critParts": [],
      "nonCritParts": []
    },
    "attackParts": [],
    "formulaicAttacks": {
      "count": {
        "formula": ""
      },
      "bonus": {
        "formula": ""
      },
      "label": null
    },
    "formula": "",
    "ability": {
      "attack": null,
      "damage": null,
      "damageMult": 1,
      "critRange": 20,
      "critMult": 2
    },
    "save": {
      "dc": 0,
      "type": "",
      "description": ""
    },
    "soundEffect": "",
    "powerAttack": {
      "multiplier": "",
      "damageBonus": 2,
      "critMultiplier": 1
    }
  },
  "ownership": {
    "default": 0
  },
  "_stats": {
    "systemId": "pf1",
    "systemVersion": "9.0",
    "coreVersion": "10.291",
    "createdTime": 1663168894054,
    "modifiedTime": 1689623923652,
    "lastModifiedBy": "pf1spheres-db000"
  }
}
