{
  "_id": "01nBV29RVcdtLQxm",
  "name": "Esteem",
  "type": "feat",
  "img": "modules/pf1spheres/assets/icons/spheres/mind.webp",
  "effects": [],
  "folder": null,
  "sort": 0,
  "flags": {
    "pf1spheres": {
      "sphere": "mind"
    }
  },
  "system": {
    "description": {
      "value": "<p>You imbue a target with an increased sense of self-worth, capacity for persuasion, and force of personality (Will negates).</p>\n<p><strong>Lesser Charm:</strong> You grant a competence bonus to a single Intelligence, Wisdom, or Charisma-based skill check of the target&#8217;s choice equal to 1/2 your caster level (minimum 1) that is performed within 1 hour + 1 hour per 5 caster levels. The target counts as enchanted while under the effects of this charm, and a DC 25 Sense Motive check will determine that the target is not wholly acting as themselves.</p>\n<p><strong>Greater Charm:</strong> This acts the same as the lesser charm, but the bonus to the check now equals your caster level. As a drawback to this charm, this DC of the Sense Motive check to detect the charm on the target is reduced to 15. This level of the charm may only be used once per day on a target.</p>\n<p><strong>Powerful Charm:</strong> As the greater charm, but the check may be performed within 1 day + 1 day per 5 caster levels. This level of the charm may only be used once per week on a target.</p>\n",
      "unidentified": ""
    },
    "tags": ["Charm"],
    "actions": [],
    "uses": {
      "per": null,
      "value": 0,
      "maxFormula": "",
      "autoDeductChargesCost": "1"
    },
    "attackNotes": [],
    "effectNotes": [],
    "changes": [],
    "changeFlags": {
      "loseDexToAC": false,
      "noEncumbrance": false,
      "mediumArmorFullSpeed": false,
      "heavyArmorFullSpeed": false
    },
    "contextNotes": [],
    "links": {
      "children": [],
      "charges": []
    },
    "tag": "",
    "useCustomTag": false,
    "armorProf": {
      "value": [],
      "custom": ""
    },
    "weaponProf": {
      "value": [],
      "custom": ""
    },
    "languages": {
      "value": [],
      "custom": ""
    },
    "flags": {
      "boolean": {},
      "dictionary": {}
    },
    "scriptCalls": [],
    "subType": "magicTalent",
    "associations": {
      "classes": []
    },
    "showInQuickbar": false,
    "abilityType": "none",
    "crOffset": "",
    "disabled": false,
    "classSkills": {},
    "nonlethal": false,
    "duration": {
      "value": null,
      "units": ""
    },
    "target": {
      "value": ""
    },
    "attackName": "",
    "actionType": null,
    "attackBonus": "",
    "critConfirmBonus": "",
    "damage": {
      "parts": [],
      "critParts": [],
      "nonCritParts": []
    },
    "attackParts": [],
    "formulaicAttacks": {
      "count": {
        "formula": ""
      },
      "bonus": {
        "formula": ""
      },
      "label": null
    },
    "formula": "",
    "ability": {
      "attack": null,
      "damage": null,
      "damageMult": 1,
      "critRange": 20,
      "critMult": 2
    },
    "save": {
      "dc": 0,
      "type": "",
      "description": ""
    },
    "soundEffect": "",
    "powerAttack": {
      "multiplier": "",
      "damageBonus": 2,
      "critMultiplier": 1
    }
  },
  "ownership": {
    "default": 0
  },
  "_stats": {
    "systemId": "pf1",
    "systemVersion": "9.0",
    "coreVersion": "10.291",
    "createdTime": 1663168890286,
    "modifiedTime": 1689623922683,
    "lastModifiedBy": "pf1spheres-db000"
  }
}
