{
  "_id": "votCFtAsImFfrzaO",
  "name": "Excessive Force",
  "type": "feat",
  "img": "modules/pf1spheres/assets/icons/spheres/telekinesis.webp",
  "effects": [],
  "folder": null,
  "sort": 0,
  "flags": {
    "pf1spheres": {
      "sphere": "telekinesis"
    }
  },
  "system": {
    "description": {
      "value": "<p>Whenever you could perform a Bludgeon as part of a standard action or greater, you may instead violently slam the target under your telekinesis into another object or against a surface (such as a wall or floor). The target takes damage appropriate to its size, as though used as a Bludgeon, plus an additional 1d6 bludgeoning damage per 2 caster levels and must succeed at a Reflex save or fall prone from the force of the impact. The impacted object or surface takes the damage appropriate to the target&#8217;s size but does not take any additional damage from this effect.</p>\n<p>If you possess the Acceleration talent, you may choose to have the impacted object or surface also take this effect&#8217;s additional damage (in addition to the Bludgeon&#8217;s damage). In addition, you may use this talent when performing a single Bludgeon as part of a standard action or greater. Instead of making an attack roll, both the Bludgeon and the target must succeed at a Reflex save or take damage appropriate to the Bludgeon&#8217;s size plus this effect&#8217;s additional damage and fall prone.</p>\n<p>Using this talent ends your telekinesis on the creature or object used to perform the Bludgeon.</p>\n",
      "unidentified": ""
    },
    "tags": [],
    "actions": [],
    "uses": {
      "per": null,
      "value": 0,
      "maxFormula": "",
      "autoDeductChargesCost": "1"
    },
    "attackNotes": [],
    "effectNotes": [],
    "changes": [],
    "changeFlags": {
      "loseDexToAC": false,
      "noEncumbrance": false,
      "mediumArmorFullSpeed": false,
      "heavyArmorFullSpeed": false
    },
    "contextNotes": [],
    "links": {
      "children": [],
      "charges": []
    },
    "tag": "",
    "useCustomTag": false,
    "armorProf": {
      "value": [],
      "custom": ""
    },
    "weaponProf": {
      "value": [],
      "custom": ""
    },
    "languages": {
      "value": [],
      "custom": ""
    },
    "flags": {
      "boolean": {},
      "dictionary": {}
    },
    "scriptCalls": [],
    "subType": "magicTalent",
    "associations": {
      "classes": []
    },
    "showInQuickbar": false,
    "abilityType": "none",
    "crOffset": "",
    "disabled": false,
    "classSkills": {},
    "nonlethal": false,
    "duration": {
      "value": null,
      "units": ""
    },
    "target": {
      "value": ""
    },
    "attackName": "",
    "actionType": null,
    "attackBonus": "",
    "critConfirmBonus": "",
    "damage": {
      "parts": [],
      "critParts": [],
      "nonCritParts": []
    },
    "attackParts": [],
    "formulaicAttacks": {
      "count": {
        "formula": ""
      },
      "bonus": {
        "formula": ""
      },
      "label": null
    },
    "formula": "",
    "ability": {
      "attack": null,
      "damage": null,
      "damageMult": 1,
      "critRange": 20,
      "critMult": 2
    },
    "save": {
      "dc": 0,
      "type": "",
      "description": ""
    },
    "soundEffect": "",
    "powerAttack": {
      "multiplier": "",
      "damageBonus": 2,
      "critMultiplier": 1
    }
  },
  "ownership": {
    "default": 0
  },
  "_stats": {
    "systemId": "pf1",
    "systemVersion": "9.0",
    "coreVersion": "10.291",
    "createdTime": 1663168894641,
    "modifiedTime": 1689623923825,
    "lastModifiedBy": "pf1spheres-db000"
  }
}
