{
  "_id": "L7UdajIkFEGtcNmD",
  "name": "Fallout",
  "type": "feat",
  "img": "modules/pf1spheres/assets/icons/spheres/weather.webp",
  "effects": [],
  "folder": null,
  "sort": 0,
  "flags": {
    "pf1spheres": {
      "sphere": "weather"
    }
  },
  "system": {
    "description": {
      "value": "<p>Fallout of severity level 3 forces creatures inside the area to attempt a Fortitude save each hour (DC 15, +1 per previous check) or take 1 point of Constitution damage.</p>\n<p>Severity level 4 functions as severity level 3, save that checks must be made every 10 minutes rather than every hour.</p>\n<p>Severity level 5 functions as severity level 4, save that checks must be made every minute rather than every hour and Constitution damage improves to 1d2.</p>\n<p>Severity level 6 functions as severity level 5, save that checks must be made every round rather than every minute and the Constitution damage becomes 1d4 Constitution drain.</p>\n<p>Severity level 7 functions as severity level 6, save that it deals 2d4 points of Constitution drain.</p>\n<p>Damage from fallout is a poison effect.</p>\n<p>Fallout is a type of radioactive weather, and thus requires the Radiation Lord advanced talent to create.</p>\n<h2 id=\"toc10\"><span>Weather Talent Types</span></h2>\n",
      "unidentified": ""
    },
    "tags": [],
    "actions": [],
    "uses": {
      "per": null,
      "value": 0,
      "maxFormula": "",
      "autoDeductChargesCost": "1"
    },
    "attackNotes": [],
    "effectNotes": [],
    "changes": [],
    "changeFlags": {
      "loseDexToAC": false,
      "noEncumbrance": false,
      "mediumArmorFullSpeed": false,
      "heavyArmorFullSpeed": false
    },
    "contextNotes": [],
    "links": {
      "children": [],
      "charges": []
    },
    "tag": "",
    "useCustomTag": false,
    "armorProf": {
      "value": [],
      "custom": ""
    },
    "weaponProf": {
      "value": [],
      "custom": ""
    },
    "languages": {
      "value": [],
      "custom": ""
    },
    "flags": {
      "boolean": {},
      "dictionary": {}
    },
    "scriptCalls": [],
    "subType": "magicTalent",
    "associations": {
      "classes": []
    },
    "showInQuickbar": false,
    "abilityType": "none",
    "crOffset": "",
    "disabled": false,
    "classSkills": {},
    "nonlethal": false,
    "duration": {
      "value": null,
      "units": ""
    },
    "target": {
      "value": ""
    },
    "attackName": "",
    "actionType": null,
    "attackBonus": "",
    "critConfirmBonus": "",
    "damage": {
      "parts": [],
      "critParts": [],
      "nonCritParts": []
    },
    "attackParts": [],
    "formulaicAttacks": {
      "count": {
        "formula": ""
      },
      "bonus": {
        "formula": ""
      },
      "label": null
    },
    "formula": "",
    "ability": {
      "attack": null,
      "damage": null,
      "damageMult": 1,
      "critRange": 20,
      "critMult": 2
    },
    "save": {
      "dc": 0,
      "type": "",
      "description": ""
    },
    "soundEffect": "",
    "powerAttack": {
      "multiplier": "",
      "damageBonus": 2,
      "critMultiplier": 1
    }
  },
  "ownership": {
    "default": 0
  },
  "_stats": {
    "systemId": "pf1",
    "systemVersion": "9.0",
    "coreVersion": "10.291",
    "createdTime": 1663168891680,
    "modifiedTime": 1689623923135,
    "lastModifiedBy": "pf1spheres-db000"
  }
}
