{
  "_id": "opj5bP6stUj9m1Te",
  "name": "Finesse",
  "type": "feat",
  "img": "modules/pf1spheres/assets/icons/spheres/telekinesis.webp",
  "effects": [],
  "folder": null,
  "sort": 0,
  "flags": {
    "pf1spheres": {
      "sphere": "telekinesis"
    }
  },
  "system": {
    "description": {
      "value": "<p>You may use telekinesis to perform fine manipulations, such as turning a key in a lock, unrolling a scroll, or tying a knot. You may attempt appropriate skill checks (such as Craft, Disable Device, Profession, or Performance checks that involve objects or instruments, but not Sleight of Hand or other checks involving attended objects unless you possess the Steal talent) at a distance, as well as Heal checks to perform first aid. When performing a skill at a distance you may use your casting ability modifier in place of the normal ability modifier, but you also suffer a -5 penalty to the skill check and cannot take 10. You may also use Sustained Force to maintain complicated, non-combat procedures such as making knives prepare dinner, make a lute play itself, or making a shovel dig a ditch.</p>\n",
      "unidentified": ""
    },
    "tags": [],
    "actions": [],
    "uses": {
      "per": null,
      "value": 0,
      "maxFormula": "",
      "autoDeductChargesCost": "1"
    },
    "attackNotes": [],
    "effectNotes": [],
    "changes": [],
    "changeFlags": {
      "loseDexToAC": false,
      "noEncumbrance": false,
      "mediumArmorFullSpeed": false,
      "heavyArmorFullSpeed": false
    },
    "contextNotes": [],
    "links": {
      "children": [],
      "charges": []
    },
    "tag": "",
    "useCustomTag": false,
    "armorProf": {
      "value": [],
      "custom": ""
    },
    "weaponProf": {
      "value": [],
      "custom": ""
    },
    "languages": {
      "value": [],
      "custom": ""
    },
    "flags": {
      "boolean": {},
      "dictionary": {}
    },
    "scriptCalls": [],
    "subType": "magicTalent",
    "associations": {
      "classes": []
    },
    "showInQuickbar": false,
    "abilityType": "none",
    "crOffset": "",
    "disabled": false,
    "classSkills": {},
    "nonlethal": false,
    "duration": {
      "value": null,
      "units": ""
    },
    "target": {
      "value": ""
    },
    "attackName": "",
    "actionType": null,
    "attackBonus": "",
    "critConfirmBonus": "",
    "damage": {
      "parts": [],
      "critParts": [],
      "nonCritParts": []
    },
    "attackParts": [],
    "formulaicAttacks": {
      "count": {
        "formula": ""
      },
      "bonus": {
        "formula": ""
      },
      "label": null
    },
    "formula": "",
    "ability": {
      "attack": null,
      "damage": null,
      "damageMult": 1,
      "critRange": 20,
      "critMult": 2
    },
    "save": {
      "dc": 0,
      "type": "",
      "description": ""
    },
    "soundEffect": "",
    "powerAttack": {
      "multiplier": "",
      "damageBonus": 2,
      "critMultiplier": 1
    }
  },
  "ownership": {
    "default": 0
  },
  "_stats": {
    "systemId": "pf1",
    "systemVersion": "9.0",
    "coreVersion": "10.291",
    "createdTime": 1663168894069,
    "modifiedTime": 1689623923659,
    "lastModifiedBy": "pf1spheres-db000"
  }
}
