{
  "_id": "03SfYctRbWqI99oI",
  "name": "Gravetongue",
  "type": "feat",
  "img": "modules/pf1spheres/assets/icons/spheres/death.webp",
  "effects": [],
  "folder": null,
  "sort": 0,
  "flags": {
    "pf1spheres": {
      "sphere": "death"
    }
  },
  "system": {
    "description": {
      "value": "<p>You may spend a spell point as a standard action to gain the ability to speak with undead and corpses for 1 minute per caster level. You can communicate with, ask questions of, and receive answers from them. A mindless undead or corpse spoken to with gravetongue does not maintain any memory of its life or death - only the time that has elapsed since its death (and reanimation).</p>\n<p>A normal corpse&#8217;s sense of its surroundings is limited, so it will not be able to give (or recognize) detailed descriptions of creatures or answer questions about events outside its immediate vicinity. The spell does not make undead creatures any more friendly or cooperative than normal, and while mindless undead and corpses will always answer truthfully, their ability to answer more than simple questions is restricted. You do not need to share a language with the target.</p>\n",
      "unidentified": ""
    },
    "tags": [],
    "actions": [],
    "uses": {
      "per": null,
      "value": 0,
      "maxFormula": "",
      "autoDeductChargesCost": "1"
    },
    "attackNotes": [],
    "effectNotes": [],
    "changes": [],
    "changeFlags": {
      "loseDexToAC": false,
      "noEncumbrance": false,
      "mediumArmorFullSpeed": false,
      "heavyArmorFullSpeed": false
    },
    "contextNotes": [],
    "links": {
      "children": [],
      "charges": []
    },
    "tag": "",
    "useCustomTag": false,
    "armorProf": {
      "value": [],
      "custom": ""
    },
    "weaponProf": {
      "value": [],
      "custom": ""
    },
    "languages": {
      "value": [],
      "custom": ""
    },
    "flags": {
      "boolean": {},
      "dictionary": {}
    },
    "scriptCalls": [],
    "subType": "magicTalent",
    "associations": {
      "classes": []
    },
    "showInQuickbar": false,
    "abilityType": "none",
    "crOffset": "",
    "disabled": false,
    "classSkills": {},
    "nonlethal": false,
    "duration": {
      "value": null,
      "units": ""
    },
    "target": {
      "value": ""
    },
    "attackName": "",
    "actionType": null,
    "attackBonus": "",
    "critConfirmBonus": "",
    "damage": {
      "parts": [],
      "critParts": [],
      "nonCritParts": []
    },
    "attackParts": [],
    "formulaicAttacks": {
      "count": {
        "formula": ""
      },
      "bonus": {
        "formula": ""
      },
      "label": null
    },
    "formula": "",
    "ability": {
      "attack": null,
      "damage": null,
      "damageMult": 1,
      "critRange": 20,
      "critMult": 2
    },
    "save": {
      "dc": 0,
      "type": "",
      "description": ""
    },
    "soundEffect": "",
    "powerAttack": {
      "multiplier": "",
      "damageBonus": 2,
      "critMultiplier": 1
    }
  },
  "ownership": {
    "default": 0
  },
  "_stats": {
    "systemId": "pf1",
    "systemVersion": "9.0",
    "coreVersion": "10.291",
    "createdTime": 1663168890354,
    "modifiedTime": 1689623922685,
    "lastModifiedBy": "pf1spheres-db000"
  }
}
