{
  "_id": "LJSsCCzOXEJvs11a",
  "name": "Hallowed/Unhallowed Totem",
  "type": "feat",
  "img": "modules/pf1spheres/assets/icons/spheres/war.webp",
  "effects": [],
  "folder": null,
  "sort": 0,
  "flags": {
    "pf1spheres": {
      "sphere": "war"
    }
  },
  "system": {
    "description": {
      "value": "<p>You may create either a hallowed or unhallowed totem. If creating a hallowed totem, all creatures within the area of this totem suffer a -1 penalty to saving throws made to resist channeled positive energy and positive energy effects such as cure spells and Life sphere effects. This penalty increases by 1 for every 10 caster levels. If creating an unhallowed totem, this penalty instead applies to channeled negative energy and negative energy effects, such as inflict spells and Death sphere effects. If you place a hallowed totem in a location that already has an unhallowed totem present or vice versa, you must succeed at a magic skill check to place your totem. On a success, the two totems cancel each other, leaving neither hallowed totem nor unhallowed totem in place.</p>\n",
      "unidentified": ""
    },
    "tags": ["Totem"],
    "actions": [],
    "uses": {
      "per": null,
      "value": 0,
      "maxFormula": "",
      "autoDeductChargesCost": "1"
    },
    "attackNotes": [],
    "effectNotes": [],
    "changes": [],
    "changeFlags": {
      "loseDexToAC": false,
      "noEncumbrance": false,
      "mediumArmorFullSpeed": false,
      "heavyArmorFullSpeed": false
    },
    "contextNotes": [],
    "links": {
      "children": [],
      "charges": []
    },
    "tag": "",
    "useCustomTag": false,
    "armorProf": {
      "value": [],
      "custom": ""
    },
    "weaponProf": {
      "value": [],
      "custom": ""
    },
    "languages": {
      "value": [],
      "custom": ""
    },
    "flags": {
      "boolean": {},
      "dictionary": {}
    },
    "scriptCalls": [],
    "subType": "magicTalent",
    "associations": {
      "classes": []
    },
    "showInQuickbar": false,
    "abilityType": "none",
    "crOffset": "",
    "disabled": false,
    "classSkills": {},
    "nonlethal": false,
    "duration": {
      "value": null,
      "units": ""
    },
    "target": {
      "value": ""
    },
    "attackName": "",
    "actionType": null,
    "attackBonus": "",
    "critConfirmBonus": "",
    "damage": {
      "parts": [],
      "critParts": [],
      "nonCritParts": []
    },
    "attackParts": [],
    "formulaicAttacks": {
      "count": {
        "formula": ""
      },
      "bonus": {
        "formula": ""
      },
      "label": null
    },
    "formula": "",
    "ability": {
      "attack": null,
      "damage": null,
      "damageMult": 1,
      "critRange": 20,
      "critMult": 2
    },
    "save": {
      "dc": 0,
      "type": "",
      "description": ""
    },
    "soundEffect": "",
    "powerAttack": {
      "multiplier": "",
      "damageBonus": 2,
      "critMultiplier": 1
    }
  },
  "ownership": {
    "default": 0
  },
  "_stats": {
    "systemId": "pf1",
    "systemVersion": "9.0",
    "coreVersion": "10.291",
    "createdTime": 1663168891687,
    "modifiedTime": 1689623923138,
    "lastModifiedBy": "pf1spheres-db000"
  }
}
