{
  "_id": "1us8EqHwimTxu1oA",
  "name": "Haunting Apparition",
  "type": "feat",
  "img": "modules/pf1spheres/assets/icons/spheres/death.webp",
  "effects": [],
  "folder": null,
  "sort": 0,
  "flags": {
    "pf1spheres": {
      "sphere": "death"
    }
  },
  "system": {
    "description": {
      "value": "<p>You may place a ghost strike of your choice onto an adjacent, unoccupied area up to one 5-foot square per two caster levels (minimum one 5-foot square), that lashes out at the first creature who enter its area, similar to a haunt.</p>\n<p>The first creature who steps onto an affected square is affected by your ghost strike. If the ghost strike does not allow a saving throw, the creature affected is allowed a Will save to negate its effects. After activation, this haunt disappears.</p>\n<p>A haunting apparition lasts for 10 minutes per caster level before becoming inert. It shares your alignment, and its Perception DC and hit points are equal to its save DC. You may only have one active haunt apparition at a time; placing a second haunting apparition deactivates the first. You may select this talent multiple times. Each time it is taken, increase the number of haunting apparitions you may have active at once by 1.</p>\n",
      "unidentified": ""
    },
    "tags": [],
    "actions": [],
    "uses": {
      "per": null,
      "value": 0,
      "maxFormula": "",
      "autoDeductChargesCost": "1"
    },
    "attackNotes": [],
    "effectNotes": [],
    "changes": [],
    "changeFlags": {
      "loseDexToAC": false,
      "noEncumbrance": false,
      "mediumArmorFullSpeed": false,
      "heavyArmorFullSpeed": false
    },
    "contextNotes": [],
    "links": {
      "children": [],
      "charges": []
    },
    "tag": "",
    "useCustomTag": false,
    "armorProf": {
      "value": [],
      "custom": ""
    },
    "weaponProf": {
      "value": [],
      "custom": ""
    },
    "languages": {
      "value": [],
      "custom": ""
    },
    "flags": {
      "boolean": {},
      "dictionary": {}
    },
    "scriptCalls": [],
    "subType": "magicTalent",
    "associations": {
      "classes": []
    },
    "showInQuickbar": false,
    "abilityType": "none",
    "crOffset": "",
    "disabled": false,
    "classSkills": {},
    "nonlethal": false,
    "duration": {
      "value": null,
      "units": ""
    },
    "target": {
      "value": ""
    },
    "attackName": "",
    "actionType": null,
    "attackBonus": "",
    "critConfirmBonus": "",
    "damage": {
      "parts": [],
      "critParts": [],
      "nonCritParts": []
    },
    "attackParts": [],
    "formulaicAttacks": {
      "count": {
        "formula": ""
      },
      "bonus": {
        "formula": ""
      },
      "label": null
    },
    "formula": "",
    "ability": {
      "attack": null,
      "damage": null,
      "damageMult": 1,
      "critRange": 20,
      "critMult": 2
    },
    "save": {
      "dc": 0,
      "type": "",
      "description": ""
    },
    "soundEffect": "",
    "powerAttack": {
      "multiplier": "",
      "damageBonus": 2,
      "critMultiplier": 1
    }
  },
  "ownership": {
    "default": 0
  },
  "_stats": {
    "systemId": "pf1",
    "systemVersion": "9.0",
    "coreVersion": "10.291",
    "createdTime": 1663168890421,
    "modifiedTime": 1689623922708,
    "lastModifiedBy": "pf1spheres-db000"
  }
}
