{
  "_id": "2HRbHofgRTegvGjQ",
  "name": "Hazardous Terrain",
  "type": "feat",
  "img": "modules/pf1spheres/assets/icons/spheres/nature.webp",
  "effects": [],
  "folder": null,
  "sort": 0,
  "flags": {
    "pf1spheres": {
      "sphere": "nature"
    }
  },
  "system": {
    "description": {
      "value": "<p>You know how to make many of your geomancing abilities particularly dangerous.</p>\n<p>When using the Freeze or Tremor geomancing abilities, you may cause the affected area to grow spike-like formations which last 1 round per caster level. If using Freeze on creatures, this affects the spaces adjacent to where they are standing. Freeze can&#8217;t create both spikes and slippery ice in the same space.</p>\n<p>Whenever a creature steps onto an affected square, make a touch attack roll against the target using your caster level as your attack bonus. If successful, the target suffers piercing damage equal to your caster level (minimum 1) and has its land speed reduced by half due to its wounded feet. This movement penalty lasts for 24 hours or until the creature is treated with a DC 15 Heal check or receives at least 1 point of fast healing/magical healing/regeneration. A charging or running creature must immediately stop if it enters the affected area. A creature may move at half speed through this area without risking damage to itself.</p>\n<p>When using Entangle you may cause the effect to grow thorns, dealing piercing damage equal to 1d6 + your caster level per round to all creatures inside the effect. Those who succeed at their Reflex save against the Entangle take half damage.</p>\n<p>When using Affect Fire or Create Fire, increase the space the fire occupies as if it were one size category larger than it actually is.</p>\n<p>Finally, when using Magnetize you may target a 5-foot radius + 5 feet per 5 caster levels area instead of a single target. When used in this way, Magnetize becomes a concentration effect. Any target who enters or begins their turn within this area is attacked by the metal object, as if using the Magnetize ability. These attacks are not attack actions. A single creature can only be attacked once per round in this way, no matter how many times they pass through the affected area during their movement. While this effect is active, attempting to grab or impede the Magnetized object requires a successful grapple (CMD equals 10 + your caster level + your casting ability modifier + any size benefit or penalty from the object).</p>\n",
      "unidentified": ""
    },
    "tags": ["Geomancing"],
    "actions": [],
    "uses": {
      "per": null,
      "value": 0,
      "maxFormula": "",
      "autoDeductChargesCost": "1"
    },
    "attackNotes": [],
    "effectNotes": [],
    "changes": [],
    "changeFlags": {
      "loseDexToAC": false,
      "noEncumbrance": false,
      "mediumArmorFullSpeed": false,
      "heavyArmorFullSpeed": false
    },
    "contextNotes": [],
    "links": {
      "children": [],
      "charges": []
    },
    "tag": "",
    "useCustomTag": false,
    "armorProf": {
      "value": [],
      "custom": ""
    },
    "weaponProf": {
      "value": [],
      "custom": ""
    },
    "languages": {
      "value": [],
      "custom": ""
    },
    "flags": {
      "boolean": {},
      "dictionary": {}
    },
    "scriptCalls": [],
    "subType": "magicTalent",
    "associations": {
      "classes": []
    },
    "showInQuickbar": false,
    "abilityType": "none",
    "crOffset": "",
    "disabled": false,
    "classSkills": {},
    "nonlethal": false,
    "duration": {
      "value": null,
      "units": ""
    },
    "target": {
      "value": ""
    },
    "attackName": "",
    "actionType": null,
    "attackBonus": "",
    "critConfirmBonus": "",
    "damage": {
      "parts": [],
      "critParts": [],
      "nonCritParts": []
    },
    "attackParts": [],
    "formulaicAttacks": {
      "count": {
        "formula": ""
      },
      "bonus": {
        "formula": ""
      },
      "label": null
    },
    "formula": "",
    "ability": {
      "attack": null,
      "damage": null,
      "damageMult": 1,
      "critRange": 20,
      "critMult": 2
    },
    "save": {
      "dc": 0,
      "type": "",
      "description": ""
    },
    "soundEffect": "",
    "powerAttack": {
      "multiplier": "",
      "damageBonus": 2,
      "critMultiplier": 1
    }
  },
  "ownership": {
    "default": 0
  },
  "_stats": {
    "systemId": "pf1",
    "systemVersion": "9.0",
    "coreVersion": "10.291",
    "createdTime": 1663168890424,
    "modifiedTime": 1689623922711,
    "lastModifiedBy": "pf1spheres-db000"
  }
}
