{
  "_id": "RenGBCruzFsy5XV4",
  "name": "Inner Sun",
  "type": "feat",
  "img": "modules/pf1spheres/assets/icons/spheres/light.webp",
  "effects": [],
  "folder": null,
  "sort": 0,
  "flags": {
    "pf1spheres": {
      "sphere": "light"
    }
  },
  "system": {
    "description": {
      "value": "<p>You grant a creature that you have caused to glow brightly a weapon of light they may wield as a weapon. The weapon can be shaped into any melee weapon the holder is proficient with as a swift action, and initially appears as whatever weapon they choose. On a hit, this does an additional 1d4 fire damage + 1d4 damage for every 4 caster levels that you possess.</p>\n<p>The weapon can not harm invisible or translucent enemies or structures, and passes through them harmlessly, possibly damaging things on the other side. Targets that are reflective such as a mirror have a 50% miss chance against attacks with this weapon. If the creature deliberately lets go of the weapon, it disappears, but otherwise the creature can not be disarmed.</p>\n<p>You may target a weapon to grant it this additional fire damage, as if it were a weapon of light. This extra damage is subject to the same restrictions as a weapon of light (does not affect invisibile or translucent targets, 50% chance of not affecting reflective creatures).</p>\n",
      "unidentified": ""
    },
    "tags": ["Light"],
    "actions": [],
    "uses": {
      "per": null,
      "value": 0,
      "maxFormula": "",
      "autoDeductChargesCost": "1"
    },
    "attackNotes": [],
    "effectNotes": [],
    "changes": [],
    "changeFlags": {
      "loseDexToAC": false,
      "noEncumbrance": false,
      "mediumArmorFullSpeed": false,
      "heavyArmorFullSpeed": false
    },
    "contextNotes": [],
    "links": {
      "children": [],
      "charges": []
    },
    "tag": "",
    "useCustomTag": false,
    "armorProf": {
      "value": [],
      "custom": ""
    },
    "weaponProf": {
      "value": [],
      "custom": ""
    },
    "languages": {
      "value": [],
      "custom": ""
    },
    "flags": {
      "boolean": {},
      "dictionary": {}
    },
    "scriptCalls": [],
    "subType": "magicTalent",
    "associations": {
      "classes": []
    },
    "showInQuickbar": false,
    "abilityType": "none",
    "crOffset": "",
    "disabled": false,
    "classSkills": {},
    "nonlethal": false,
    "duration": {
      "value": null,
      "units": ""
    },
    "target": {
      "value": ""
    },
    "attackName": "",
    "actionType": null,
    "attackBonus": "",
    "critConfirmBonus": "",
    "damage": {
      "parts": [],
      "critParts": [],
      "nonCritParts": []
    },
    "attackParts": [],
    "formulaicAttacks": {
      "count": {
        "formula": ""
      },
      "bonus": {
        "formula": ""
      },
      "label": null
    },
    "formula": "",
    "ability": {
      "attack": null,
      "damage": null,
      "damageMult": 1,
      "critRange": 20,
      "critMult": 2
    },
    "save": {
      "dc": 0,
      "type": "",
      "description": ""
    },
    "soundEffect": "",
    "powerAttack": {
      "multiplier": "",
      "damageBonus": 2,
      "critMultiplier": 1
    }
  },
  "ownership": {
    "default": 0
  },
  "_stats": {
    "systemId": "pf1",
    "systemVersion": "9.0",
    "coreVersion": "10.291",
    "createdTime": 1663168892147,
    "modifiedTime": 1689623923202,
    "lastModifiedBy": "pf1spheres-db000"
  }
}
