{
  "_id": "MjuYm4bfTqfyyyLw",
  "name": "Living Crystal Blast",
  "type": "feat",
  "img": "modules/pf1spheres/assets/icons/spheres/destruction.webp",
  "effects": [],
  "folder": null,
  "sort": 0,
  "flags": {
    "pf1spheres": {
      "sphere": "destruction"
    }
  },
  "system": {
    "description": {
      "value": "<p>You may spend a spell point to create a living crystal blast, covering the target and their space in a mass of ever shifting and clinging crystals. Your destructive blast deals piercing damage. Any creature struck by the attack or that failed their Reflex saving throw if one was required must succeed at a Reflex save or be entangled and unable to move.</p>\n<p>In addition, the target&#8217;s square (or the blast&#8217;s affected area) becomes overgrown with living crystal. Any creature entering an affected square must succeed at a Reflex save or become entangled and unable to move. Breaking free of the entangled condition is a move action, requiring either a Strength check or an Escape Artist check against the living crystal blast&#8217;s save DC. A target may also destroy the crystal on a creature by dealing 3 damage per caster level to the crystal. This removes the entangled condition from the creature. The crystal disappears after 1 minute.</p>\n",
      "unidentified": ""
    },
    "tags": ["Blast Type", "Crystal"],
    "actions": [],
    "uses": {
      "per": null,
      "value": 0,
      "maxFormula": "",
      "autoDeductChargesCost": "1"
    },
    "attackNotes": [],
    "effectNotes": [],
    "changes": [],
    "changeFlags": {
      "loseDexToAC": false,
      "noEncumbrance": false,
      "mediumArmorFullSpeed": false,
      "heavyArmorFullSpeed": false
    },
    "contextNotes": [],
    "links": {
      "children": [],
      "charges": []
    },
    "tag": "",
    "useCustomTag": false,
    "armorProf": {
      "value": [],
      "custom": ""
    },
    "weaponProf": {
      "value": [],
      "custom": ""
    },
    "languages": {
      "value": [],
      "custom": ""
    },
    "flags": {
      "boolean": {},
      "dictionary": {}
    },
    "scriptCalls": [],
    "subType": "magicTalent",
    "associations": {
      "classes": []
    },
    "showInQuickbar": false,
    "abilityType": "none",
    "crOffset": "",
    "disabled": false,
    "classSkills": {},
    "nonlethal": false,
    "duration": {
      "value": null,
      "units": ""
    },
    "target": {
      "value": ""
    },
    "attackName": "",
    "actionType": null,
    "attackBonus": "",
    "critConfirmBonus": "",
    "damage": {
      "parts": [],
      "critParts": [],
      "nonCritParts": []
    },
    "attackParts": [],
    "formulaicAttacks": {
      "count": {
        "formula": ""
      },
      "bonus": {
        "formula": ""
      },
      "label": null
    },
    "formula": "",
    "ability": {
      "attack": null,
      "damage": null,
      "damageMult": 1,
      "critRange": 20,
      "critMult": 2
    },
    "save": {
      "dc": 0,
      "type": "",
      "description": ""
    },
    "soundEffect": "",
    "powerAttack": {
      "multiplier": "",
      "damageBonus": 2,
      "critMultiplier": 1
    }
  },
  "ownership": {
    "default": 0
  },
  "_stats": {
    "systemId": "pf1",
    "systemVersion": "9.0",
    "coreVersion": "10.291",
    "createdTime": 1663168891714,
    "modifiedTime": 1689623923156,
    "lastModifiedBy": "pf1spheres-db000"
  }
}
