{
  "_id": "oZKwvgP2nW5qRTn3",
  "name": "Living Steel",
  "type": "feat",
  "img": "modules/pf1spheres/assets/icons/spheres/nature.webp",
  "effects": [],
  "folder": null,
  "sort": 0,
  "flags": {
    "pf1spheres": {
      "sphere": "nature"
    }
  },
  "system": {
    "description": {
      "value": "<p><strong>Prerequisites:</strong> Nature sphere ((metal) package, (plant) package), caster level 5th.</p>\n<p>As an instantaneous effect, you may as a standard action spend 2 spell points to permanently grant the effects of living steel to a metal creature or object whose size is no larger than the ore that you may recover. Living steel repairs damage to itself at a rate of 2 hit points per day, or 1 hit point per day if it has the broken condition. In addition whenever the wielder of a metal weapon rolls a natural 1 on an attack roll against a creature wearing living steel armor or wielding a living steel shield, the item must succeed at a DC 20 Fortitude save or gain the broken condition. If the weapon already has the broken condition, it is instead destroyed. Living steel cannot damage adamantine weapons in this way.</p>\n",
      "unidentified": ""
    },
    "tags": ["Metal And Plant", "Geomancing"],
    "actions": [],
    "uses": {
      "per": null,
      "value": 0,
      "maxFormula": "",
      "autoDeductChargesCost": "1"
    },
    "attackNotes": [],
    "effectNotes": [],
    "changes": [],
    "changeFlags": {
      "loseDexToAC": false,
      "noEncumbrance": false,
      "mediumArmorFullSpeed": false,
      "heavyArmorFullSpeed": false
    },
    "contextNotes": [],
    "links": {
      "children": [],
      "charges": []
    },
    "tag": "",
    "useCustomTag": false,
    "armorProf": {
      "value": [],
      "custom": ""
    },
    "weaponProf": {
      "value": [],
      "custom": ""
    },
    "languages": {
      "value": [],
      "custom": ""
    },
    "flags": {
      "boolean": {},
      "dictionary": {}
    },
    "scriptCalls": [],
    "subType": "magicTalent",
    "associations": {
      "classes": []
    },
    "showInQuickbar": false,
    "abilityType": "none",
    "crOffset": "",
    "disabled": false,
    "classSkills": {},
    "nonlethal": false,
    "duration": {
      "value": null,
      "units": ""
    },
    "target": {
      "value": ""
    },
    "attackName": "",
    "actionType": null,
    "attackBonus": "",
    "critConfirmBonus": "",
    "damage": {
      "parts": [],
      "critParts": [],
      "nonCritParts": []
    },
    "attackParts": [],
    "formulaicAttacks": {
      "count": {
        "formula": ""
      },
      "bonus": {
        "formula": ""
      },
      "label": null
    },
    "formula": "",
    "ability": {
      "attack": null,
      "damage": null,
      "damageMult": 1,
      "critRange": 20,
      "critMult": 2
    },
    "save": {
      "dc": 0,
      "type": "",
      "description": ""
    },
    "soundEffect": "",
    "powerAttack": {
      "multiplier": "",
      "damageBonus": 2,
      "critMultiplier": 1
    }
  },
  "ownership": {
    "default": 0
  },
  "_stats": {
    "systemId": "pf1",
    "systemVersion": "9.0",
    "coreVersion": "10.291",
    "createdTime": 1663168894059,
    "modifiedTime": 1689623923656,
    "lastModifiedBy": "pf1spheres-db000"
  }
}
