{
  "_id": "ClEXCuLJJ5yImfKm",
  "name": "Magnify/Minimize",
  "type": "feat",
  "img": "modules/pf1spheres/assets/icons/spheres/creation.webp",
  "effects": [],
  "folder": null,
  "sort": 0,
  "flags": {
    "pf1spheres": {
      "sphere": "creation"
    }
  },
  "system": {
    "description": {
      "value": "<p>You may alter an object&#8217;s size for 1 minute per caster level. When using alter you may cause any object you may affect to increase or decrease by 1 size category. This doubles or halves the object&#8217;s height and width and multiplies or divides its weight by 8.</p>\n<p>By spending a spell point, you can increase the number of steps you may enlarge or shrink an object by 1 + 1 per 5 caster levels (to a maximum of Colossal and a minimum of Fine). Effects which depend upon a target object&#8217;s size which would not function due to size alterations are automatically suppressed, continuing to count down their duration as normal, when the object no longer meets the size requirements.</p>\n<p>Worn items affected by Magnify/Minimize impede their wearer. Magical armor and clothing made too large or small make movement difficult and treat the wearer as if they were encumbered with a heavy load. Non-magical worn equipment made too small forces the wearer to attempt a Strength check (with a +2 bonus per size category change of the equipment) against the Break DC of the object. Success destroys the object while failure results in encumbrance as if it was a magical item. Non-magical equipment made too large may encumber the target or simply fall to the ground if made 2 or more sizes too large. Other effects of similar severity may occur at the GM&#8217;s discretion.</p>\n<p>If cast on a qualifying creature using Potent Alteration, the target creature gains the same adjustments as if the Size Change Alteration talent had been used on them to adjust them to the target size.</p>\n",
      "unidentified": ""
    },
    "tags": ["Alter"],
    "actions": [],
    "uses": {
      "per": null,
      "value": 0,
      "maxFormula": "",
      "autoDeductChargesCost": "1"
    },
    "attackNotes": [],
    "effectNotes": [],
    "changes": [],
    "changeFlags": {
      "loseDexToAC": false,
      "noEncumbrance": false,
      "mediumArmorFullSpeed": false,
      "heavyArmorFullSpeed": false
    },
    "contextNotes": [],
    "links": {
      "children": [],
      "charges": []
    },
    "tag": "",
    "useCustomTag": false,
    "armorProf": {
      "value": [],
      "custom": ""
    },
    "weaponProf": {
      "value": [],
      "custom": ""
    },
    "languages": {
      "value": [],
      "custom": ""
    },
    "flags": {
      "boolean": {},
      "dictionary": {}
    },
    "scriptCalls": [],
    "subType": "magicTalent",
    "associations": {
      "classes": []
    },
    "showInQuickbar": false,
    "abilityType": "none",
    "crOffset": "",
    "disabled": false,
    "classSkills": {},
    "nonlethal": false,
    "duration": {
      "value": null,
      "units": ""
    },
    "target": {
      "value": ""
    },
    "attackName": "",
    "actionType": null,
    "attackBonus": "",
    "critConfirmBonus": "",
    "damage": {
      "parts": [],
      "critParts": [],
      "nonCritParts": []
    },
    "attackParts": [],
    "formulaicAttacks": {
      "count": {
        "formula": ""
      },
      "bonus": {
        "formula": ""
      },
      "label": null
    },
    "formula": "",
    "ability": {
      "attack": null,
      "damage": null,
      "damageMult": 1,
      "critRange": 20,
      "critMult": 2
    },
    "save": {
      "dc": 0,
      "type": "",
      "description": ""
    },
    "soundEffect": "",
    "powerAttack": {
      "multiplier": "",
      "damageBonus": 2,
      "critMultiplier": 1
    }
  },
  "ownership": {
    "default": 0
  },
  "_stats": {
    "systemId": "pf1",
    "systemVersion": "9.0",
    "coreVersion": "10.291",
    "createdTime": 1663168890792,
    "modifiedTime": 1689623922964,
    "lastModifiedBy": "pf1spheres-db000"
  }
}
