{
  "_id": "zj41t3l4NQrnOmMA",
  "name": "Mantle Of Spring",
  "type": "feat",
  "img": "modules/pf1spheres/assets/icons/spheres/fallen_fey.webp",
  "effects": [],
  "folder": null,
  "sort": 0,
  "flags": {
    "pf1spheres": {
      "sphere": "fallenFey"
    }
  },
  "system": {
    "description": {
      "value": "<p>You may activate the following abilities as fey-blessings:</p>\n<p><strong>Plant Growth:</strong> A single plant or creature of the plant type that you touch increases its size by one category. This increases by one category per 10 caster levels. This effect persists for as long as you are within 30 feet of the target, until you end it as a free action, you choose to apply it to a different target, or the fey-link ends. Unwilling creatures are permitted a Will save to negate this effect. This effect bypasses the immunity to polymorph effects of the plant type. For creatures of the plant type, see the Size Change talent in the Alteration sphere to see the effects of growing to their new size.</p>\n<p>This ability cannot cause creatures to grow larger than Huge. At 5th caster level and every 5 caster levels thereafter, this limit increases by one size category, to a maximum of Colossal at 15th caster level. This is a polymorph effect.</p>\n<p><strong>Verdant Step:</strong> You may cause flowers, grass, and small vines to spring up wherever you step. The rapid, clinging growth creates difficult terrain in any space you enter until the start of your next turn. You are not hindered by this difficult terrain. This effect may be halted or resumed as a free action. If you spend a spell point as a free action, this growth instead remains for 1 minute per caster level. This ability does not function if you are not touching the ground.</p>\n<p>This growth is considered sufficient to be a target by any abilities of the (plant) package of the Nature sphere that requires plants (but not large growths such as trees) until the start of your next turn or for 1 minute per caster level when using the spell point option. After this time expires, the growth fades away and any ongoing effects requiring it end.</p>\n",
      "unidentified": ""
    },
    "tags": ["Fey-Blessing"],
    "actions": [],
    "uses": {
      "per": null,
      "value": 0,
      "maxFormula": "",
      "autoDeductChargesCost": "1"
    },
    "attackNotes": [],
    "effectNotes": [],
    "changes": [],
    "changeFlags": {
      "loseDexToAC": false,
      "noEncumbrance": false,
      "mediumArmorFullSpeed": false,
      "heavyArmorFullSpeed": false
    },
    "contextNotes": [],
    "links": {
      "children": [],
      "charges": []
    },
    "tag": "",
    "useCustomTag": false,
    "armorProf": {
      "value": [],
      "custom": ""
    },
    "weaponProf": {
      "value": [],
      "custom": ""
    },
    "languages": {
      "value": [],
      "custom": ""
    },
    "flags": {
      "boolean": {},
      "dictionary": {}
    },
    "scriptCalls": [],
    "subType": "magicTalent",
    "associations": {
      "classes": []
    },
    "showInQuickbar": false,
    "abilityType": "none",
    "crOffset": "",
    "disabled": false,
    "classSkills": {},
    "nonlethal": false,
    "duration": {
      "value": null,
      "units": ""
    },
    "target": {
      "value": ""
    },
    "attackName": "",
    "actionType": null,
    "attackBonus": "",
    "critConfirmBonus": "",
    "damage": {
      "parts": [],
      "critParts": [],
      "nonCritParts": []
    },
    "attackParts": [],
    "formulaicAttacks": {
      "count": {
        "formula": ""
      },
      "bonus": {
        "formula": ""
      },
      "label": null
    },
    "formula": "",
    "ability": {
      "attack": null,
      "damage": null,
      "damageMult": 1,
      "critRange": 20,
      "critMult": 2
    },
    "save": {
      "dc": 0,
      "type": "",
      "description": ""
    },
    "soundEffect": "",
    "powerAttack": {
      "multiplier": "",
      "damageBonus": 2,
      "critMultiplier": 1
    }
  },
  "ownership": {
    "default": 0
  },
  "_stats": {
    "systemId": "pf1",
    "systemVersion": "9.0",
    "coreVersion": "10.291",
    "createdTime": 1663168894887,
    "modifiedTime": 1689623923937,
    "lastModifiedBy": "pf1spheres-db000"
  }
}
