{
  "_id": "QJZ14NGG4SUSw1gV",
  "name": "Material Body",
  "type": "feat",
  "img": "modules/pf1spheres/assets/icons/spheres/creation.webp",
  "effects": [],
  "folder": null,
  "sort": 0,
  "flags": {
    "pf1spheres": {
      "sphere": "creation"
    }
  },
  "system": {
    "description": {
      "value": "<p><strong>Prerequisites:</strong> Creation sphere (any (material) talent, Change Material (alter)), caster level 5th.</p>\n<p>You may spend a spell point to change a willing, touched creature&#8217;s skin into another solid material you can create as long as you maintain concentration to a maximum of 1 minute per caster level. You may spend an additional spell point to maintain this effect without concentration. If you possess Lengthened Creation, the duration of this ability is increased to 1 hour per caster level.</p>\n<p>The creature gains damage reduction equal to the material&#8217;s hardness. This damage reduction is bypassed by adamantine as long as the material&#8217;s hardness is less than 20. Once this damage reduction has prevented a number of points of damage equal to the material&#8217;s hit points per inch per 3 caster levels the effect ends.</p>\n<p>If you possess the Fleshcrafting advanced talent, the effect increases, granting the target a +4 bonus to saving throws against diseases and poisons, and a 50% chance that any critical hit or sneak attack against the target is treated as a normal hit, as if the target were wearing medium fortification armor.</p>\n",
      "unidentified": ""
    },
    "tags": ["Alter"],
    "actions": [],
    "uses": {
      "per": null,
      "value": 0,
      "maxFormula": "",
      "autoDeductChargesCost": "1"
    },
    "attackNotes": [],
    "effectNotes": [],
    "changes": [],
    "changeFlags": {
      "loseDexToAC": false,
      "noEncumbrance": false,
      "mediumArmorFullSpeed": false,
      "heavyArmorFullSpeed": false
    },
    "contextNotes": [],
    "links": {
      "children": [],
      "charges": []
    },
    "tag": "",
    "useCustomTag": false,
    "armorProf": {
      "value": [],
      "custom": ""
    },
    "weaponProf": {
      "value": [],
      "custom": ""
    },
    "languages": {
      "value": [],
      "custom": ""
    },
    "flags": {
      "boolean": {},
      "dictionary": {}
    },
    "scriptCalls": [],
    "subType": "magicTalent",
    "associations": {
      "classes": []
    },
    "showInQuickbar": false,
    "abilityType": "none",
    "crOffset": "",
    "disabled": false,
    "classSkills": {},
    "nonlethal": false,
    "duration": {
      "value": null,
      "units": ""
    },
    "target": {
      "value": ""
    },
    "attackName": "",
    "actionType": null,
    "attackBonus": "",
    "critConfirmBonus": "",
    "damage": {
      "parts": [],
      "critParts": [],
      "nonCritParts": []
    },
    "attackParts": [],
    "formulaicAttacks": {
      "count": {
        "formula": ""
      },
      "bonus": {
        "formula": ""
      },
      "label": null
    },
    "formula": "",
    "ability": {
      "attack": null,
      "damage": null,
      "damageMult": 1,
      "critRange": 20,
      "critMult": 2
    },
    "save": {
      "dc": 0,
      "type": "",
      "description": ""
    },
    "soundEffect": "",
    "powerAttack": {
      "multiplier": "",
      "damageBonus": 2,
      "critMultiplier": 1
    }
  },
  "ownership": {
    "default": 0
  },
  "_stats": {
    "systemId": "pf1",
    "systemVersion": "9.0",
    "coreVersion": "10.291",
    "createdTime": 1663168891963,
    "modifiedTime": 1689623923187,
    "lastModifiedBy": "pf1spheres-db000"
  }
}
