{
  "_id": "sZCWM9GCbWCH4RTF",
  "name": "Mind Shield",
  "type": "feat",
  "img": "modules/pf1spheres/assets/icons/spheres/mind.webp",
  "effects": [],
  "folder": null,
  "sort": 0,
  "flags": {
    "pf1spheres": {
      "sphere": "mind"
    }
  },
  "system": {
    "description": {
      "value": "<p>You may establish a ward on the mind of another, one capable of providing protection from mental assault.</p>\n<p><strong>Lesser Charm:</strong> You create a metaphysical bubble of protective insight over the mind of a willing creature. This bestows a morale bonus equal to 1 + 1/2 your caster level to mind-altering effects for a number of rounds equal to your caster level. This mind shield is nullified as soon as the target attempts a single Will save vs. such an effect, whether or not the save was successful. This does not suppress or remove existing magical effects on creatures, it merely protects them from further mental attacks. This charm may be used multiple times per day on targets.</p>\n<p><strong>Greater Charm:</strong> You establish a notional cloud of ablative thought over the mind of a willing creature. This blur of ideological presence bestows a morale bonus to Will saves vs. mind-affecting effects equal to your caster level for a number of rounds equal to your caster level. This mind shield is halved in effectiveness with each Will save made vs. such an effect, whether or not the save was successful. This does not suppress or remove existing magical effects on creatures, it merely protects them from further mental attacks.</p>\n<p><strong>Powerful Charm:</strong> You impart an adamant shield of conceptual certainty upon the mind of a willing creature. This creature gains immunity to any mind-altering spell or effect that would require a Will save for a number of rounds equal to your caster level. This immunity can be overcome with a magic skill check against your MSD. Even if this immunity is bypassed, the target receives a bonus to saves against such effects equal to your caster level.</p>\n",
      "unidentified": ""
    },
    "tags": ["Charm"],
    "actions": [],
    "uses": {
      "per": null,
      "value": 0,
      "maxFormula": "",
      "autoDeductChargesCost": "1"
    },
    "attackNotes": [],
    "effectNotes": [],
    "changes": [],
    "changeFlags": {
      "loseDexToAC": false,
      "noEncumbrance": false,
      "mediumArmorFullSpeed": false,
      "heavyArmorFullSpeed": false
    },
    "contextNotes": [],
    "links": {
      "children": [],
      "charges": []
    },
    "tag": "",
    "useCustomTag": false,
    "armorProf": {
      "value": [],
      "custom": ""
    },
    "weaponProf": {
      "value": [],
      "custom": ""
    },
    "languages": {
      "value": [],
      "custom": ""
    },
    "flags": {
      "boolean": {},
      "dictionary": {}
    },
    "scriptCalls": [],
    "subType": "magicTalent",
    "associations": {
      "classes": []
    },
    "showInQuickbar": false,
    "abilityType": "none",
    "crOffset": "",
    "disabled": false,
    "classSkills": {},
    "nonlethal": false,
    "duration": {
      "value": null,
      "units": ""
    },
    "target": {
      "value": ""
    },
    "attackName": "",
    "actionType": null,
    "attackBonus": "",
    "critConfirmBonus": "",
    "damage": {
      "parts": [],
      "critParts": [],
      "nonCritParts": []
    },
    "attackParts": [],
    "formulaicAttacks": {
      "count": {
        "formula": ""
      },
      "bonus": {
        "formula": ""
      },
      "label": null
    },
    "formula": "",
    "ability": {
      "attack": null,
      "damage": null,
      "damageMult": 1,
      "critRange": 20,
      "critMult": 2
    },
    "save": {
      "dc": 0,
      "type": "",
      "description": ""
    },
    "soundEffect": "",
    "powerAttack": {
      "multiplier": "",
      "damageBonus": 2,
      "critMultiplier": 1
    }
  },
  "ownership": {
    "default": 0
  },
  "_stats": {
    "systemId": "pf1",
    "systemVersion": "9.0",
    "coreVersion": "10.291",
    "createdTime": 1663168894352,
    "modifiedTime": 1689623923777,
    "lastModifiedBy": "pf1spheres-db000"
  }
}
