{
  "_id": "sVU4jneBKtXMts7G",
  "name": "Mount",
  "type": "feat",
  "img": "modules/pf1spheres/assets/icons/spheres/conjuration.webp",
  "effects": [],
  "folder": null,
  "sort": 0,
  "flags": {
    "pf1spheres": {
      "sphere": "conjuration"
    }
  },
  "system": {
    "description": {
      "value": "<p>This talent may only be applied to companions with a base form suitable to serve as a mount (usually quadruped, serpentine, or vermin, though others may be allowed at the GM&#8217;s discretion).</p>\n<p>Your companion always acts on your initiative while you are mounted upon it and always appears equipped with a suitable military saddle for its form that does not count against its carrying capacity. You may mount such a companion as part of casting summon if the companion appears within your natural reach. You gain a +1 insight bonus on Ride checks while mounted on your companion. This bonus increases by +1 per 5 caster levels.</p>\n<p>If your companion possesses a burrow speed or the earth glide ability, you may travel with it while mounted. This does not grant any ability to perceive your surroundings or any ability to breathe while underground.</p>\n",
      "unidentified": ""
    },
    "tags": ["Form"],
    "actions": [],
    "uses": {
      "per": null,
      "value": 0,
      "maxFormula": "",
      "autoDeductChargesCost": "1"
    },
    "attackNotes": [],
    "effectNotes": [],
    "changes": [],
    "changeFlags": {
      "loseDexToAC": false,
      "noEncumbrance": false,
      "mediumArmorFullSpeed": false,
      "heavyArmorFullSpeed": false
    },
    "contextNotes": [],
    "links": {
      "children": [],
      "charges": []
    },
    "tag": "",
    "useCustomTag": false,
    "armorProf": {
      "value": [],
      "custom": ""
    },
    "weaponProf": {
      "value": [],
      "custom": ""
    },
    "languages": {
      "value": [],
      "custom": ""
    },
    "flags": {
      "boolean": {},
      "dictionary": {}
    },
    "scriptCalls": [],
    "subType": "magicTalent",
    "associations": {
      "classes": []
    },
    "showInQuickbar": false,
    "abilityType": "none",
    "crOffset": "",
    "disabled": false,
    "classSkills": {},
    "nonlethal": false,
    "duration": {
      "value": null,
      "units": ""
    },
    "target": {
      "value": ""
    },
    "attackName": "",
    "actionType": null,
    "attackBonus": "",
    "critConfirmBonus": "",
    "damage": {
      "parts": [],
      "critParts": [],
      "nonCritParts": []
    },
    "attackParts": [],
    "formulaicAttacks": {
      "count": {
        "formula": ""
      },
      "bonus": {
        "formula": ""
      },
      "label": null
    },
    "formula": "",
    "ability": {
      "attack": null,
      "damage": null,
      "damageMult": 1,
      "critRange": 20,
      "critMult": 2
    },
    "save": {
      "dc": 0,
      "type": "",
      "description": ""
    },
    "soundEffect": "",
    "powerAttack": {
      "multiplier": "",
      "damageBonus": 2,
      "critMultiplier": 1
    }
  },
  "ownership": {
    "default": 0
  },
  "_stats": {
    "systemId": "pf1",
    "systemVersion": "9.0",
    "coreVersion": "10.291",
    "createdTime": 1663168894350,
    "modifiedTime": 1689623923776,
    "lastModifiedBy": "pf1spheres-db000"
  }
}
