{
  "_id": "wdJvpi2z0HMSkj9W",
  "name": "Obscure Passage",
  "type": "feat",
  "img": "modules/pf1spheres/assets/icons/spheres/dark.webp",
  "effects": [],
  "folder": null,
  "sort": 0,
  "flags": {
    "pf1spheres": {
      "sphere": "dark"
    }
  },
  "system": {
    "description": {
      "value": "<p>By spending a spell point, you modify your blot to serve as a portal through a surface, passing through up to 5 feet of material per caster level. Multiple castings can penetrate deeper into a surface, and creatures can move through both openings. Obscure Passage can not penetrate a surface with a hardness greater than 5 plus its caster level. Attempting to create an obscure passage through a surface that is too thick or too hard causes the spell to fail and all spell points spent to be lost. An obscure passage has a maximum diameter of 1 foot per caster level, and leaves the surface whole and unmarred when it expires. Light does not pass through an obscure passage, nor do low-light vision or darkvision allow a creature to peer through it, though the Clearsight meld and see in darkness do.</p>\n<p>A creature standing above an obscure passage as it opens may attempt a Reflex save to avoid falling in.</p>\n",
      "unidentified": ""
    },
    "tags": ["Blot"],
    "actions": [],
    "uses": {
      "per": null,
      "value": 0,
      "maxFormula": "",
      "autoDeductChargesCost": "1"
    },
    "attackNotes": [],
    "effectNotes": [],
    "changes": [],
    "changeFlags": {
      "loseDexToAC": false,
      "noEncumbrance": false,
      "mediumArmorFullSpeed": false,
      "heavyArmorFullSpeed": false
    },
    "contextNotes": [],
    "links": {
      "children": [],
      "charges": []
    },
    "tag": "",
    "useCustomTag": false,
    "armorProf": {
      "value": [],
      "custom": ""
    },
    "weaponProf": {
      "value": [],
      "custom": ""
    },
    "languages": {
      "value": [],
      "custom": ""
    },
    "flags": {
      "boolean": {},
      "dictionary": {}
    },
    "scriptCalls": [],
    "subType": "magicTalent",
    "associations": {
      "classes": []
    },
    "showInQuickbar": false,
    "abilityType": "none",
    "crOffset": "",
    "disabled": false,
    "classSkills": {},
    "nonlethal": false,
    "duration": {
      "value": null,
      "units": ""
    },
    "target": {
      "value": ""
    },
    "attackName": "",
    "actionType": null,
    "attackBonus": "",
    "critConfirmBonus": "",
    "damage": {
      "parts": [],
      "critParts": [],
      "nonCritParts": []
    },
    "attackParts": [],
    "formulaicAttacks": {
      "count": {
        "formula": ""
      },
      "bonus": {
        "formula": ""
      },
      "label": null
    },
    "formula": "",
    "ability": {
      "attack": null,
      "damage": null,
      "damageMult": 1,
      "critRange": 20,
      "critMult": 2
    },
    "save": {
      "dc": 0,
      "type": "",
      "description": ""
    },
    "soundEffect": "",
    "powerAttack": {
      "multiplier": "",
      "damageBonus": 2,
      "critMultiplier": 1
    }
  },
  "ownership": {
    "default": 0
  },
  "_stats": {
    "systemId": "pf1",
    "systemVersion": "9.0",
    "coreVersion": "10.291",
    "createdTime": 1663168894657,
    "modifiedTime": 1689623923833,
    "lastModifiedBy": "pf1spheres-db000"
  }
}
