{
  "_id": "ldKIviMfzXFGRkEr",
  "name": "Open/Close",
  "type": "feat",
  "img": "modules/pf1spheres/assets/icons/spheres/fate.webp",
  "effects": [],
  "folder": null,
  "sort": 0,
  "flags": {
    "pf1spheres": {
      "sphere": "fate"
    }
  },
  "system": {
    "description": {
      "value": "<p>Rather than targeting creatures, this word targets doors, chests, and other objects that can open or close. You may spend a spell point to open a door or container, as if you were attempting a Disable Device check to unlock it or, if the opening is stuck and no lock is present, a Strength check to force it open. Attempt a magic skill check with a +10 bonus against the lock&#8217;s Disable Device DC or the door&#8217;s Stuck DC.</p>\n<p>If the check is successful, the portal unlocks and opens. This word may open doors, chests, shackles, and chains, and any other type of fastening. It cannot, however, raise a barred gate, lift a portcullis, or otherwise provide force in and of itself.</p>\n<p>You may also spend a spell point and speak a word that magically holds shut a door, gate, chest, window, or shutter of wood, metal, or stone. The portal closes and, if a lock is present, becomes locked. The DC to open the lock or force open the portal both increase by 10. Once the opening or portal has been forced or picked open, this effect ends.</p>\n",
      "unidentified": ""
    },
    "tags": ["Word"],
    "actions": [],
    "uses": {
      "per": null,
      "value": 0,
      "maxFormula": "",
      "autoDeductChargesCost": "1"
    },
    "attackNotes": [],
    "effectNotes": [],
    "changes": [],
    "changeFlags": {
      "loseDexToAC": false,
      "noEncumbrance": false,
      "mediumArmorFullSpeed": false,
      "heavyArmorFullSpeed": false
    },
    "contextNotes": [],
    "links": {
      "children": [],
      "charges": []
    },
    "tag": "",
    "useCustomTag": false,
    "armorProf": {
      "value": [],
      "custom": ""
    },
    "weaponProf": {
      "value": [],
      "custom": ""
    },
    "languages": {
      "value": [],
      "custom": ""
    },
    "flags": {
      "boolean": {},
      "dictionary": {}
    },
    "scriptCalls": [],
    "subType": "magicTalent",
    "associations": {
      "classes": []
    },
    "showInQuickbar": false,
    "abilityType": "none",
    "crOffset": "",
    "disabled": false,
    "classSkills": {},
    "nonlethal": false,
    "duration": {
      "value": null,
      "units": ""
    },
    "target": {
      "value": ""
    },
    "attackName": "",
    "actionType": null,
    "attackBonus": "",
    "critConfirmBonus": "",
    "damage": {
      "parts": [],
      "critParts": [],
      "nonCritParts": []
    },
    "attackParts": [],
    "formulaicAttacks": {
      "count": {
        "formula": ""
      },
      "bonus": {
        "formula": ""
      },
      "label": null
    },
    "formula": "",
    "ability": {
      "attack": null,
      "damage": null,
      "damageMult": 1,
      "critRange": 20,
      "critMult": 2
    },
    "save": {
      "dc": 0,
      "type": "",
      "description": ""
    },
    "soundEffect": "",
    "powerAttack": {
      "multiplier": "",
      "damageBonus": 2,
      "critMultiplier": 1
    }
  },
  "ownership": {
    "default": 0
  },
  "_stats": {
    "systemId": "pf1",
    "systemVersion": "9.0",
    "coreVersion": "10.291",
    "createdTime": 1663168893241,
    "modifiedTime": 1689623923618,
    "lastModifiedBy": "pf1spheres-db000"
  }
}
