{
  "_id": "yxdKmjVqz91ax1Ca",
  "name": "Overwhelming Sensations",
  "type": "feat",
  "img": "modules/pf1spheres/assets/icons/spheres/illusion.webp",
  "effects": [],
  "folder": null,
  "sort": 0,
  "flags": {
    "pf1spheres": {
      "sphere": "illusion"
    }
  },
  "system": {
    "description": {
      "value": "<p>As a trick you may force a target to succeed at a Will save or suffer extreme sensation for one round per two caster levels (minimum 1). Select one of the effects on Table: Overwhelming Sensations based on what sensory talents you possess.</p>\n<strong>Table: Overwhelming Sensations</strong><br>\n<table class=\"wiki-content-table\">\n<tr>\n<th>Sense</th>\n<th>Effect</th>\n</tr>\n<tr>\n<td>Magic</td>\n<td>Treat your caster level as 5 higher when creating, but not concealing or modifying, auras using the Manipulate Aura trick.</td>\n</tr>\n<tr>\n<td>Odor</td>\n<td>Sickened</td>\n</tr>\n<tr>\n<td>Sight</td>\n<td>Dazzled, this becomes staggered for 1 round if the target is already dazzled.</td>\n</tr>\n<tr>\n<td>Sound</td>\n<td>Shaken, this becomes frightened for 1 round if the target is already shaken.</td>\n</tr>\n<tr>\n<td>Touch</td>\n<td>Fatigued</td>\n</tr>\n</table>\n",
      "unidentified": ""
    },
    "tags": [],
    "actions": [],
    "uses": {
      "per": null,
      "value": 0,
      "maxFormula": "",
      "autoDeductChargesCost": "1"
    },
    "attackNotes": [],
    "effectNotes": [],
    "changes": [],
    "changeFlags": {
      "loseDexToAC": false,
      "noEncumbrance": false,
      "mediumArmorFullSpeed": false,
      "heavyArmorFullSpeed": false
    },
    "contextNotes": [],
    "links": {
      "children": [],
      "charges": []
    },
    "tag": "",
    "useCustomTag": false,
    "armorProf": {
      "value": [],
      "custom": ""
    },
    "weaponProf": {
      "value": [],
      "custom": ""
    },
    "languages": {
      "value": [],
      "custom": ""
    },
    "flags": {
      "boolean": {},
      "dictionary": {}
    },
    "scriptCalls": [],
    "subType": "magicTalent",
    "associations": {
      "classes": []
    },
    "showInQuickbar": false,
    "abilityType": "none",
    "crOffset": "",
    "disabled": false,
    "classSkills": {},
    "nonlethal": false,
    "duration": {
      "value": null,
      "units": ""
    },
    "target": {
      "value": ""
    },
    "attackName": "",
    "actionType": null,
    "attackBonus": "",
    "critConfirmBonus": "",
    "damage": {
      "parts": [],
      "critParts": [],
      "nonCritParts": []
    },
    "attackParts": [],
    "formulaicAttacks": {
      "count": {
        "formula": ""
      },
      "bonus": {
        "formula": ""
      },
      "label": null
    },
    "formula": "",
    "ability": {
      "attack": null,
      "damage": null,
      "damageMult": 1,
      "critRange": 20,
      "critMult": 2
    },
    "save": {
      "dc": 0,
      "type": "",
      "description": ""
    },
    "soundEffect": "",
    "powerAttack": {
      "multiplier": "",
      "damageBonus": 2,
      "critMultiplier": 1
    }
  },
  "ownership": {
    "default": 0
  },
  "_stats": {
    "systemId": "pf1",
    "systemVersion": "9.0",
    "coreVersion": "10.291",
    "createdTime": 1663168894709,
    "modifiedTime": 1689623923856,
    "lastModifiedBy": "pf1spheres-db000"
  }
}
