{
  "_id": "mCnXweLfzpbYQQgd",
  "name": "Pantomime Cage",
  "type": "feat",
  "img": "modules/pf1spheres/assets/icons/spheres/telekinesis.webp",
  "effects": [],
  "folder": null,
  "sort": 0,
  "flags": {
    "pf1spheres": {
      "sphere": "telekinesis"
    }
  },
  "system": {
    "description": {
      "value": "<p>You may spend a spell point to trap the target in a box made of telekinetic force. On a failed Reflex save, the target becomes trapped for 1 round per caster level, effectively sealing the target off from all other creatures. The trapped target cannot move from their space except by means of dimensional travel, such as teleport from the Warp sphere, but is still trapped even if moved by such an effect. The target treats all other creatures as though they had total cover against it, and all other creatures treat the target as though it has total cover against them.</p>\n<p>A trapped target may attempt a Reflex saving throw or Escape Artist check as a full-round action with a DC equal to this effect&#8217;s DC to escape and end this effect. If the target takes damage while trapped, they may attempt a check to escape as a free action which can be taken even if it is not their turn.</p>\n",
      "unidentified": ""
    },
    "tags": [],
    "actions": [],
    "uses": {
      "per": null,
      "value": 0,
      "maxFormula": "",
      "autoDeductChargesCost": "1"
    },
    "attackNotes": [],
    "effectNotes": [],
    "changes": [],
    "changeFlags": {
      "loseDexToAC": false,
      "noEncumbrance": false,
      "mediumArmorFullSpeed": false,
      "heavyArmorFullSpeed": false
    },
    "contextNotes": [],
    "links": {
      "children": [],
      "charges": []
    },
    "tag": "",
    "useCustomTag": false,
    "armorProf": {
      "value": [],
      "custom": ""
    },
    "weaponProf": {
      "value": [],
      "custom": ""
    },
    "languages": {
      "value": [],
      "custom": ""
    },
    "flags": {
      "boolean": {},
      "dictionary": {}
    },
    "scriptCalls": [],
    "subType": "magicTalent",
    "associations": {
      "classes": []
    },
    "showInQuickbar": false,
    "abilityType": "none",
    "crOffset": "",
    "disabled": false,
    "classSkills": {},
    "nonlethal": false,
    "duration": {
      "value": null,
      "units": ""
    },
    "target": {
      "value": ""
    },
    "attackName": "",
    "actionType": null,
    "attackBonus": "",
    "critConfirmBonus": "",
    "damage": {
      "parts": [],
      "critParts": [],
      "nonCritParts": []
    },
    "attackParts": [],
    "formulaicAttacks": {
      "count": {
        "formula": ""
      },
      "bonus": {
        "formula": ""
      },
      "label": null
    },
    "formula": "",
    "ability": {
      "attack": null,
      "damage": null,
      "damageMult": 1,
      "critRange": 20,
      "critMult": 2
    },
    "save": {
      "dc": 0,
      "type": "",
      "description": ""
    },
    "soundEffect": "",
    "powerAttack": {
      "multiplier": "",
      "damageBonus": 2,
      "critMultiplier": 1
    }
  },
  "ownership": {
    "default": 0
  },
  "_stats": {
    "systemId": "pf1",
    "systemVersion": "9.0",
    "coreVersion": "10.291",
    "createdTime": 1663168893583,
    "modifiedTime": 1689623923630,
    "lastModifiedBy": "pf1spheres-db000"
  }
}
