{
  "_id": "kumPYCd7k4kkp7DE",
  "name": "Paradigm Blast",
  "type": "feat",
  "img": "modules/pf1spheres/assets/icons/spheres/destruction.webp",
  "effects": [],
  "folder": null,
  "sort": 0,
  "flags": {
    "pf1spheres": {
      "sphere": "destruction"
    }
  },
  "system": {
    "description": {
      "value": "<p>If you are of lawful alignment, you may spend a spell point to make your destructive blast deal axiomatic damage. If you are of chaotic alignment, you may spend a spell point to have your destructive blast deal anarchic damage. You cannot use this blast type if you are of neither alignment.</p>\n<p><strong>Note:</strong> Axiomatic damage comes from attacks that are heavily infused with the power of sheer law and carry this orderly power over as a form of harmful energy to chaos-aligned beings. Axiomatic damage deals full damage to incorporeal targets, and deals damage as if the weapon were law-aligned. As it is not a weapon damage type, it automatically bypasses all damage reduction.</p>\n<p>Anarchic damage comes from attacks that are heavily infused with the power of sheer chaos and carry this disorderly power over as a form of harmful energy to law-aligned beings. Anarchic damage deals full damage to incorporeal targets and deals damage as if the weapon were chaos-aligned. As it is not a weapon damage type, it automatically bypasses all damage reduction.</p>\n",
      "unidentified": ""
    },
    "tags": ["Blast Type", "Holy"],
    "actions": [],
    "uses": {
      "per": null,
      "value": 0,
      "maxFormula": "",
      "autoDeductChargesCost": "1"
    },
    "attackNotes": [],
    "effectNotes": [],
    "changes": [],
    "changeFlags": {
      "loseDexToAC": false,
      "noEncumbrance": false,
      "mediumArmorFullSpeed": false,
      "heavyArmorFullSpeed": false
    },
    "contextNotes": [],
    "links": {
      "children": [],
      "charges": []
    },
    "tag": "",
    "useCustomTag": false,
    "armorProf": {
      "value": [],
      "custom": ""
    },
    "weaponProf": {
      "value": [],
      "custom": ""
    },
    "languages": {
      "value": [],
      "custom": ""
    },
    "flags": {
      "boolean": {},
      "dictionary": {}
    },
    "scriptCalls": [],
    "subType": "magicTalent",
    "associations": {
      "classes": []
    },
    "showInQuickbar": false,
    "abilityType": "none",
    "crOffset": "",
    "disabled": false,
    "classSkills": {},
    "nonlethal": false,
    "duration": {
      "value": null,
      "units": ""
    },
    "target": {
      "value": ""
    },
    "attackName": "",
    "actionType": null,
    "attackBonus": "",
    "critConfirmBonus": "",
    "damage": {
      "parts": [],
      "critParts": [],
      "nonCritParts": []
    },
    "attackParts": [],
    "formulaicAttacks": {
      "count": {
        "formula": ""
      },
      "bonus": {
        "formula": ""
      },
      "label": null
    },
    "formula": "",
    "ability": {
      "attack": null,
      "damage": null,
      "damageMult": 1,
      "critRange": 20,
      "critMult": 2
    },
    "save": {
      "dc": 0,
      "type": "",
      "description": ""
    },
    "soundEffect": "",
    "powerAttack": {
      "multiplier": "",
      "damageBonus": 2,
      "critMultiplier": 1
    }
  },
  "ownership": {
    "default": 0
  },
  "_stats": {
    "systemId": "pf1",
    "systemVersion": "9.0",
    "coreVersion": "10.291",
    "createdTime": 1663168893234,
    "modifiedTime": 1689623923612,
    "lastModifiedBy": "pf1spheres-db000"
  }
}
