{
  "_id": "3bxSEJhkwoJaCx80",
  "name": "Past Sight",
  "type": "feat",
  "img": "modules/pf1spheres/assets/icons/spheres/time.webp",
  "effects": [],
  "folder": null,
  "sort": 0,
  "flags": {
    "pf1spheres": {
      "sphere": "time"
    }
  },
  "system": {
    "description": {
      "value": "<p><strong>Prerequisites:</strong> Time sphere, caster level 5th.</p>\n<p>You peer not only through space, but through time. You may spend one minute and a spell point to view the past of your present location out to close range, viewing the past hour. You gain full sensory information based on the senses you possess. You may concentrate on this effect, viewing an additional hour further in the past for each minute of concentration. You are considered flat-footed while concentrating on this effect.</p>\n<p>If you possess the Mass Time talent, you may share this sight with a number of willing creatures within your alter time range as defined by that talent. Such creatures are also flat-footed for the duration, though they may choose to exit the vision at any time.</p>\n<p>If you possess the Ranged Time talent, you increase the area you may view by one step per time it is taken (close to medium, medium to long). If Ranged Time is taken three times, your viewing area increases to line of sight.</p>\n<p>At caster level 8th, you may spend an extra spell point to view days instead of hours, each day requiring 10 minutes. At caster level 16th, you may spend 2 additional spell points to view years instead of hours, each year requiring 1 hour.</p>\n",
      "unidentified": ""
    },
    "tags": [],
    "actions": [],
    "uses": {
      "per": null,
      "value": 0,
      "maxFormula": "",
      "autoDeductChargesCost": "1"
    },
    "attackNotes": [],
    "effectNotes": [],
    "changes": [],
    "changeFlags": {
      "loseDexToAC": false,
      "noEncumbrance": false,
      "mediumArmorFullSpeed": false,
      "heavyArmorFullSpeed": false
    },
    "contextNotes": [],
    "links": {
      "children": [],
      "charges": []
    },
    "tag": "",
    "useCustomTag": false,
    "armorProf": {
      "value": [],
      "custom": ""
    },
    "weaponProf": {
      "value": [],
      "custom": ""
    },
    "languages": {
      "value": [],
      "custom": ""
    },
    "flags": {
      "boolean": {},
      "dictionary": {}
    },
    "scriptCalls": [],
    "subType": "magicTalent",
    "associations": {
      "classes": []
    },
    "showInQuickbar": false,
    "abilityType": "none",
    "crOffset": "",
    "disabled": false,
    "classSkills": {},
    "nonlethal": false,
    "duration": {
      "value": null,
      "units": ""
    },
    "target": {
      "value": ""
    },
    "attackName": "",
    "actionType": null,
    "attackBonus": "",
    "critConfirmBonus": "",
    "damage": {
      "parts": [],
      "critParts": [],
      "nonCritParts": []
    },
    "attackParts": [],
    "formulaicAttacks": {
      "count": {
        "formula": ""
      },
      "bonus": {
        "formula": ""
      },
      "label": null
    },
    "formula": "",
    "ability": {
      "attack": null,
      "damage": null,
      "damageMult": 1,
      "critRange": 20,
      "critMult": 2
    },
    "save": {
      "dc": 0,
      "type": "",
      "description": ""
    },
    "soundEffect": "",
    "powerAttack": {
      "multiplier": "",
      "damageBonus": 2,
      "critMultiplier": 1
    }
  },
  "ownership": {
    "default": 0
  },
  "_stats": {
    "systemId": "pf1",
    "systemVersion": "9.0",
    "coreVersion": "10.291",
    "createdTime": 1663168890452,
    "modifiedTime": 1689623922732,
    "lastModifiedBy": "pf1spheres-db000"
  }
}
