{
  "_id": "8z8WoNCND95xagY1",
  "name": "Peace And Love",
  "type": "feat",
  "img": "modules/pf1spheres/assets/icons/spheres/nature.webp",
  "effects": [],
  "folder": null,
  "sort": 0,
  "flags": {
    "pf1spheres": {
      "sphere": "nature"
    }
  },
  "system": {
    "description": {
      "value": "<p><strong>Prerequisites:</strong> Nature sphere, Mind sphere.</p>\n<p>You learn to manipulate the most elusive natural element, the heart. You project a 30-foot aura which penalizes hostile actions. All enemies within this aura take a -1 penalty on any attack rolls they make. You may suppress or resume this ability as a free action. This ability ceases to function if you are stunned, paralyzed, unconscious, dead, or otherwise incapacitated. This is a mind-affecting compulsion effect. At caster level 10, and every 10 thereafter, the radius of this aura increases by 30 feet.</p>\n<p>If you spend a spell point as a free action, you may empower this aura to punish those with wicked hearts for 1 round per caster level. While the aura is empowered, whenever a creature taking a penalty from this aura deals damage to you or an ally inside this effect&#8217;s radius, that creature must make a Will saving throw or take 1d6 nonlethal damage per 4 caster levels (minimum 1d6). A creature can only take damage from this effect once per round; a creature that is immune to nonlethal damage takes lethal damage instead.</p>\n",
      "unidentified": ""
    },
    "tags": ["Spirit"],
    "actions": [],
    "uses": {
      "per": null,
      "value": 0,
      "maxFormula": "",
      "autoDeductChargesCost": "1"
    },
    "attackNotes": [],
    "effectNotes": [],
    "changes": [],
    "changeFlags": {
      "loseDexToAC": false,
      "noEncumbrance": false,
      "mediumArmorFullSpeed": false,
      "heavyArmorFullSpeed": false
    },
    "contextNotes": [],
    "links": {
      "children": [],
      "charges": []
    },
    "tag": "",
    "useCustomTag": false,
    "armorProf": {
      "value": [],
      "custom": ""
    },
    "weaponProf": {
      "value": [],
      "custom": ""
    },
    "languages": {
      "value": [],
      "custom": ""
    },
    "flags": {
      "boolean": {},
      "dictionary": {}
    },
    "scriptCalls": [],
    "subType": "magicTalent",
    "associations": {
      "classes": []
    },
    "showInQuickbar": false,
    "abilityType": "none",
    "crOffset": "",
    "disabled": false,
    "classSkills": {},
    "nonlethal": false,
    "duration": {
      "value": null,
      "units": ""
    },
    "target": {
      "value": ""
    },
    "attackName": "",
    "actionType": null,
    "attackBonus": "",
    "critConfirmBonus": "",
    "damage": {
      "parts": [],
      "critParts": [],
      "nonCritParts": []
    },
    "attackParts": [],
    "formulaicAttacks": {
      "count": {
        "formula": ""
      },
      "bonus": {
        "formula": ""
      },
      "label": null
    },
    "formula": "",
    "ability": {
      "attack": null,
      "damage": null,
      "damageMult": 1,
      "critRange": 20,
      "critMult": 2
    },
    "save": {
      "dc": 0,
      "type": "",
      "description": ""
    },
    "soundEffect": "",
    "powerAttack": {
      "multiplier": "",
      "damageBonus": 2,
      "critMultiplier": 1
    }
  },
  "ownership": {
    "default": 0
  },
  "_stats": {
    "systemId": "pf1",
    "systemVersion": "9.0",
    "coreVersion": "10.291",
    "createdTime": 1663168890554,
    "modifiedTime": 1689623922844,
    "lastModifiedBy": "pf1spheres-db000"
  }
}
