{
  "_id": "62L7wEcfdvyJPeV7",
  "name": "Plexing Aegis",
  "type": "feat",
  "img": "modules/pf1spheres/assets/icons/spheres/protection.webp",
  "effects": [],
  "folder": null,
  "sort": 0,
  "flags": {
    "pf1spheres": {
      "sphere": "protection"
    }
  },
  "system": {
    "description": {
      "value": "<p>A Plexing aegis offers no specific protection until activated, but at any time during its duration you may spend an immediate action to activate it, turning it into any aegis you can create. When this occurs, you must pay the spell point cost of the new aegis normally. You may activate Plexing aegises on multiple creatures with the same action, provided all of them are being turned into the same kind of aegis. Once activated, the Plexing aegis remains that aegis type for the remainder of its duration. The caster level of a Plexing aegis is determined when it is cast and does not change once activated.</p>\n<p>A Plexing aegis costs a spell point to create like any other aegis, and may be sacrificed to use a succor ability before or after it is activated. You may combine this talent with the Mass Aegis talent at the time of its casting or to activate multiple Plexing aegises at once, but must pay the cost of Mass Aegis for each of these uses.</p>\n",
      "unidentified": ""
    },
    "tags": ["Aegis"],
    "actions": [],
    "uses": {
      "per": null,
      "value": 0,
      "maxFormula": "",
      "autoDeductChargesCost": "1"
    },
    "attackNotes": [],
    "effectNotes": [],
    "changes": [],
    "changeFlags": {
      "loseDexToAC": false,
      "noEncumbrance": false,
      "mediumArmorFullSpeed": false,
      "heavyArmorFullSpeed": false
    },
    "contextNotes": [],
    "links": {
      "children": [],
      "charges": []
    },
    "tag": "",
    "useCustomTag": false,
    "armorProf": {
      "value": [],
      "custom": ""
    },
    "weaponProf": {
      "value": [],
      "custom": ""
    },
    "languages": {
      "value": [],
      "custom": ""
    },
    "flags": {
      "boolean": {},
      "dictionary": {}
    },
    "scriptCalls": [],
    "subType": "magicTalent",
    "associations": {
      "classes": []
    },
    "showInQuickbar": false,
    "abilityType": "none",
    "crOffset": "",
    "disabled": false,
    "classSkills": {},
    "nonlethal": false,
    "duration": {
      "value": null,
      "units": ""
    },
    "target": {
      "value": ""
    },
    "attackName": "",
    "actionType": null,
    "attackBonus": "",
    "critConfirmBonus": "",
    "damage": {
      "parts": [],
      "critParts": [],
      "nonCritParts": []
    },
    "attackParts": [],
    "formulaicAttacks": {
      "count": {
        "formula": ""
      },
      "bonus": {
        "formula": ""
      },
      "label": null
    },
    "formula": "",
    "ability": {
      "attack": null,
      "damage": null,
      "damageMult": 1,
      "critRange": 20,
      "critMult": 2
    },
    "save": {
      "dc": 0,
      "type": "",
      "description": ""
    },
    "soundEffect": "",
    "powerAttack": {
      "multiplier": "",
      "damageBonus": 2,
      "critMultiplier": 1
    }
  },
  "ownership": {
    "default": 0
  },
  "_stats": {
    "systemId": "pf1",
    "systemVersion": "9.0",
    "coreVersion": "10.291",
    "createdTime": 1663168890495,
    "modifiedTime": 1689623922771,
    "lastModifiedBy": "pf1spheres-db000"
  }
}
