{
  "_id": "tMv4rSAp8zOeSBGS",
  "name": "Prismatic Radiance",
  "type": "feat",
  "img": "modules/pf1spheres/assets/icons/spheres/light.webp",
  "effects": [],
  "folder": null,
  "sort": 0,
  "flags": {
    "pf1spheres": {
      "sphere": "light"
    }
  },
  "system": {
    "description": {
      "value": "<p><strong>Prerequisites:</strong> Light sphere (Searing Light (light), Style), caster level 15th.</p>\n<p>By spending three spell points to create bright light, you cause your glow to shed a dazzling array of beautiful and deadly colors. Each round a creature is within the area of this bright light, roll 1d8 to determine what effect the light has on them.</p>\n<strong>Table: Prismatic Radiance</strong><br>\n<table class=\"wiki-content-table\">\n<tr>\n<th>1d8</th>\n<th>Color</th>\n<th>Effect</th>\n</tr>\n<tr>\n<td>1</td>\n<td>Red</td>\n<td>1d4 fire damage per caster level (Reflex half)</td>\n</tr>\n<tr>\n<td>2</td>\n<td>Orange</td>\n<td>1d6 acid damage per caster level (Reflex half)</td>\n</tr>\n<tr>\n<td>3</td>\n<td>Yellow</td>\n<td>1d8 untyped damage per caster level (Reflex half)</td>\n</tr>\n<tr>\n<td>4</td>\n<td>Green</td>\n<td>Poison (Frequency 1/round for 4 rounds; effect 1d2 Constitution damage; cure 2 consecutive Fortitude saves)</td>\n</tr>\n<tr>\n<td>5</td>\n<td>Blue</td>\n<td>Dazed for 1d2 rounds (Fortitude negates)</td>\n</tr>\n<tr>\n<td>6</td>\n<td>Indigo</td>\n<td>Confused for 1d4 rounds (Will negates)</td>\n</tr>\n<tr>\n<td>7</td>\n<td>Violet</td>\n<td>Each round for one minute, 50% chance to take no actions (Will negates)</td>\n</tr>\n<tr>\n<td>8</td>\n<td>Multicolor</td>\n<td>Roll twice more, rerolling any further results of 8</td>\n</tr>\n</table>\n",
      "unidentified": ""
    },
    "tags": ["Light"],
    "actions": [],
    "uses": {
      "per": null,
      "value": 0,
      "maxFormula": "",
      "autoDeductChargesCost": "1"
    },
    "attackNotes": [],
    "effectNotes": [],
    "changes": [],
    "changeFlags": {
      "loseDexToAC": false,
      "noEncumbrance": false,
      "mediumArmorFullSpeed": false,
      "heavyArmorFullSpeed": false
    },
    "contextNotes": [],
    "links": {
      "children": [],
      "charges": []
    },
    "tag": "",
    "useCustomTag": false,
    "armorProf": {
      "value": [],
      "custom": ""
    },
    "weaponProf": {
      "value": [],
      "custom": ""
    },
    "languages": {
      "value": [],
      "custom": ""
    },
    "flags": {
      "boolean": {},
      "dictionary": {}
    },
    "scriptCalls": [],
    "subType": "magicTalent",
    "associations": {
      "classes": []
    },
    "showInQuickbar": false,
    "abilityType": "none",
    "crOffset": "",
    "disabled": false,
    "classSkills": {},
    "nonlethal": false,
    "duration": {
      "value": null,
      "units": ""
    },
    "target": {
      "value": ""
    },
    "attackName": "",
    "actionType": null,
    "attackBonus": "",
    "critConfirmBonus": "",
    "damage": {
      "parts": [],
      "critParts": [],
      "nonCritParts": []
    },
    "attackParts": [],
    "formulaicAttacks": {
      "count": {
        "formula": ""
      },
      "bonus": {
        "formula": ""
      },
      "label": null
    },
    "formula": "",
    "ability": {
      "attack": null,
      "damage": null,
      "damageMult": 1,
      "critRange": 20,
      "critMult": 2
    },
    "save": {
      "dc": 0,
      "type": "",
      "description": ""
    },
    "soundEffect": "",
    "powerAttack": {
      "multiplier": "",
      "damageBonus": 2,
      "critMultiplier": 1
    }
  },
  "ownership": {
    "default": 0
  },
  "_stats": {
    "systemId": "pf1",
    "systemVersion": "9.0",
    "coreVersion": "10.291",
    "createdTime": 1663168894360,
    "modifiedTime": 1689623923787,
    "lastModifiedBy": "pf1spheres-db000"
  }
}
