{
  "_id": "AY16PdoD9zdnKFx5",
  "name": "Recommend",
  "type": "feat",
  "img": "modules/pf1spheres/assets/icons/spheres/mind.webp",
  "effects": [],
  "folder": null,
  "sort": 0,
  "flags": {
    "pf1spheres": {
      "sphere": "mind"
    }
  },
  "system": {
    "description": {
      "value": "<p>You point out obvious things the target did wrong, hoping they&#8217;ll do better next time.</p>\n<p><strong>Lesser Charm:</strong> For 1 round per caster level, whenever the target fails an attack roll, skill check, saving throw, or ability check, at the start of the target&#8217;s next turn, the target gains a +1 morale bonus on their first roll with that type of check for 1 round.</p>\n<p><strong>Greater Charm:</strong> This functions as the lesser charm, except the duration increases to 1 minute per caster level and the bonus increases to +1 + 1 per 4 caster levels.</p>\n<p><strong>Powerful Charm:</strong> This functions as the greater charm, except the duration increases to 1 hour per caster level.</p>\n<p><strong>What is &#8220;Failure&#8221;:</strong> For the purposes of this talent, a failure occurs when an action or roll that carried real risk does not succeed; most checks made in combat can fail, but a target of this sphere effect cannot perform simple skill checks in hopes of failing before attempting a more important check. The GM is the final arbiter of which checks are capable of failure.</p>\n<p>Some examples include an attack roll missing a target or provoking an attack of opportunity when using the Acrobatics skill to move through an enemy&#8217;s threatened area, etc.</p>\n",
      "unidentified": ""
    },
    "tags": ["Charm"],
    "actions": [],
    "uses": {
      "per": null,
      "value": 0,
      "maxFormula": "",
      "autoDeductChargesCost": "1"
    },
    "attackNotes": [],
    "effectNotes": [],
    "changes": [],
    "changeFlags": {
      "loseDexToAC": false,
      "noEncumbrance": false,
      "mediumArmorFullSpeed": false,
      "heavyArmorFullSpeed": false
    },
    "contextNotes": [],
    "links": {
      "children": [],
      "charges": []
    },
    "tag": "",
    "useCustomTag": false,
    "armorProf": {
      "value": [],
      "custom": ""
    },
    "weaponProf": {
      "value": [],
      "custom": ""
    },
    "languages": {
      "value": [],
      "custom": ""
    },
    "flags": {
      "boolean": {},
      "dictionary": {}
    },
    "scriptCalls": [],
    "subType": "magicTalent",
    "associations": {
      "classes": []
    },
    "showInQuickbar": false,
    "abilityType": "none",
    "crOffset": "",
    "disabled": false,
    "classSkills": {},
    "nonlethal": false,
    "duration": {
      "value": null,
      "units": ""
    },
    "target": {
      "value": ""
    },
    "attackName": "",
    "actionType": null,
    "attackBonus": "",
    "critConfirmBonus": "",
    "damage": {
      "parts": [],
      "critParts": [],
      "nonCritParts": []
    },
    "attackParts": [],
    "formulaicAttacks": {
      "count": {
        "formula": ""
      },
      "bonus": {
        "formula": ""
      },
      "label": null
    },
    "formula": "",
    "ability": {
      "attack": null,
      "damage": null,
      "damageMult": 1,
      "critRange": 20,
      "critMult": 2
    },
    "save": {
      "dc": 0,
      "type": "",
      "description": ""
    },
    "soundEffect": "",
    "powerAttack": {
      "multiplier": "",
      "damageBonus": 2,
      "critMultiplier": 1
    }
  },
  "ownership": {
    "default": 0
  },
  "_stats": {
    "systemId": "pf1",
    "systemVersion": "9.0",
    "coreVersion": "10.291",
    "createdTime": 1663168890761,
    "modifiedTime": 1689623922938,
    "lastModifiedBy": "pf1spheres-db000"
  }
}
