{
  "_id": "HbTehpBDVIMs7r9U",
  "name": "Restore Capacity",
  "type": "feat",
  "img": "modules/pf1spheres/assets/icons/spheres/life.webp",
  "effects": [],
  "folder": null,
  "sort": 0,
  "flags": {
    "pf1spheres": {
      "sphere": "life"
    }
  },
  "system": {
    "description": {
      "value": "<p>Your cure ability heals an additional 1 hit point per caster level. As a special application of restore, you may restore a creature&#8217;s movement and physical capacity instead of restoring mind, body, or soul. This allows a target to make an immediate Escape Artist check with a circumstance bonus equal to your caster level against any applicable condition (for example, if it is entangled or grappled), and the target is cured of the stunned condition. This also removes the lessening of a target&#8217;s movement speed or removal of a movement type, or any other similar detriment such as the loss of the power of speech. If the target is under a spell or effect that causes paralysis, you may attempt a magic skill check against the spell or effect, removing the condition if you succeed.</p>\n",
      "unidentified": ""
    },
    "tags": ["Cure"],
    "actions": [],
    "uses": {
      "per": null,
      "value": 0,
      "maxFormula": "",
      "autoDeductChargesCost": "1"
    },
    "attackNotes": [],
    "effectNotes": [],
    "changes": [],
    "changeFlags": {
      "loseDexToAC": false,
      "noEncumbrance": false,
      "mediumArmorFullSpeed": false,
      "heavyArmorFullSpeed": false
    },
    "contextNotes": [],
    "links": {
      "children": [],
      "charges": []
    },
    "tag": "",
    "useCustomTag": false,
    "armorProf": {
      "value": [],
      "custom": ""
    },
    "weaponProf": {
      "value": [],
      "custom": ""
    },
    "languages": {
      "value": [],
      "custom": ""
    },
    "flags": {
      "boolean": {},
      "dictionary": {}
    },
    "scriptCalls": [],
    "subType": "magicTalent",
    "associations": {
      "classes": []
    },
    "showInQuickbar": false,
    "abilityType": "none",
    "crOffset": "",
    "disabled": false,
    "classSkills": {},
    "nonlethal": false,
    "duration": {
      "value": null,
      "units": ""
    },
    "target": {
      "value": ""
    },
    "attackName": "",
    "actionType": null,
    "attackBonus": "",
    "critConfirmBonus": "",
    "damage": {
      "parts": [],
      "critParts": [],
      "nonCritParts": []
    },
    "attackParts": [],
    "formulaicAttacks": {
      "count": {
        "formula": ""
      },
      "bonus": {
        "formula": ""
      },
      "label": null
    },
    "formula": "",
    "ability": {
      "attack": null,
      "damage": null,
      "damageMult": 1,
      "critRange": 20,
      "critMult": 2
    },
    "save": {
      "dc": 0,
      "type": "",
      "description": ""
    },
    "soundEffect": "",
    "powerAttack": {
      "multiplier": "",
      "damageBonus": 2,
      "critMultiplier": 1
    }
  },
  "ownership": {
    "default": 0
  },
  "_stats": {
    "systemId": "pf1",
    "systemVersion": "9.0",
    "coreVersion": "10.291",
    "createdTime": 1663168891116,
    "modifiedTime": 1689623923025,
    "lastModifiedBy": "pf1spheres-db000"
  }
}
