{
  "_id": "SMGR8m13JtbSPjDz",
  "name": "Reverse Gravity",
  "type": "feat",
  "img": "modules/pf1spheres/assets/icons/spheres/enhancement.webp",
  "effects": [],
  "folder": null,
  "sort": 0,
  "flags": {
    "pf1spheres": {
      "sphere": "enhancement"
    }
  },
  "system": {
    "description": {
      "value": "<p><strong>Prerequisites:</strong> Enhancement sphere (Lighten (enhance)), caster level 15th.</p>\n<p>You may spend 2 spell points to enhance an area of up to 1&#160;10-foot cube per caster level, arranged contiguously. Unlike most enhancements, you can only maintain this effect through concentration for up to 1 round per caster level. Spending an additional spell point to allow it to become self-sustaining lasts for 1 round per caster level, not 1 minute per caster level, and is unaffected by Deep Enhancement.</p>\n<p>Within this area, gravity reverses. Unattached objects and creatures in the area fall upward and reach the top of the area in 1 round. If a solid object (such as a ceiling) is encountered in this fall, falling objects and creatures strike it in the same manner as they would during a normal downward fall. If an object or creature reaches the top of the area without striking anything, it remains there, oscillating slightly, until the effect ends. At the end of the duration, affected objects and creatures fall downward.</p>\n<p>Provided it has something to hold onto, a creature caught in the area can attempt a Reflex save to secure itself and not fall upward. Creatures who can fly or levitate can keep themselves from falling.</p>\n",
      "unidentified": ""
    },
    "tags": ["Enhance"],
    "actions": [],
    "uses": {
      "per": null,
      "value": 0,
      "maxFormula": "",
      "autoDeductChargesCost": "1"
    },
    "attackNotes": [],
    "effectNotes": [],
    "changes": [],
    "changeFlags": {
      "loseDexToAC": false,
      "noEncumbrance": false,
      "mediumArmorFullSpeed": false,
      "heavyArmorFullSpeed": false
    },
    "contextNotes": [],
    "links": {
      "children": [],
      "charges": []
    },
    "tag": "",
    "useCustomTag": false,
    "armorProf": {
      "value": [],
      "custom": ""
    },
    "weaponProf": {
      "value": [],
      "custom": ""
    },
    "languages": {
      "value": [],
      "custom": ""
    },
    "flags": {
      "boolean": {},
      "dictionary": {}
    },
    "scriptCalls": [],
    "subType": "magicTalent",
    "associations": {
      "classes": []
    },
    "showInQuickbar": false,
    "abilityType": "none",
    "crOffset": "",
    "disabled": false,
    "classSkills": {},
    "nonlethal": false,
    "duration": {
      "value": null,
      "units": ""
    },
    "target": {
      "value": ""
    },
    "attackName": "",
    "actionType": null,
    "attackBonus": "",
    "critConfirmBonus": "",
    "damage": {
      "parts": [],
      "critParts": [],
      "nonCritParts": []
    },
    "attackParts": [],
    "formulaicAttacks": {
      "count": {
        "formula": ""
      },
      "bonus": {
        "formula": ""
      },
      "label": null
    },
    "formula": "",
    "ability": {
      "attack": null,
      "damage": null,
      "damageMult": 1,
      "critRange": 20,
      "critMult": 2
    },
    "save": {
      "dc": 0,
      "type": "",
      "description": ""
    },
    "soundEffect": "",
    "powerAttack": {
      "multiplier": "",
      "damageBonus": 2,
      "critMultiplier": 1
    }
  },
  "ownership": {
    "default": 0
  },
  "_stats": {
    "systemId": "pf1",
    "systemVersion": "9.0",
    "coreVersion": "10.291",
    "createdTime": 1663168892167,
    "modifiedTime": 1689623923211,
    "lastModifiedBy": "pf1spheres-db000"
  }
}
