{
  "_id": "WTA0qomlpPGYfMcy",
  "name": "Shaped Ward",
  "type": "feat",
  "img": "modules/pf1spheres/assets/icons/spheres/protection.webp",
  "effects": [],
  "folder": null,
  "sort": 0,
  "flags": {
    "pf1spheres": {
      "sphere": "protection"
    }
  },
  "system": {
    "description": {
      "value": "<p>When you create a ward, you may alter its shape so that it takes the form of a close-range cone or a medium-range line, each emanating from yourself (or from within a location where you could center a ward if you possess the Distant Protection talent). If you spend 1 additional spell point, you may shape the ward in any area you desire out of contiguous 5-foot cubes, up to a maximum of 2 cubes per caster level.</p>\n<p>When using this talent in conjunction with a barrier, each cube is a separate object that completely fills a 5-foot square, and has 5 hit points, or 4 + your caster level hit points if you possess the Greater Barrier talent. Like a barrier, the cubes are mostly-transparent, and they block the same modes of attack. They are otherwise materially identical to a barrier, and have the same Break DC. Objects and creatures can not be trapped within a cube, and the presence of a creature in a square prevents the barrier cube from forming there. Barrier cubes must be created at ground level, but can be stacked on top of each other and used to form arches, stairs, or other shapes. All cubes must be created within an area you could cover with a ward.</p>\n<p>This talent replaces Barrier Maze.</p>\n",
      "unidentified": ""
    },
    "tags": [],
    "actions": [],
    "uses": {
      "per": null,
      "value": 0,
      "maxFormula": "",
      "autoDeductChargesCost": "1"
    },
    "attackNotes": [],
    "effectNotes": [],
    "changes": [],
    "changeFlags": {
      "loseDexToAC": false,
      "noEncumbrance": false,
      "mediumArmorFullSpeed": false,
      "heavyArmorFullSpeed": false
    },
    "contextNotes": [],
    "links": {
      "children": [],
      "charges": []
    },
    "tag": "",
    "useCustomTag": false,
    "armorProf": {
      "value": [],
      "custom": ""
    },
    "weaponProf": {
      "value": [],
      "custom": ""
    },
    "languages": {
      "value": [],
      "custom": ""
    },
    "flags": {
      "boolean": {},
      "dictionary": {}
    },
    "scriptCalls": [],
    "subType": "magicTalent",
    "associations": {
      "classes": []
    },
    "showInQuickbar": false,
    "abilityType": "none",
    "crOffset": "",
    "disabled": false,
    "classSkills": {},
    "nonlethal": false,
    "duration": {
      "value": null,
      "units": ""
    },
    "target": {
      "value": ""
    },
    "attackName": "",
    "actionType": null,
    "attackBonus": "",
    "critConfirmBonus": "",
    "damage": {
      "parts": [],
      "critParts": [],
      "nonCritParts": []
    },
    "attackParts": [],
    "formulaicAttacks": {
      "count": {
        "formula": ""
      },
      "bonus": {
        "formula": ""
      },
      "label": null
    },
    "formula": "",
    "ability": {
      "attack": null,
      "damage": null,
      "damageMult": 1,
      "critRange": 20,
      "critMult": 2
    },
    "save": {
      "dc": 0,
      "type": "",
      "description": ""
    },
    "soundEffect": "",
    "powerAttack": {
      "multiplier": "",
      "damageBonus": 2,
      "critMultiplier": 1
    }
  },
  "ownership": {
    "default": 0
  },
  "_stats": {
    "systemId": "pf1",
    "systemVersion": "9.0",
    "coreVersion": "10.291",
    "createdTime": 1663168892615,
    "modifiedTime": 1689623923337,
    "lastModifiedBy": "pf1spheres-db000"
  }
}
