{
  "_id": "H1QPQhEVymFZALIH",
  "name": "Slick",
  "type": "feat",
  "img": "modules/pf1spheres/assets/icons/spheres/blood.webp",
  "effects": [],
  "folder": null,
  "sort": 0,
  "flags": {
    "pf1spheres": {
      "sphere": "blood"
    }
  },
  "system": {
    "description": {
      "value": "<p>You may choose to have creatures under the effects of your blood control and suffering from bleed damage take a penalty to CMD against bull rush, disarm, drag, reposition, overrun, and trip attempts equal to 2 + 1 per 5 caster levels. Starting and ending this effect is a free action.</p>\n<p>As a (quicken) ability, you may force a creature under the effects of your blood control and suffering from bleed damage to succeed at a Reflex save or fall prone any time they move more than half their speed until they are no longer under your blood control or stop taking bleed damage. If you spend a spell point, any creature that enters a space that the bleeding creature has exited in the last 1 round per caster level must also succeed at a Reflex save or fall prone.</p>\n",
      "unidentified": ""
    },
    "tags": ["Quicken"],
    "actions": [],
    "uses": {
      "per": null,
      "value": 0,
      "maxFormula": "",
      "autoDeductChargesCost": "1"
    },
    "attackNotes": [],
    "effectNotes": [],
    "changes": [],
    "changeFlags": {
      "loseDexToAC": false,
      "noEncumbrance": false,
      "mediumArmorFullSpeed": false,
      "heavyArmorFullSpeed": false
    },
    "contextNotes": [],
    "links": {
      "children": [],
      "charges": []
    },
    "tag": "",
    "useCustomTag": false,
    "armorProf": {
      "value": [],
      "custom": ""
    },
    "weaponProf": {
      "value": [],
      "custom": ""
    },
    "languages": {
      "value": [],
      "custom": ""
    },
    "flags": {
      "boolean": {},
      "dictionary": {}
    },
    "scriptCalls": [],
    "subType": "magicTalent",
    "associations": {
      "classes": []
    },
    "showInQuickbar": false,
    "abilityType": "none",
    "crOffset": "",
    "disabled": false,
    "classSkills": {},
    "nonlethal": false,
    "duration": {
      "value": null,
      "units": ""
    },
    "target": {
      "value": ""
    },
    "attackName": "",
    "actionType": null,
    "attackBonus": "",
    "critConfirmBonus": "",
    "damage": {
      "parts": [],
      "critParts": [],
      "nonCritParts": []
    },
    "attackParts": [],
    "formulaicAttacks": {
      "count": {
        "formula": ""
      },
      "bonus": {
        "formula": ""
      },
      "label": null
    },
    "formula": "",
    "ability": {
      "attack": null,
      "damage": null,
      "damageMult": 1,
      "critRange": 20,
      "critMult": 2
    },
    "save": {
      "dc": 0,
      "type": "",
      "description": ""
    },
    "soundEffect": "",
    "powerAttack": {
      "multiplier": "",
      "damageBonus": 2,
      "critMultiplier": 1
    }
  },
  "ownership": {
    "default": 0
  },
  "_stats": {
    "systemId": "pf1",
    "systemVersion": "9.0",
    "coreVersion": "10.291",
    "createdTime": 1663168891105,
    "modifiedTime": 1689623923020,
    "lastModifiedBy": "pf1spheres-db000"
  }
}
