{
  "_id": "L9YOIE64Xm6j3ZCb",
  "name": "Slumbear",
  "type": "feat",
  "img": "icons/svg/item-bag.svg",
  "effects": [],
  "folder": null,
  "sort": 0,
  "flags": {
    "pf1spheres": {
      "sphere": "bear"
    }
  },
  "system": {
    "description": {
      "value": "<p>As a standard action, you may spend a spell point to cause one target creature to fall into a deep, restful slumber for one minute, immediately recovering 1 hit point per level and curing 1 point of ability damage for each ability score as though resting for 8 hours. Each round the target sleeps, they regain 1 hit point + 1 hit point per 3 caster levels (this counts as natural healing). If the sleeping target takes damage or another creature attempts to wake them as a standard action, the target does not automatically awaken, but instead must succeed at a Will save to wake up. An unwilling creature can attempt a Will save to negate this effect, and on a successful save the creature is staggered for 1 round as they resist the urge to curl up and sleep. This is a mind-affecting sleep effect.</p>\n<p><strong>Author's Note:</strong> No, this does not count as a full night's rest for any purpose (no refreshing spell points, no healing from draining casting damage). It is bearly an appropriate substitute for the real thing.</p>\n",
      "unidentified": ""
    },
    "tags": ["Bearacteristic"],
    "actions": [],
    "uses": {
      "per": null,
      "value": 0,
      "maxFormula": "",
      "autoDeductChargesCost": "1"
    },
    "attackNotes": [],
    "effectNotes": [],
    "changes": [],
    "changeFlags": {
      "loseDexToAC": false,
      "noEncumbrance": false,
      "mediumArmorFullSpeed": false,
      "heavyArmorFullSpeed": false
    },
    "contextNotes": [],
    "links": {
      "children": [],
      "charges": []
    },
    "tag": "",
    "useCustomTag": false,
    "armorProf": {
      "value": [],
      "custom": ""
    },
    "weaponProf": {
      "value": [],
      "custom": ""
    },
    "languages": {
      "value": [],
      "custom": ""
    },
    "flags": {
      "boolean": {},
      "dictionary": {}
    },
    "scriptCalls": [],
    "subType": "magicTalent",
    "associations": {
      "classes": []
    },
    "showInQuickbar": false,
    "abilityType": "none",
    "crOffset": "",
    "disabled": false,
    "classSkills": {},
    "nonlethal": false,
    "duration": {
      "value": null,
      "units": ""
    },
    "target": {
      "value": ""
    },
    "attackName": "",
    "actionType": null,
    "attackBonus": "",
    "critConfirmBonus": "",
    "damage": {
      "parts": [],
      "critParts": [],
      "nonCritParts": []
    },
    "attackParts": [],
    "formulaicAttacks": {
      "count": {
        "formula": ""
      },
      "bonus": {
        "formula": ""
      },
      "label": null
    },
    "formula": "",
    "ability": {
      "attack": null,
      "damage": null,
      "damageMult": 1,
      "critRange": 20,
      "critMult": 2
    },
    "save": {
      "dc": 0,
      "type": "",
      "description": ""
    },
    "soundEffect": "",
    "powerAttack": {
      "multiplier": "",
      "damageBonus": 2,
      "critMultiplier": 1
    }
  },
  "ownership": {
    "default": 0
  },
  "_stats": {
    "systemId": "pf1",
    "systemVersion": "9.0",
    "coreVersion": "10.291",
    "createdTime": 1663168891682,
    "modifiedTime": 1689623923136,
    "lastModifiedBy": "pf1spheres-db000"
  }
}
