{
  "_id": "qAzM6snAntSRZRuK",
  "name": "Soul Trap",
  "type": "feat",
  "img": "modules/pf1spheres/assets/icons/spheres/death.webp",
  "effects": [],
  "folder": null,
  "sort": 0,
  "flags": {
    "pf1spheres": {
      "sphere": "death"
    }
  },
  "system": {
    "description": {
      "value": "<p><strong>Prerequisites:</strong> Death sphere, caster level 15th.</p>\n<p>As a standard action, when adjacent to a creature that has died very recently (within 1 round per caster level) you may spend 3 spell points to trap their soul into a gem. The target is allowed a Will save to negate the effect, and the gemstone&#8217;s value must be at least 1,000 gp per Hit Die of the creature you are attempting to trap. If successful, the creature&#8217;s soul becomes trapped within the gemstone. A trapped creature cannot be resurrected or have its spirit summoned, unless the caster is in possession of this gemstone. The creature trapped inside the gemstone always fails its saving throws if the holder of the gemstone uses the Summon Spirit advanced Death talent on it.</p>\n<p>If the gemstone is broken, the spirit is released. If the spirit is called through the Summon Spirit advanced Death talent, the caster may choose to release the spirit, in which case it travels to the afterlife, leaving the gem empty and reusable.</p>\n",
      "unidentified": ""
    },
    "tags": [],
    "actions": [],
    "uses": {
      "per": null,
      "value": 0,
      "maxFormula": "",
      "autoDeductChargesCost": "1"
    },
    "attackNotes": [],
    "effectNotes": [],
    "changes": [],
    "changeFlags": {
      "loseDexToAC": false,
      "noEncumbrance": false,
      "mediumArmorFullSpeed": false,
      "heavyArmorFullSpeed": false
    },
    "contextNotes": [],
    "links": {
      "children": [],
      "charges": []
    },
    "tag": "",
    "useCustomTag": false,
    "armorProf": {
      "value": [],
      "custom": ""
    },
    "weaponProf": {
      "value": [],
      "custom": ""
    },
    "languages": {
      "value": [],
      "custom": ""
    },
    "flags": {
      "boolean": {},
      "dictionary": {}
    },
    "scriptCalls": [],
    "subType": "magicTalent",
    "associations": {
      "classes": []
    },
    "showInQuickbar": false,
    "abilityType": "none",
    "crOffset": "",
    "disabled": false,
    "classSkills": {},
    "nonlethal": false,
    "duration": {
      "value": null,
      "units": ""
    },
    "target": {
      "value": ""
    },
    "attackName": "",
    "actionType": null,
    "attackBonus": "",
    "critConfirmBonus": "",
    "damage": {
      "parts": [],
      "critParts": [],
      "nonCritParts": []
    },
    "attackParts": [],
    "formulaicAttacks": {
      "count": {
        "formula": ""
      },
      "bonus": {
        "formula": ""
      },
      "label": null
    },
    "formula": "",
    "ability": {
      "attack": null,
      "damage": null,
      "damageMult": 1,
      "critRange": 20,
      "critMult": 2
    },
    "save": {
      "dc": 0,
      "type": "",
      "description": ""
    },
    "soundEffect": "",
    "powerAttack": {
      "multiplier": "",
      "damageBonus": 2,
      "critMultiplier": 1
    }
  },
  "ownership": {
    "default": 0
  },
  "_stats": {
    "systemId": "pf1",
    "systemVersion": "9.0",
    "coreVersion": "10.291",
    "createdTime": 1663168894242,
    "modifiedTime": 1689623923747,
    "lastModifiedBy": "pf1spheres-db000"
  }
}
