{
  "_id": "CMqG0zVXLoYrmjhZ",
  "name": "Telekinetic Tools",
  "type": "feat",
  "img": "modules/pf1spheres/assets/icons/spheres/telekinesis.webp",
  "effects": [],
  "folder": null,
  "sort": 0,
  "flags": {
    "pf1spheres": {
      "sphere": "telekinesis"
    }
  },
  "system": {
    "description": {
      "value": "<p>You may use your telekinesis to mimic simple tools, such as shovels, hammers, or scissors by using your telekinesis as if manipulating an item of the appropriate size.</p>\n<p>If you possess the Finesse talent, you may mimic tools associated with any of the listed skills, allowing you to Perform without an instrument or pick a lock without thieves tools. In addition, if you possess the Telekinetic Maneuver talent, when grappling a target you may choose to use the tie up grapple action to restrain them with telekinetic force instead of a rope.</p>\n<p>A creature successfully tied up this way is bound and helpless, and must follow the tie up rules to escape their bonds. This restraining force lasts until broken by a successful combat maneuver, until they receive help from an outside force as a fullround action, or until you dismiss it. A target cannot attempt a Will save to negate the effects of these bonds, or a Strength check to break them.</p>\n<p>You may also attack your enemies with pure telekinetic force. You may make Bludgeon attacks without an object, dealing bludgeoning or slashing damage as a Bludgeon of the size you specify, up to your telekinesis size limit. If you possess the Dancing Weapon talent, you may treat this Bludgeon attack as if it was made with a weapon you have proficiency with, sized up to your telekinesis size limit.</p>\n",
      "unidentified": ""
    },
    "tags": [],
    "actions": [],
    "uses": {
      "per": null,
      "value": 0,
      "maxFormula": "",
      "autoDeductChargesCost": "1"
    },
    "attackNotes": [],
    "effectNotes": [],
    "changes": [],
    "changeFlags": {
      "loseDexToAC": false,
      "noEncumbrance": false,
      "mediumArmorFullSpeed": false,
      "heavyArmorFullSpeed": false
    },
    "contextNotes": [],
    "links": {
      "children": [],
      "charges": []
    },
    "tag": "",
    "useCustomTag": false,
    "armorProf": {
      "value": [],
      "custom": ""
    },
    "weaponProf": {
      "value": [],
      "custom": ""
    },
    "languages": {
      "value": [],
      "custom": ""
    },
    "flags": {
      "boolean": {},
      "dictionary": {}
    },
    "scriptCalls": [],
    "subType": "magicTalent",
    "associations": {
      "classes": []
    },
    "showInQuickbar": false,
    "abilityType": "none",
    "crOffset": "",
    "disabled": false,
    "classSkills": {},
    "nonlethal": false,
    "duration": {
      "value": null,
      "units": ""
    },
    "target": {
      "value": ""
    },
    "attackName": "",
    "actionType": null,
    "attackBonus": "",
    "critConfirmBonus": "",
    "damage": {
      "parts": [],
      "critParts": [],
      "nonCritParts": []
    },
    "attackParts": [],
    "formulaicAttacks": {
      "count": {
        "formula": ""
      },
      "bonus": {
        "formula": ""
      },
      "label": null
    },
    "formula": "",
    "ability": {
      "attack": null,
      "damage": null,
      "damageMult": 1,
      "critRange": 20,
      "critMult": 2
    },
    "save": {
      "dc": 0,
      "type": "",
      "description": ""
    },
    "soundEffect": "",
    "powerAttack": {
      "multiplier": "",
      "damageBonus": 2,
      "critMultiplier": 1
    }
  },
  "ownership": {
    "default": 0
  },
  "_stats": {
    "systemId": "pf1",
    "systemVersion": "9.0",
    "coreVersion": "10.291",
    "createdTime": 1663168890785,
    "modifiedTime": 1689623922958,
    "lastModifiedBy": "pf1spheres-db000"
  }
}
