{
  "_id": "FxzjHA7IfwZpQMl6",
  "name": "Terrifying Mind",
  "type": "feat",
  "img": "modules/pf1spheres/assets/icons/spheres/mind.webp",
  "effects": [],
  "folder": null,
  "sort": 0,
  "flags": {
    "pf1spheres": {
      "sphere": "mind"
    }
  },
  "system": {
    "description": {
      "value": "<p>Whenever you succeed a saving throw against a mind-affecting effect, you may spend 1 spell point as a free action that can be taken outside of your turn to terrify the source of that effect, provided you can identify and see the effect&#8217;s source.</p>\n<p>This causes the creature to be shakened for 1 round per caster level. A successful Will save negates this effect. At 10th caster level, the creature is instead frightened for 1 round per caster level, and on a successful save the creature is still shaken for one round per caster level. This is a mind-affecting fear effect.</p>\n<p>Additionally, you may spend 1 spell point as a standard action to ready your mind, and grant yourself a +2 morale bonus to all saving throws made against mind-affecting effects for the next 24 hours. This bonus is doubled against fear effects. This bonus increases by +1 at 8th caster level and every 8 levels thereafter.</p>\n",
      "unidentified": ""
    },
    "tags": ["Cognition"],
    "actions": [],
    "uses": {
      "per": null,
      "value": 0,
      "maxFormula": "",
      "autoDeductChargesCost": "1"
    },
    "attackNotes": [],
    "effectNotes": [],
    "changes": [],
    "changeFlags": {
      "loseDexToAC": false,
      "noEncumbrance": false,
      "mediumArmorFullSpeed": false,
      "heavyArmorFullSpeed": false
    },
    "contextNotes": [],
    "links": {
      "children": [],
      "charges": []
    },
    "tag": "",
    "useCustomTag": false,
    "armorProf": {
      "value": [],
      "custom": ""
    },
    "weaponProf": {
      "value": [],
      "custom": ""
    },
    "languages": {
      "value": [],
      "custom": ""
    },
    "flags": {
      "boolean": {},
      "dictionary": {}
    },
    "scriptCalls": [],
    "subType": "magicTalent",
    "associations": {
      "classes": []
    },
    "showInQuickbar": false,
    "abilityType": "none",
    "crOffset": "",
    "disabled": false,
    "classSkills": {},
    "nonlethal": false,
    "duration": {
      "value": null,
      "units": ""
    },
    "target": {
      "value": ""
    },
    "attackName": "",
    "actionType": null,
    "attackBonus": "",
    "critConfirmBonus": "",
    "damage": {
      "parts": [],
      "critParts": [],
      "nonCritParts": []
    },
    "attackParts": [],
    "formulaicAttacks": {
      "count": {
        "formula": ""
      },
      "bonus": {
        "formula": ""
      },
      "label": null
    },
    "formula": "",
    "ability": {
      "attack": null,
      "damage": null,
      "damageMult": 1,
      "critRange": 20,
      "critMult": 2
    },
    "save": {
      "dc": 0,
      "type": "",
      "description": ""
    },
    "soundEffect": "",
    "powerAttack": {
      "multiplier": "",
      "damageBonus": 2,
      "critMultiplier": 1
    }
  },
  "ownership": {
    "default": 0
  },
  "_stats": {
    "systemId": "pf1",
    "systemVersion": "9.0",
    "coreVersion": "10.291",
    "createdTime": 1663168891051,
    "modifiedTime": 1689623923007,
    "lastModifiedBy": "pf1spheres-db000"
  }
}
