{
  "_id": "3Vb6mqduMytcOzL7",
  "name": "The Devil",
  "type": "feat",
  "img": "modules/pf1spheres/assets/icons/spheres/fate.webp",
  "effects": [],
  "folder": null,
  "sort": 0,
  "flags": {
    "pf1spheres": {
      "sphere": "fate"
    }
  },
  "system": {
    "description": {
      "value": "<p>You may grant a motif that allows the target to recognize the greatest threat to their goals. As a free action once per round they may assess an opponent they can see. The target learns the enemy&#8217;s approximate CR (see Table: Enemy CR). For every five caster levels, the target may use this an additional time per round.</p>\n<p>The target may discharge this effect to gain a +2 insight bonus to AC and attack rolls against any enemy they have assessed using this motif &#8217;s benefit for one round per caster level. This bonus increases by +1 for every 4 caster levels.</p>\n<strong>Table: Enemy CR</strong><br>\n<table class=\"wiki-content-table\">\n<tr>\n<th>Enemy&#8217;s CR</th>\n<th>Result</th>\n</tr>\n<tr>\n<td>4+ lower than the target&#8217;s level</td>\n<td>Trivial</td>\n</tr>\n<tr>\n<td>1&#8211;3 lower than the target&#8217;s level</td>\n<td>Easy</td>\n</tr>\n<tr>\n<td>Equal to the target&#8217;s level</td>\n<td>Fair fight</td>\n</tr>\n<tr>\n<td>1&#8211;3 higher than the target&#8217;s level</td>\n<td>Difficult</td>\n</tr>\n<tr>\n<td>4+ higher than the target&#8217;s level</td>\n<td>Overwhelming</td>\n</tr>\n</table>\n",
      "unidentified": ""
    },
    "tags": ["Motif"],
    "actions": [],
    "uses": {
      "per": null,
      "value": 0,
      "maxFormula": "",
      "autoDeductChargesCost": "1"
    },
    "attackNotes": [],
    "effectNotes": [],
    "changes": [],
    "changeFlags": {
      "loseDexToAC": false,
      "noEncumbrance": false,
      "mediumArmorFullSpeed": false,
      "heavyArmorFullSpeed": false
    },
    "contextNotes": [],
    "links": {
      "children": [],
      "charges": []
    },
    "tag": "",
    "useCustomTag": false,
    "armorProf": {
      "value": [],
      "custom": ""
    },
    "weaponProf": {
      "value": [],
      "custom": ""
    },
    "languages": {
      "value": [],
      "custom": ""
    },
    "flags": {
      "boolean": {},
      "dictionary": {}
    },
    "scriptCalls": [],
    "subType": "magicTalent",
    "associations": {
      "classes": []
    },
    "showInQuickbar": false,
    "abilityType": "none",
    "crOffset": "",
    "disabled": false,
    "classSkills": {},
    "nonlethal": false,
    "duration": {
      "value": null,
      "units": ""
    },
    "target": {
      "value": ""
    },
    "attackName": "",
    "actionType": null,
    "attackBonus": "",
    "critConfirmBonus": "",
    "damage": {
      "parts": [],
      "critParts": [],
      "nonCritParts": []
    },
    "attackParts": [],
    "formulaicAttacks": {
      "count": {
        "formula": ""
      },
      "bonus": {
        "formula": ""
      },
      "label": null
    },
    "formula": "",
    "ability": {
      "attack": null,
      "damage": null,
      "damageMult": 1,
      "critRange": 20,
      "critMult": 2
    },
    "save": {
      "dc": 0,
      "type": "",
      "description": ""
    },
    "soundEffect": "",
    "powerAttack": {
      "multiplier": "",
      "damageBonus": 2,
      "critMultiplier": 1
    }
  },
  "ownership": {
    "default": 0
  },
  "_stats": {
    "systemId": "pf1",
    "systemVersion": "9.0",
    "coreVersion": "10.291",
    "createdTime": 1663168890451,
    "modifiedTime": 1689623922731,
    "lastModifiedBy": "pf1spheres-db000"
  }
}
