{
  "_id": "pWOKMvXjGwTJ8g1g",
  "name": "Time Freeze",
  "type": "feat",
  "img": "modules/pf1spheres/assets/icons/spheres/time.webp",
  "effects": [],
  "folder": null,
  "sort": 0,
  "flags": {
    "pf1spheres": {
      "sphere": "time"
    }
  },
  "system": {
    "description": {
      "value": "<p>You may spend one spell point to freeze all activity within a 10-foot radius burst, + 5 feet per 5 caster levels. If used as a readied action, this can stop ranged attacks or instantaneous magical effects (such as destructive blasts), but in the case of effects that target areas, only the effect contained within the Time Freeze&#8217;s area is stopped. Unwilling targets (including allies if they choose) are allowed a Will save to negate this effect for themselves or effects originating from them (attacks, magic, etc.). You can choose whether or not to affect yourself with your own time freeze.</p>\n<p>All affected objects and creatures within this area cannot act for 1 round, neither can they be acted upon (moved, dealt damage to, etc.). Once the effect is in place, non-affected creatures can enter the area of effect without incident, so long as they do not disturb an affected creature or object. After one round has passed, everything within the area is unfrozen; creatures resume moving, ranged attacks hit the square they were targeting, and blast effects resolve as normal.</p>\n",
      "unidentified": ""
    },
    "tags": ["Time"],
    "actions": [],
    "uses": {
      "per": null,
      "value": 0,
      "maxFormula": "",
      "autoDeductChargesCost": "1"
    },
    "attackNotes": [],
    "effectNotes": [],
    "changes": [],
    "changeFlags": {
      "loseDexToAC": false,
      "noEncumbrance": false,
      "mediumArmorFullSpeed": false,
      "heavyArmorFullSpeed": false
    },
    "contextNotes": [],
    "links": {
      "children": [],
      "charges": []
    },
    "tag": "",
    "useCustomTag": false,
    "armorProf": {
      "value": [],
      "custom": ""
    },
    "weaponProf": {
      "value": [],
      "custom": ""
    },
    "languages": {
      "value": [],
      "custom": ""
    },
    "flags": {
      "boolean": {},
      "dictionary": {}
    },
    "scriptCalls": [],
    "subType": "magicTalent",
    "associations": {
      "classes": []
    },
    "showInQuickbar": false,
    "abilityType": "none",
    "crOffset": "",
    "disabled": false,
    "classSkills": {},
    "nonlethal": false,
    "duration": {
      "value": null,
      "units": ""
    },
    "target": {
      "value": ""
    },
    "attackName": "",
    "actionType": null,
    "attackBonus": "",
    "critConfirmBonus": "",
    "damage": {
      "parts": [],
      "critParts": [],
      "nonCritParts": []
    },
    "attackParts": [],
    "formulaicAttacks": {
      "count": {
        "formula": ""
      },
      "bonus": {
        "formula": ""
      },
      "label": null
    },
    "formula": "",
    "ability": {
      "attack": null,
      "damage": null,
      "damageMult": 1,
      "critRange": 20,
      "critMult": 2
    },
    "save": {
      "dc": 0,
      "type": "",
      "description": ""
    },
    "soundEffect": "",
    "powerAttack": {
      "multiplier": "",
      "damageBonus": 2,
      "critMultiplier": 1
    }
  },
  "ownership": {
    "default": 0
  },
  "_stats": {
    "systemId": "pf1",
    "systemVersion": "9.0",
    "coreVersion": "10.291",
    "createdTime": 1663168894082,
    "modifiedTime": 1689623923667,
    "lastModifiedBy": "pf1spheres-db000"
  }
}
