{
  "_id": "gDgsM3NHM5I2LNp1",
  "name": "Totem Of Screaming Skin",
  "type": "feat",
  "img": "modules/pf1spheres/assets/icons/spheres/war.webp",
  "effects": [],
  "folder": null,
  "sort": 0,
  "flags": {
    "pf1spheres": {
      "sphere": "war"
    }
  },
  "system": {
    "description": {
      "value": "<p>You must spend a spell point to create a totem of screaming skin. Enemies within this are haunted by the sensation of pain from far away. Whenever their skin is even slightly broken, a wound rips open in the shape of a mouth and screams, making even the smallest injuries horrific. Whenever a weapon or natural weapon attack is made on an enemy inside the totem, if the attack roll misses by 5 or less, and is not a natural 1, the attack is a glancing blow and does damage equal to your caster level. Effects that trigger on a hit, such as a melee touch attack delivering a sphere ability, do not trigger on a glancing blow.</p>\n",
      "unidentified": ""
    },
    "tags": ["Totem"],
    "actions": [],
    "uses": {
      "per": null,
      "value": 0,
      "maxFormula": "",
      "autoDeductChargesCost": "1"
    },
    "attackNotes": [],
    "effectNotes": [],
    "changes": [],
    "changeFlags": {
      "loseDexToAC": false,
      "noEncumbrance": false,
      "mediumArmorFullSpeed": false,
      "heavyArmorFullSpeed": false
    },
    "contextNotes": [],
    "links": {
      "children": [],
      "charges": []
    },
    "tag": "",
    "useCustomTag": false,
    "armorProf": {
      "value": [],
      "custom": ""
    },
    "weaponProf": {
      "value": [],
      "custom": ""
    },
    "languages": {
      "value": [],
      "custom": ""
    },
    "flags": {
      "boolean": {},
      "dictionary": {}
    },
    "scriptCalls": [],
    "subType": "magicTalent",
    "associations": {
      "classes": []
    },
    "showInQuickbar": false,
    "abilityType": "none",
    "crOffset": "",
    "disabled": false,
    "classSkills": {},
    "nonlethal": false,
    "duration": {
      "value": null,
      "units": ""
    },
    "target": {
      "value": ""
    },
    "attackName": "",
    "actionType": null,
    "attackBonus": "",
    "critConfirmBonus": "",
    "damage": {
      "parts": [],
      "critParts": [],
      "nonCritParts": []
    },
    "attackParts": [],
    "formulaicAttacks": {
      "count": {
        "formula": ""
      },
      "bonus": {
        "formula": ""
      },
      "label": null
    },
    "formula": "",
    "ability": {
      "attack": null,
      "damage": null,
      "damageMult": 1,
      "critRange": 20,
      "critMult": 2
    },
    "save": {
      "dc": 0,
      "type": "",
      "description": ""
    },
    "soundEffect": "",
    "powerAttack": {
      "multiplier": "",
      "damageBonus": 2,
      "critMultiplier": 1
    }
  },
  "ownership": {
    "default": 0
  },
  "_stats": {
    "systemId": "pf1",
    "systemVersion": "9.0",
    "coreVersion": "10.291",
    "createdTime": 1663168892937,
    "modifiedTime": 1689623923508,
    "lastModifiedBy": "pf1spheres-db000"
  }
}
