{
  "_id": "YL2Pkw1pK3VGLayM",
  "name": "True Protection",
  "type": "feat",
  "img": "modules/pf1spheres/assets/icons/spheres/protection.webp",
  "effects": [],
  "folder": null,
  "sort": 0,
  "flags": {
    "pf1spheres": {
      "sphere": "protection"
    }
  },
  "system": {
    "description": {
      "value": "<p><strong>Prerequisites:</strong> Protection sphere, caster level 10th.</p>\n<p>Whenever you create an aegis or ward, you may tie it to a specific creature. Against that creature, the aegis or ward acts as if it had a +10 circumstance bonus to caster level, but it is ineffective against any other creature. This means the aegis or ward works against attacks made by the creature, their abilities, or the attacks or abilities of other creatures it summons or controls.</p>\n<p>To be used, the caster must be able to uniquely identify the creature. If the caster has met the target, this is sufficient, otherwise they require some other means of identifying the creature. Having a sample of the creature&#8217;s blood or tissue works, or having the creature&#8217;s true name, but a description of the creature is not sufficient.</p>\n<p>The GM is the ultimate adjudicator of what is required.</p>\n",
      "unidentified": ""
    },
    "tags": [],
    "actions": [],
    "uses": {
      "per": null,
      "value": 0,
      "maxFormula": "",
      "autoDeductChargesCost": "1"
    },
    "attackNotes": [],
    "effectNotes": [],
    "changes": [],
    "changeFlags": {
      "loseDexToAC": false,
      "noEncumbrance": false,
      "mediumArmorFullSpeed": false,
      "heavyArmorFullSpeed": false
    },
    "contextNotes": [],
    "links": {
      "children": [],
      "charges": []
    },
    "tag": "",
    "useCustomTag": false,
    "armorProf": {
      "value": [],
      "custom": ""
    },
    "weaponProf": {
      "value": [],
      "custom": ""
    },
    "languages": {
      "value": [],
      "custom": ""
    },
    "flags": {
      "boolean": {},
      "dictionary": {}
    },
    "scriptCalls": [],
    "subType": "magicTalent",
    "associations": {
      "classes": []
    },
    "showInQuickbar": false,
    "abilityType": "none",
    "crOffset": "",
    "disabled": false,
    "classSkills": {},
    "nonlethal": false,
    "duration": {
      "value": null,
      "units": ""
    },
    "target": {
      "value": ""
    },
    "attackName": "",
    "actionType": null,
    "attackBonus": "",
    "critConfirmBonus": "",
    "damage": {
      "parts": [],
      "critParts": [],
      "nonCritParts": []
    },
    "attackParts": [],
    "formulaicAttacks": {
      "count": {
        "formula": ""
      },
      "bonus": {
        "formula": ""
      },
      "label": null
    },
    "formula": "",
    "ability": {
      "attack": null,
      "damage": null,
      "damageMult": 1,
      "critRange": 20,
      "critMult": 2
    },
    "save": {
      "dc": 0,
      "type": "",
      "description": ""
    },
    "soundEffect": "",
    "powerAttack": {
      "multiplier": "",
      "damageBonus": 2,
      "critMultiplier": 1
    }
  },
  "ownership": {
    "default": 0
  },
  "_stats": {
    "systemId": "pf1",
    "systemVersion": "9.0",
    "coreVersion": "10.291",
    "createdTime": 1663168892663,
    "modifiedTime": 1689623923355,
    "lastModifiedBy": "pf1spheres-db000"
  }
}
