{
  "_id": "6J5GWylFIjbfOOTZ",
  "name": "Universal Teleport",
  "type": "feat",
  "img": "modules/pf1spheres/assets/icons/spheres/warp.webp",
  "effects": [],
  "folder": null,
  "sort": 0,
  "flags": {
    "pf1spheres": {
      "sphere": "warp"
    }
  },
  "system": {
    "description": {
      "value": "<p><strong>Prerequisites:</strong> Warp sphere (Distant Teleport, Flawless Teleport (advanced), True Teleport (advanced), Unseeing Teleport), caster level 17th.</p>\n<p>When using True Teleport, your range becomes truly unlimited; you can even teleport between planets if you so choose.</p>\n<p>You must have a solid grasp of which world you wish to travel to (&#8220;the third planet from the sun&#8221; is an acceptable destination, but &#8220;a habitable world near that bright star&#8221; is not). If you have a specific location on a planet in mind, you arrive there without a chance of failure; otherwise you arrive at a location that would not immediately be life-threatening. If no such safe landing zone exists on the world, such as someone attempting to travel into the sun without the proper precautions in place, the teleport simply fails.</p>\n",
      "unidentified": ""
    },
    "tags": [],
    "actions": [],
    "uses": {
      "per": null,
      "value": 0,
      "maxFormula": "",
      "autoDeductChargesCost": "1"
    },
    "attackNotes": [],
    "effectNotes": [],
    "changes": [],
    "changeFlags": {
      "loseDexToAC": false,
      "noEncumbrance": false,
      "mediumArmorFullSpeed": false,
      "heavyArmorFullSpeed": false
    },
    "contextNotes": [],
    "links": {
      "children": [],
      "charges": []
    },
    "tag": "",
    "useCustomTag": false,
    "armorProf": {
      "value": [],
      "custom": ""
    },
    "weaponProf": {
      "value": [],
      "custom": ""
    },
    "languages": {
      "value": [],
      "custom": ""
    },
    "flags": {
      "boolean": {},
      "dictionary": {}
    },
    "scriptCalls": [],
    "subType": "magicTalent",
    "associations": {
      "classes": []
    },
    "showInQuickbar": false,
    "abilityType": "none",
    "crOffset": "",
    "disabled": false,
    "classSkills": {},
    "nonlethal": false,
    "duration": {
      "value": null,
      "units": ""
    },
    "target": {
      "value": ""
    },
    "attackName": "",
    "actionType": null,
    "attackBonus": "",
    "critConfirmBonus": "",
    "damage": {
      "parts": [],
      "critParts": [],
      "nonCritParts": []
    },
    "attackParts": [],
    "formulaicAttacks": {
      "count": {
        "formula": ""
      },
      "bonus": {
        "formula": ""
      },
      "label": null
    },
    "formula": "",
    "ability": {
      "attack": null,
      "damage": null,
      "damageMult": 1,
      "critRange": 20,
      "critMult": 2
    },
    "save": {
      "dc": 0,
      "type": "",
      "description": ""
    },
    "soundEffect": "",
    "powerAttack": {
      "multiplier": "",
      "damageBonus": 2,
      "critMultiplier": 1
    }
  },
  "ownership": {
    "default": 0
  },
  "_stats": {
    "systemId": "pf1",
    "systemVersion": "9.0",
    "coreVersion": "10.291",
    "createdTime": 1663168890499,
    "modifiedTime": 1689623922773,
    "lastModifiedBy": "pf1spheres-db000"
  }
}
