{
  "_id": "xtMYzCWQ8YCl9N9g",
  "name": "Black Dog Companion",
  "type": "feat",
  "img": "icons/svg/item-bag.svg",
  "effects": [],
  "folder": null,
  "sort": 0,
  "flags": {},
  "system": {
    "description": {
      "value": "<p>The mageknight gains an animal companion, treating her mageknight level -3 as her effective druid level. This stacks normally with other druid levels.</p>\n<p>Additionally, the mageknight may take a lesser c&#249;-s&#236;th as their companion. This functions as a wolf animal companion, except that it has an Intelligence score of 10 and the mageknight may spend a spell point as an immediate action on her lesser c&#249;-s&#236;th&#8217;s turn to allow it to use its baleful howl special attack as a standard action, with a DC equal to 10 + 1/2 its Hit Dice + her casting ability modifier.</p>\n<p><strong>Baleful Howl (Su)</strong> As a standard action, the c&#249;-s&#236;th can release a howl of ill omen. All enemies within 60 feet take a -4 penalty to saves against curse and death effects and against the c&#249;-s&#236;th&#8217;s soul shepherd ability, as well as a -4 penalty to AC. These penalties last for 5 rounds. These penalties are reduced to -1 and last only a single round with a successful Will save. This is a sonic curse effect.</p>\n",
      "unidentified": ""
    },
    "tags": [],
    "actions": [],
    "uses": {
      "per": null,
      "value": 0,
      "maxFormula": "",
      "autoDeductChargesCost": "1"
    },
    "attackNotes": [],
    "effectNotes": [],
    "changes": [],
    "changeFlags": {
      "loseDexToAC": false,
      "noEncumbrance": false,
      "mediumArmorFullSpeed": false,
      "heavyArmorFullSpeed": false
    },
    "contextNotes": [],
    "links": {
      "children": [],
      "charges": []
    },
    "tag": "",
    "useCustomTag": false,
    "armorProf": {
      "value": [],
      "custom": ""
    },
    "weaponProf": {
      "value": [],
      "custom": ""
    },
    "languages": {
      "value": [],
      "custom": ""
    },
    "flags": {
      "boolean": {},
      "dictionary": {}
    },
    "scriptCalls": [],
    "subType": "classFeat",
    "associations": {
      "classes": []
    },
    "showInQuickbar": false,
    "abilityType": "none",
    "crOffset": "",
    "disabled": false,
    "classSkills": {},
    "nonlethal": false,
    "duration": {
      "value": null,
      "units": ""
    },
    "target": {
      "value": ""
    },
    "attackName": "",
    "actionType": null,
    "attackBonus": "",
    "critConfirmBonus": "",
    "damage": {
      "parts": [],
      "critParts": [],
      "nonCritParts": []
    },
    "attackParts": [],
    "formulaicAttacks": {
      "count": {
        "formula": ""
      },
      "bonus": {
        "formula": ""
      },
      "label": null
    },
    "formula": "",
    "ability": {
      "attack": null,
      "damage": null,
      "damageMult": 1,
      "critRange": 20,
      "critMult": 2
    },
    "save": {
      "dc": 0,
      "type": "",
      "description": ""
    },
    "soundEffect": ""
  },
  "ownership": {
    "default": 0
  },
  "_stats": {
    "systemId": "pf1",
    "systemVersion": "9.0",
    "coreVersion": "10.291",
    "createdTime": 1663168901039,
    "modifiedTime": 1689623926561,
    "lastModifiedBy": "pf1spheres-db000"
  }
}
