{
  "_id": "yFiGJrkpr9mkSJfw",
  "name": "Flawless Sequence",
  "type": "feat",
  "img": "icons/svg/item-bag.svg",
  "effects": [],
  "folder": null,
  "sort": 0,
  "flags": {},
  "system": {
    "description": {
      "value": "<p>At 14th level, the prodigy does not lose a link in her sequence if she fails to add a link since the beginning of her previous turn and no longer needs to expend martial focus to prevent her sequence ending from the dazed, helpless, paralyzed, stunned, or unconscious conditions. Using a (finish) still ends the sequence as normal.</p>\n",
      "unidentified": ""
    },
    "tags": [],
    "actions": [],
    "uses": {
      "per": null,
      "value": 0,
      "maxFormula": "",
      "autoDeductChargesCost": "1"
    },
    "attackNotes": [],
    "effectNotes": [],
    "changes": [],
    "changeFlags": {
      "loseDexToAC": false,
      "noEncumbrance": false,
      "mediumArmorFullSpeed": false,
      "heavyArmorFullSpeed": false
    },
    "contextNotes": [],
    "links": {
      "children": [],
      "charges": []
    },
    "tag": "",
    "useCustomTag": false,
    "armorProf": {
      "value": [],
      "custom": ""
    },
    "weaponProf": {
      "value": [],
      "custom": ""
    },
    "languages": {
      "value": [],
      "custom": ""
    },
    "flags": {
      "boolean": {},
      "dictionary": {}
    },
    "scriptCalls": [],
    "subType": "classFeat",
    "associations": {
      "classes": []
    },
    "showInQuickbar": false,
    "abilityType": "ex",
    "crOffset": "",
    "disabled": false,
    "classSkills": {},
    "nonlethal": false,
    "duration": {
      "value": null,
      "units": ""
    },
    "target": {
      "value": ""
    },
    "attackName": "",
    "actionType": null,
    "attackBonus": "",
    "critConfirmBonus": "",
    "damage": {
      "parts": [],
      "critParts": [],
      "nonCritParts": []
    },
    "attackParts": [],
    "formulaicAttacks": {
      "count": {
        "formula": ""
      },
      "bonus": {
        "formula": ""
      },
      "label": null
    },
    "formula": "",
    "ability": {
      "attack": null,
      "damage": null,
      "damageMult": 1,
      "critRange": 20,
      "critMult": 2
    },
    "save": {
      "dc": 0,
      "type": "",
      "description": ""
    },
    "soundEffect": ""
  },
  "ownership": {
    "default": 0
  },
  "_stats": {
    "systemId": "pf1",
    "systemVersion": "9.0",
    "coreVersion": "10.291",
    "createdTime": 1663168901044,
    "modifiedTime": 1689623926563,
    "lastModifiedBy": "pf1spheres-db000"
  }
}
