{
  "_id": "6bfaxlhZYpfSlAzu",
  "name": "Gadgets",
  "type": "feat",
  "img": "icons/svg/item-bag.svg",
  "effects": [],
  "folder": null,
  "sort": 0,
  "flags": {},
  "system": {
    "description": {
      "value": "<p>Technicians are experts at building things, be they improvised tools or unique mechanical marvels. These items, called gadgets, are built out of components the technician has prepared in his spare time out of commonly-found items; so long as the technician has access to a trap bag, he is assumed to have access to all the parts he needs to build his gadgets, and to have already prepared components beforehand to quickly create whatever gadget he needs.</p>\n<p>Creating and activating a gadget is a standard action, but may be reduced to a move action by expending martial focus.</p>\n<p>A technician can create a total number of gadgets in a day equal to 1/2 his technician level + his Intelligence modifier (minimum: 1). If a gadget calls for a saving throw, that saving throw&#8217;s DC is equal to 10 + 1/2 his technician level + his Intelligence modifier. A gadget must be used the round it is created, or fall apart back into its component parts, which does not expend the gadget.</p>\n<hr>See also:<br><ul><li>@Compendium[pf1spheres.class-features.4x4X3ifRf67eJbK4]{Improvised Tools}</li><li>@Compendium[pf1spheres.class-features.9npjc1cB3YmbVl9Q]{Constructed Weapons}</li><li>@Compendium[pf1spheres.class-features.UddA1EBEfMDKNZtz]{Detonator}</li><li>@Compendium[pf1spheres.class-features.cyphx6ryDVgr28K4]{Hook and Pulley}</li><li>@Compendium[pf1spheres.class-features.VOXnxmgvptWZjDhq]{Launcher}</li></ul>",
      "unidentified": ""
    },
    "tags": [],
    "actions": [],
    "uses": {
      "per": null,
      "value": 0,
      "maxFormula": "",
      "autoDeductChargesCost": "1"
    },
    "attackNotes": [],
    "effectNotes": [],
    "changes": [],
    "changeFlags": {
      "loseDexToAC": false,
      "noEncumbrance": false,
      "mediumArmorFullSpeed": false,
      "heavyArmorFullSpeed": false
    },
    "contextNotes": [],
    "links": {
      "children": [],
      "charges": []
    },
    "tag": "",
    "useCustomTag": false,
    "armorProf": {
      "value": [],
      "custom": ""
    },
    "weaponProf": {
      "value": [],
      "custom": ""
    },
    "languages": {
      "value": [],
      "custom": ""
    },
    "flags": {
      "boolean": {},
      "dictionary": {}
    },
    "scriptCalls": [],
    "subType": "classFeat",
    "associations": {
      "classes": []
    },
    "showInQuickbar": false,
    "abilityType": "ex",
    "crOffset": "",
    "disabled": false,
    "classSkills": {},
    "nonlethal": false,
    "duration": {
      "value": null,
      "units": ""
    },
    "target": {
      "value": ""
    },
    "attackName": "",
    "actionType": null,
    "attackBonus": "",
    "critConfirmBonus": "",
    "damage": {
      "parts": [],
      "critParts": [],
      "nonCritParts": []
    },
    "attackParts": [],
    "formulaicAttacks": {
      "count": {
        "formula": ""
      },
      "bonus": {
        "formula": ""
      },
      "label": null
    },
    "formula": "",
    "ability": {
      "attack": null,
      "damage": null,
      "damageMult": 1,
      "critRange": 20,
      "critMult": 2
    },
    "save": {
      "dc": 0,
      "type": "",
      "description": ""
    },
    "soundEffect": ""
  },
  "ownership": {
    "default": 0
  },
  "_stats": {
    "systemId": "pf1",
    "systemVersion": "9.0",
    "coreVersion": "10.291",
    "createdTime": 1663168900088,
    "modifiedTime": 1689623926057,
    "lastModifiedBy": "pf1spheres-db000"
  }
}
