{
  "_id": "73v0sLe2ekfcKIfA",
  "name": "Inspiration",
  "type": "feat",
  "img": "icons/svg/item-bag.svg",
  "effects": [],
  "folder": null,
  "sort": 0,
  "flags": {},
  "system": {
    "description": {
      "value": "<p>From 2nd level on, a conscript gains the ability to augment skill checks and ability checks through his brilliant inspiration. The conscript gains an inspiration pool equal to 1/2 his class level (minimum 1). A conscript&#8217;s inspiration pool refreshes each day, typically after he gets a restful night&#8217;s sleep. As a free action, he can expend one use of inspiration from his pool to add 1d6 (his inspiration die) to the result of a skill or ability check, including any on which he takes 10 or takes 20. This choice is made after the check is rolled and before the result is revealed. A conscript can use inspiration once only per check or roll.</p>\n<p>Inspiration can also be used on attack rolls and saving throws, at the cost of two uses of inspiration each time from the conscript&#8217;s pool. In the case of saving throws, using inspiration is an immediate action rather than a free action.</p>\n<p>This counts as the investigator&#8217;s inspiration class feature, and conscripts with this ability add their investigator and conscript levels together when determining their uses per day and other level related functions of this ability.</p>\n",
      "unidentified": ""
    },
    "tags": [],
    "actions": [],
    "uses": {
      "per": null,
      "value": 0,
      "maxFormula": "",
      "autoDeductChargesCost": "1"
    },
    "attackNotes": [],
    "effectNotes": [],
    "changes": [],
    "changeFlags": {
      "loseDexToAC": false,
      "noEncumbrance": false,
      "mediumArmorFullSpeed": false,
      "heavyArmorFullSpeed": false
    },
    "contextNotes": [],
    "links": {
      "children": [],
      "charges": []
    },
    "tag": "",
    "useCustomTag": false,
    "armorProf": {
      "value": [],
      "custom": ""
    },
    "weaponProf": {
      "value": [],
      "custom": ""
    },
    "languages": {
      "value": [],
      "custom": ""
    },
    "flags": {
      "boolean": {},
      "dictionary": {}
    },
    "scriptCalls": [],
    "subType": "classFeat",
    "associations": {
      "classes": []
    },
    "showInQuickbar": false,
    "abilityType": "none",
    "crOffset": "",
    "disabled": false,
    "classSkills": {},
    "nonlethal": false,
    "duration": {
      "value": null,
      "units": ""
    },
    "target": {
      "value": ""
    },
    "attackName": "",
    "actionType": null,
    "attackBonus": "",
    "critConfirmBonus": "",
    "damage": {
      "parts": [],
      "critParts": [],
      "nonCritParts": []
    },
    "attackParts": [],
    "formulaicAttacks": {
      "count": {
        "formula": ""
      },
      "bonus": {
        "formula": ""
      },
      "label": null
    },
    "formula": "",
    "ability": {
      "attack": null,
      "damage": null,
      "damageMult": 1,
      "critRange": 20,
      "critMult": 2
    },
    "save": {
      "dc": 0,
      "type": "",
      "description": ""
    },
    "soundEffect": ""
  },
  "ownership": {
    "default": 0
  },
  "_stats": {
    "systemId": "pf1",
    "systemVersion": "9.0",
    "coreVersion": "10.291",
    "createdTime": 1663168900094,
    "modifiedTime": 1689623926060,
    "lastModifiedBy": "pf1spheres-db000"
  }
}
