{
  "_id": "eAsBbuEwHaRRn7QO",
  "name": "Integrated Techniques",
  "type": "feat",
  "img": "icons/svg/item-bag.svg",
  "effects": [],
  "folder": null,
  "sort": 0,
  "flags": {},
  "system": {
    "description": {
      "value": "<p>A prodigy gains additional sequence options if she possesses certain spheres:</p>\n<h3 id=\"toc10\"><span><span style=\"color: #993300\"><a href=\"/alchemy\">Alchemy</a></span></span></h3>\n<p><strong>Carpet Bombing (finish):</strong> As a standard action the prodigy may throw one formulae or dose of poison per link in her sequence. A creature cannot be affected by more than one of the formulae or dose of poison per use of this ability.</p>\n<p><strong>Opening Toss (opener):</strong> Deal damage to a creature or have a creature fail a save against or benefit from a formulae employed by the prodigy as a standard action or fail a save against a dose poison thrown by the prodigy as a standard action.</p>\n<p><strong>Poisoner (link):</strong> The prodigy applies a dose of poison to a weapon.</p>\n<h3 id=\"toc11\"><span><span style=\"color: #993300\"><a href=\"/athletics\">Athletics</a></span></span></h3>\n<p><strong>Hard Target (link):</strong> Once per movement, if the prodigy is attacked as part of an attack of opportunity provoked by her movement and the attack fails to hit her AC or if she succeeds on an Acrobatics check (or other associated skill if possessing the Mobility talent) to move through a threatened square without provoking, she adds a link to her sequence.</p>\n<h3 id=\"toc12\"><span><span style=\"color: #993300\"><a href=\"/barrage\">Barrage</a></span></span></h3>\n<p><strong>Flurry (finish):</strong> As a standard action the prodigy may make one ranged attack per link in her sequence, but no one creature may be targeted by a number of attacks greater than half the length of the sequence. These attacks are made at the prodigy&#8217;s full base attack bonus.</p>\n<h3 id=\"toc13\"><span><span style=\"color: #993300\"><a href=\"/barroom\">Barroom</a></span></span></h3>\n<p><strong>Liquid Preparation (opener):</strong> The prodigy may draw (if required) and imbibe an alcoholic drink, elixir, extract, formulae, or potion as at least a standard action.</p>\n<p><strong>Quaff (link):</strong> The prodigy draws (if required) and imbibes an alcoholic drink, elixir, extract, formulae, or potion as at least a move action.</p>\n<p><strong>Stumbling Flow (link):</strong> While (drunk) the prodigy may fall prone as a free action.</p>\n<h3 id=\"toc14\"><span><span style=\"color: #993300\"><a href=\"/beastmastery\">Beastmastery</a></span></span></h3>\n<p><strong>Defend Mount (link):</strong> Negate an attack from a hostile creature using the defensive rider ability.</p>\n<p><strong>Leading the Pack (opener):</strong> Handle or push an animal ally as a move or greater action.</p>\n<p><strong>Pack Attack (finish):</strong> The prodigy may spend a standard action to grant an attack action to a number of animal allies within close range (25 ft. + 5 ft. per 2 ranks in Handle Animal or Ride, whichever is higher) equal to half the length of his sequence (minimum 0).</p>\n<h3 id=\"toc15\"><span><span style=\"color: #993300\"><a href=\"/berserker\">Berserker</a></span></span></h3>\n<p><strong>Whirlwind (finish):</strong> As a standard action the prodigy may make one melee or thrown weapon attack per link in her sequence. No one creature may be targeted by a number of attacks greater than half the length of the sequence. These attacks are made at the prodigy&#8217;s full base attack bonus.</p>\n<h3 id=\"toc16\"><span><span style=\"color: #993300\"><a href=\"/boxing\">Boxing</a></span></span></h3>\n<p><strong>Ready for Action (opener):</strong> Ready a counter punch. Dealing damage with this readied attack action does not grant an additional link.</p>\n<h3 id=\"toc17\"><span><span style=\"color: #993300\"><a href=\"/brute\">Brute</a></span></span></h3>\n<p><strong>Clear the Field (finisher):</strong> As a standard action, the prodigy may make a bullrush or reposition attempt against a number of creatures within reach equal to the length of her sequence. If she instead uses a full-round action, she may move up to half her speed as part of this ability, allowing additional creatures to be brought in range.</p>\n<p><strong>Shoving Combo (link):</strong> The prodigy deals damage to a creature using the shove ability.</p>\n<p><strong>Shoving Open (opener):</strong> The prodigy deals damage to a creature using the shove ability as a standard action.</p>\n<h3 id=\"toc18\"><span><span style=\"color: #993300\"><a href=\"/dual-wielding\">Dual Wielding</a></span></span></h3>\n<p><strong>Follow-through (link):</strong> When the prodigy deals damage with an off-hand attack, she may make an additional off-hand attack against a different creature as a swift action at the same base attack bonus as the triggering attack. Dealing damage with this attack completes this (link).</p>\n<h3 id=\"toc19\"><span><span style=\"color: #993300\"><a href=\"/duelist\">Duelist</a></span></span></h3>\n<p><strong>Surface Cut (opener):</strong> As a move action, the prodigy may make a touch attack with a wielded weapon. This attack does not deal any damage other than inflicting bleed damage per the Duelist sphere.</p>\n<h3 id=\"toc20\"><span><span style=\"color: #993300\"><a href=\"/fencing\">Fencing</a></span></span></h3>\n<p><strong>Feinting Set-up (link):</strong> A successful feint as a move action or longer.</p>\n<h3 id=\"toc21\"><span><span style=\"color: #993300\"><a href=\"/gladiator\">Gladiator</a></span></span></h3>\n<p><strong>Braggadocio (link):</strong> Perform a boast.</p>\n<p><strong>Roar (opener):</strong> Use strike fear with a standard action or longer activation time.</p>\n<p><strong>Scare (link):</strong> Make a successful demoralization check.</p>\n<p><strong>Taunt (opener):</strong> Perform a boast as a standard action. Performing a boast in this way does not require the usual triggering conditions and may be combined with similar abilities such as the Self Confidence talent.</p>\n<h3 id=\"toc22\"><span><span style=\"color: #993300\"><a href=\"/guardian\">Guardian</a></span></span></h3>\n<p><strong>Deliberate Challenge (opener):</strong> Use challenge as a standard or move action.</p>\n<p><strong>Endurance (link):</strong> The prodigy fills her delayed damage pool to its maximum capacity.</p>\n<p><strong>Lockdown (opener):</strong> Use patrol.</p>\n<h3 id=\"toc23\"><span><span style=\"color: #993300\"><a href=\"/lancer\">Lancer</a></span></span></h3>\n<p><strong>Impale (link):</strong> The prodigy successfully impales a creature.</p>\n<h3 id=\"toc24\"><span><span style=\"color: #993300\"><a href=\"/leadership\">Leadership</a></span></span></h3>\n<p><strong>Directing the Charge (opener):</strong> The prodigy&#8217;s cohort deals damage to or succeeds on a combat maneuver against a hostile creature as part of a joint action.</p>\n<p><strong>Press the Attack (finish):</strong> The prodigy may spend a move action to grant an attack action to a cohort within close range (25 feet + 5 feet per 2 ranks in Diplomacy). This attack receives a morale bonus to attack and damage equal to the length of the sequence.</p>\n<h3 id=\"toc25\"><span><span style=\"color: #993300\"><a href=\"/open-hand\">Open Hand</a></span></span></h3>\n<p><strong>Focus (link):</strong> As a move action, the prodigy pauses to focus himself. If she possesses the Focusing Breath talent, she completes this link by using that talent.</p>\n<p><strong>Hit the Floor (finish):</strong> As a standard action the prodigy may make one trip combat maneuver per link in her sequence. No one creature may be targeted by a number of maneuvers greater than half the length of the sequence. If she instead uses a full-round action, she may move up to half her speed as part of this ability, allowing additional creatures to be brought in range.</p>\n<h3 id=\"toc26\"><span><span style=\"color: #993300\"><a href=\"/scoundrel\">Scoundrel</a></span></span></h3>\n<p><strong>Mark (link):</strong> The prodigy successfully uses marked target against a hostile creature.</p>\n<p><strong>Kleptomaniac (finish):</strong> As a standard action the prodigy may make one steal combat maneuver per link in her sequence. No one creature may be targeted by a number of maneuvers greater than half the length of the sequence. If she instead uses a full-round action, she may move up to half her speed as part of this ability, allowing additional creatures to be brought in range.</p>\n<h3 id=\"toc27\"><span><span style=\"color: #993300\"><a href=\"/scout\">Scout</a></span></span></h3>\n<p><strong>Battlefield Assessment (opener):</strong> The prodigy may scout a number of creatures equal to her casting ability modifier as a standard action. If the prodigy scouts less creatures than her casting ability modifier, she gains an insight bonus on her check equal to the number of creatures she could have scouted but did not.</p>\n<p><strong>Perceptive (link):</strong> The prodigy successfully uses scout on a hostile creature with a swift action or greater activation time.</p>\n<p><strong>Vanish (link):</strong> The prodigy successfully attempts a Stealth check to hide during combat. If using the sniping function of the Stealth skill, the Stealth check to hide after attacking counts as a separate action from the attack itself for the purpose of adding links to an active sequence.</p>\n<h3 id=\"toc28\"><span><span style=\"color: #993300\"><a href=\"/shield\">Shield</a></span></span></h3>\n<p><strong>Defender (link):</strong> A creature misses an attack roll against a target benefiting from the prodigy&#8217;s active defense.</p>\n<h3 id=\"toc29\"><span><span style=\"color: #993300\"><a href=\"/sniper\">Sniper</a></span></span></h3>\n<p><strong>Deliberate Load (link):</strong> The prodigy reloads a weapon with a swift or move action.</p>\n<h3 id=\"toc30\"><span><span style=\"color: #993300\"><a href=\"/tech\">Tech</a></span></span></h3>\n<p><strong>Gadget Activation (opener):</strong> Activate a gadget with a standard action or longer activation time.</p>\n<p><strong>Mass Self-Destruct (finish):</strong> As a standard action the prodigy may trigger one device she crafted per link in her sequence to self-destruct; all affected devices must be within medium range (100 ft. + 10 ft. per prodigy level) of the prodigy. Devices that self-destruct deal 1d10 bludgeoning/ piercing/slashing damage per prodigy level to all creatures within close range (25 ft. + 5 ft. per 2 prodigy levels) to a device. A creature cannot be affected by more than one of the self-destructed devices per use of this ability. The prodigy is not subject to the damage of the explosion.</p>\n<p><strong>Recharge Tech (link) (requires Battery):</strong> Attach a battery gadget to one of your crafted devices as a swift action.</p>\n<h3 id=\"toc31\"><span><span style=\"color: #993300\"><a href=\"/trap\">Trap</a></span></span></h3>\n<p><strong>Trapped (opener):</strong> A hostile creature fails a save against or takes damage from a trap the prodigy set (or used with the Trap Wielder talent).</p>\n<h3 id=\"toc32\"><span><span style=\"color: #993300\"><a href=\"/warleader-sphere\">Warleader</a></span></span></h3>\n<p><strong>Battlefield Coordination (opener):</strong> Use a shout or activate a tactic with a standard action or longer activation time.</p>\n<p><strong>Continue Guidance (link):</strong> Maintain a tactic with a move or swift action.</p>\n<h3 id=\"toc33\"><span><span style=\"color: #993300\"><a href=\"/wrestling\">Wrestling</a></span></span></h3>\n<p><strong>Big Move (link):</strong> Succeed on a combat maneuver or deal damage as part of a slam.</p>\n<p><strong>Parting Shove (link):</strong> When the prodigy fails to maintain or initiate a grapple, as a swift action she may make an unarmed strike against the target that deals no damage and does not provoke attacks of opportunity. If successful, the target creature is battered until the end of the prodigy&#8217;s next turn.</p>\n",
      "unidentified": ""
    },
    "tags": [],
    "actions": [],
    "uses": {
      "per": null,
      "value": 0,
      "maxFormula": "",
      "autoDeductChargesCost": "1"
    },
    "attackNotes": [],
    "effectNotes": [],
    "changes": [],
    "changeFlags": {
      "loseDexToAC": false,
      "noEncumbrance": false,
      "mediumArmorFullSpeed": false,
      "heavyArmorFullSpeed": false
    },
    "contextNotes": [],
    "links": {
      "children": [],
      "charges": []
    },
    "tag": "",
    "useCustomTag": false,
    "armorProf": {
      "value": [],
      "custom": ""
    },
    "weaponProf": {
      "value": [],
      "custom": ""
    },
    "languages": {
      "value": [],
      "custom": ""
    },
    "flags": {
      "boolean": {},
      "dictionary": {}
    },
    "scriptCalls": [],
    "subType": "classFeat",
    "associations": {
      "classes": []
    },
    "showInQuickbar": false,
    "abilityType": "none",
    "crOffset": "",
    "disabled": false,
    "classSkills": {},
    "nonlethal": false,
    "duration": {
      "value": null,
      "units": ""
    },
    "target": {
      "value": ""
    },
    "attackName": "",
    "actionType": null,
    "attackBonus": "",
    "critConfirmBonus": "",
    "damage": {
      "parts": [],
      "critParts": [],
      "nonCritParts": []
    },
    "attackParts": [],
    "formulaicAttacks": {
      "count": {
        "formula": ""
      },
      "bonus": {
        "formula": ""
      },
      "label": null
    },
    "formula": "",
    "ability": {
      "attack": null,
      "damage": null,
      "damageMult": 1,
      "critRange": 20,
      "critMult": 2
    },
    "save": {
      "dc": 0,
      "type": "",
      "description": ""
    },
    "soundEffect": ""
  },
  "ownership": {
    "default": 0
  },
  "_stats": {
    "systemId": "pf1",
    "systemVersion": "9.0",
    "coreVersion": "10.291",
    "createdTime": 1663168900743,
    "modifiedTime": 1689623926398,
    "lastModifiedBy": "pf1spheres-db000"
  }
}
