{
  "_id": "YmJjd0YrF19uAaTs",
  "name": "Invocations",
  "type": "feat",
  "img": "icons/svg/item-bag.svg",
  "effects": [],
  "folder": null,
  "sort": 0,
  "flags": {},
  "system": {
    "description": {
      "value": "<p>Thaumaturges control power in its purest form; whether through bargains with outsiders, the summoning of primal spirits, or simply an untamable spark in their soul, a thaumaturge can invoke a limited amount of truly wondrous power.</p>\n<p>A thaumaturge may use invocations a number of times per day equal to his casting ability modifier + 1/2 his class level, which refreshes when he rests to regain spell points. Whenever an invocation calls for a saving throw, the DC is equal to 10 + 1/2 his thaumaturge&#8217;s level + his thaumaturge&#8217;s casting ability modifier. A thaumaturge may only use invocations of his level or lower. Using an invocation is a free action that may be taken even when it is not the thaumaturge&#8217;s turn, but the thaumaturge cannot use multiple invocations as part of the same saving throw, check, or use of forbidden lore.</p>\n<hr>See also:<br><ul><li>@Compendium[pf1spheres.class-features.Jgrx4FApYsCks21e]{Lingering Blessing}</li><li>Lingering Pain</li><li>Meditation</li><li>@Compendium[pf1spheres.class-features.dBXRqlb9oWEYrhmf]{Empowered Attack}</li><li>@Compendium[pf1spheres.class-features.sek7oGXP5SkFgNl0]{Empowered Defense}</li><li>@Compendium[pf1spheres.class-features.f76Wqk7Z3wEBALTe]{Channel Punishment}</li><li>@Compendium[pf1spheres.class-features.1RlSeOOqaWPNn2Mv]{Defensive Invocation}</li><li>@Compendium[pf1spheres.class-features.lO8efZGiLfFuMg4E]{Item Lore}</li><li>@Compendium[pf1spheres.class-features.ofE6dPi1VUAFnb4v]{Soulfire}</li><li>@Compendium[pf1spheres.class-features.0X35cfXXEguyuoPv]{Empowered Resistance}</li><li>@Compendium[pf1spheres.class-features.eztDk3l5FJbPufAA]{Flexible Caster}</li><li>@Compendium[pf1spheres.class-features.LHyYRg6NWlQoYp6S]{Rebuke Death}</li></ul>",
      "unidentified": ""
    },
    "tags": [],
    "actions": [],
    "uses": {
      "per": null,
      "value": 0,
      "maxFormula": "",
      "autoDeductChargesCost": "1"
    },
    "attackNotes": [],
    "effectNotes": [],
    "changes": [],
    "changeFlags": {
      "loseDexToAC": false,
      "noEncumbrance": false,
      "mediumArmorFullSpeed": false,
      "heavyArmorFullSpeed": false
    },
    "contextNotes": [],
    "links": {
      "children": [],
      "charges": []
    },
    "tag": "",
    "useCustomTag": false,
    "armorProf": {
      "value": [],
      "custom": ""
    },
    "weaponProf": {
      "value": [],
      "custom": ""
    },
    "languages": {
      "value": [],
      "custom": ""
    },
    "flags": {
      "boolean": {},
      "dictionary": {}
    },
    "scriptCalls": [],
    "subType": "classFeat",
    "associations": {
      "classes": []
    },
    "showInQuickbar": false,
    "abilityType": "none",
    "crOffset": "",
    "disabled": false,
    "classSkills": {},
    "nonlethal": false,
    "duration": {
      "value": null,
      "units": ""
    },
    "target": {
      "value": ""
    },
    "attackName": "",
    "actionType": null,
    "attackBonus": "",
    "critConfirmBonus": "",
    "damage": {
      "parts": [],
      "critParts": [],
      "nonCritParts": []
    },
    "attackParts": [],
    "formulaicAttacks": {
      "count": {
        "formula": ""
      },
      "bonus": {
        "formula": ""
      },
      "label": null
    },
    "formula": "",
    "ability": {
      "attack": null,
      "damage": null,
      "damageMult": 1,
      "critRange": 20,
      "critMult": 2
    },
    "save": {
      "dc": 0,
      "type": "",
      "description": ""
    },
    "soundEffect": ""
  },
  "ownership": {
    "default": 0
  },
  "_stats": {
    "systemId": "pf1",
    "systemVersion": "9.0",
    "coreVersion": "10.291",
    "createdTime": 1663168900692,
    "modifiedTime": 1689623926369,
    "lastModifiedBy": "pf1spheres-db000"
  }
}
