{
  "_id": "8fuOmHZTBb0M1opK",
  "name": "Mind Blight",
  "type": "feat",
  "img": "icons/svg/item-bag.svg",
  "effects": [],
  "folder": null,
  "sort": 0,
  "flags": {},
  "system": {
    "description": {
      "value": "<p>At 10th level, the soul weaver may use lesion to take control of a target instead of damaging it. The blight spreads to their brain (Fortitude negates), giving them 4 points of ability drain to all mental ability scores and giving the soul weaver control over them for 1 hour per level or until the blight is cured. For the duration of this effect, the target can make only a standard action or move action on their turn, but not both.</p>\n<p>The target obeys all verbal commands (without a shared language, only basic commands such as come, fight, or stand still may be communicated) and does anything asked to the best of its ability, including self-destructive commands (a target command to hurt or kill itself deals its weapon damage + its Strength damage to itself per round until dead). Effects such as protection from evil or the Hallow word from the Fate sphere do not end this effect, since it is the result of a physical malady rather than a mind-altering or possession effect.</p>\n<p>Unlike the standard lesion ability, mind blight does not consume the target&#8217;s blight when used, and the target may be subject to another lesion or mind blight, even while already under the effects of a mind blight. If another soul weaver attempts to use mind blight on a target already under the effects of mind blight, the two soul weavers make opposed checks (d20 + their soul weaver level + their casting ability modifier) to determine who wins control of the target. Drain from multiple mind blights are cumulative.</p>\n",
      "unidentified": ""
    },
    "tags": [],
    "actions": [],
    "uses": {
      "per": null,
      "value": 0,
      "maxFormula": "",
      "autoDeductChargesCost": "1"
    },
    "attackNotes": [],
    "effectNotes": [],
    "changes": [],
    "changeFlags": {
      "loseDexToAC": false,
      "noEncumbrance": false,
      "mediumArmorFullSpeed": false,
      "heavyArmorFullSpeed": false
    },
    "contextNotes": [],
    "links": {
      "children": [],
      "charges": []
    },
    "tag": "",
    "useCustomTag": false,
    "armorProf": {
      "value": [],
      "custom": ""
    },
    "weaponProf": {
      "value": [],
      "custom": ""
    },
    "languages": {
      "value": [],
      "custom": ""
    },
    "flags": {
      "boolean": {},
      "dictionary": {}
    },
    "scriptCalls": [],
    "subType": "classFeat",
    "associations": {
      "classes": []
    },
    "showInQuickbar": false,
    "abilityType": "none",
    "crOffset": "",
    "disabled": false,
    "classSkills": {},
    "nonlethal": false,
    "duration": {
      "value": null,
      "units": ""
    },
    "target": {
      "value": ""
    },
    "attackName": "",
    "actionType": null,
    "attackBonus": "",
    "critConfirmBonus": "",
    "damage": {
      "parts": [],
      "critParts": [],
      "nonCritParts": []
    },
    "attackParts": [],
    "formulaicAttacks": {
      "count": {
        "formula": ""
      },
      "bonus": {
        "formula": ""
      },
      "label": null
    },
    "formula": "",
    "ability": {
      "attack": null,
      "damage": null,
      "damageMult": 1,
      "critRange": 20,
      "critMult": 2
    },
    "save": {
      "dc": 0,
      "type": "",
      "description": ""
    },
    "soundEffect": ""
  },
  "ownership": {
    "default": 0
  },
  "_stats": {
    "systemId": "pf1",
    "systemVersion": "9.0",
    "coreVersion": "10.291",
    "createdTime": 1663168900127,
    "modifiedTime": 1689623926077,
    "lastModifiedBy": "pf1spheres-db000"
  }
}
