{
  "_id": "ey35RLBvnKnPKbzk",
  "name": "Phlogiston",
  "type": "feat",
  "img": "icons/svg/item-bag.svg",
  "effects": [],
  "folder": null,
  "sort": 0,
  "flags": {},
  "system": {
    "description": {
      "value": "<p>Also known as aether, this rainbow fluid was once thought to be the source of all heat. While this has long since been demonstrated untrue, phlogiston nonetheless possesses numerous useful heat-related properties. Its strange relationship to the elements also gives it an edge in suppressing planar magic. The scholar gains the ability to craft a phlogiston emitter which can fire a ray of phlogiston as a ranged touch attack with a range of 30 feet. A struck target gains vulnerability to fire and must succeed at a magic skill check to use any form of extradimensional travel (which includes effects such as teleportation spells, Warp sphere teleport effects, and other effects such as astral projection, blink, dimension door, ethereal jaunt, etherealness, gate, maze, and plane shift) for a number of rounds equal to the scholar&#8217;s Intelligence modifier. The DC of this magic skill check is equal to 11 + the scholar&#8217;s level.</p>\n<ul>\n<li><strong>Inflammable Cloud [explosive]:</strong> Gaseous aether erupts from the flashbang, hanging in the air briefly. The flashbang creates a cloud of aether with a radius of 5 feet plus 5 feet per 5 class levels that persists a number of rounds equal to the scholar&#8217;s Intelligence modifier. This cloud does not obscure vision. A moderate wind (11+ mph) disperses the cloud in 4 rounds; a strong wind (21+ mph) disperses the cloud in 1 round. Whenever a creature would carry an open flame in the cloud, create a magical fire effect which passes through the cloud, or take fire damage within the cloud, the cloud explodes and dissipates, dealing 1d8 points of fire damage per 2 class levels the scholar possesses to all creatures who were within its area (Reflex save for half).</li>\n</ul>\n",
      "unidentified": ""
    },
    "tags": [],
    "actions": [],
    "uses": {
      "per": null,
      "value": 0,
      "maxFormula": "",
      "autoDeductChargesCost": "1"
    },
    "attackNotes": [],
    "effectNotes": [],
    "changes": [],
    "changeFlags": {
      "loseDexToAC": false,
      "noEncumbrance": false,
      "mediumArmorFullSpeed": false,
      "heavyArmorFullSpeed": false
    },
    "contextNotes": [],
    "links": {
      "children": [],
      "charges": []
    },
    "tag": "",
    "useCustomTag": false,
    "armorProf": {
      "value": [],
      "custom": ""
    },
    "weaponProf": {
      "value": [],
      "custom": ""
    },
    "languages": {
      "value": [],
      "custom": ""
    },
    "flags": {
      "boolean": {},
      "dictionary": {}
    },
    "scriptCalls": [],
    "subType": "classFeat",
    "associations": {
      "classes": []
    },
    "showInQuickbar": false,
    "abilityType": "none",
    "crOffset": "",
    "disabled": false,
    "classSkills": {},
    "nonlethal": false,
    "duration": {
      "value": null,
      "units": ""
    },
    "target": {
      "value": ""
    },
    "attackName": "",
    "actionType": null,
    "attackBonus": "",
    "critConfirmBonus": "",
    "damage": {
      "parts": [],
      "critParts": [],
      "nonCritParts": []
    },
    "attackParts": [],
    "formulaicAttacks": {
      "count": {
        "formula": ""
      },
      "bonus": {
        "formula": ""
      },
      "label": null
    },
    "formula": "",
    "ability": {
      "attack": null,
      "damage": null,
      "damageMult": 1,
      "critRange": 20,
      "critMult": 2
    },
    "save": {
      "dc": 0,
      "type": "",
      "description": ""
    },
    "soundEffect": ""
  },
  "ownership": {
    "default": 0
  },
  "_stats": {
    "systemId": "pf1",
    "systemVersion": "9.0",
    "coreVersion": "10.291",
    "createdTime": 1663168900751,
    "modifiedTime": 1689623926404,
    "lastModifiedBy": "pf1spheres-db000"
  }
}
