{
  "_id": "i4Q0l5kRqi7dBtiN",
  "name": "Prowess",
  "type": "feat",
  "img": "icons/svg/item-bag.svg",
  "effects": [],
  "folder": null,
  "sort": 0,
  "flags": {},
  "system": {
    "description": {
      "value": "<p>At 2nd level and every even level thereafter, the armiger may gain a prowess from the following list. Each prowess may only be selected once unless otherwise noted. Any time a prowess requires selecting a specific customized weapon, the benefits of that prowess may be moved to a different weapon at any time a new weapon is customized. All prowesses are extraordinary abilities unless noted.</p>\n<hr>See also:<br><ul><li>@Compendium[pf1spheres.class-features.QZqpnRPs5KztJSKp]{Armored Armiger}</li><li>@Compendium[pf1spheres.class-features.Pa3G4DRstJ24DXmb]{Bare-Fisted Training}</li><li>Champion</li><li>@Compendium[pf1spheres.class-features.gr8yBpsOWLmdMtgY]{Clockwork Custom Weapons}</li><li>Customized Bond</li><li>@Compendium[pf1spheres.class-features.P70HKygPHTKVR91Y]{Deadly Prowess}</li><li>@Compendium[pf1spheres.class-features.9XmYeq1GANoCUvdU]{Extra Focus}</li><li>@Compendium[pf1spheres.class-features.lFCOSquNKcf7if7L]{Exotic Weaponry}</li><li>@Compendium[pf1spheres.class-features.PeC7ZQU0UJlAtYSW]{Faith in Steel}</li><li>@Compendium[pf1spheres.class-features.a9Z96TAskBgTioPG]{Guarded Weapon}</li><li>@Compendium[pf1spheres.class-features.xyZF0clxIHRXCikR]{Improvisationalist}</li><li>@Compendium[pf1spheres.class-features.d4KzTPW870miUpu6]{Linebreaker}</li><li>@Compendium[pf1spheres.class-features.2tljwqEEUYV3kmAd]{Menagerie Trainer}</li><li>@Compendium[pf1spheres.class-features.50RYudxV2gpgOXhH]{Mobile Assault}</li><li>@Compendium[pf1spheres.class-features.cmGs2t2fWsUX9PXH]{Open Wound}</li><li>@Compendium[pf1spheres.class-features.J0IPBGCttSFvtFOa]{Penetrating Assault}</li><li>@Compendium[pf1spheres.class-features.ckzp2Bq4TxCnKs84]{Practiced Initiative}</li><li>@Compendium[pf1spheres.class-features.ecODaGdrx2qpPJD5]{Ranged Prowess}</li><li>@Compendium[pf1spheres.class-features.4oh5p9eE8xkZWuyD]{Sacrifice Weapon}</li><li>@Compendium[pf1spheres.class-features.38ab2hINYpwFk5OQ]{Share Customized Weapon}</li><li>@Compendium[pf1spheres.class-features.UrFjymYXlRE8z69H]{Shielded Armiger}</li><li>@Compendium[pf1spheres.class-features.ZlSW5r3vM4v5ONXI]{Shift Training}</li><li>@Compendium[pf1spheres.class-features.F866Kw2382347quX]{Skilled Weapon}</li><li>@Compendium[pf1spheres.class-features.jeh2b1VrhSXoT2bt]{Spell Dabbler}</li><li>@Compendium[pf1spheres.class-features.8ukhPIN32qq5UnYs]{Transfigurative Construction}</li><li>@Compendium[pf1spheres.class-features.rhZOREh5fOgqh1U9]{Variable Prowess}</li><li>@Compendium[pf1spheres.class-features.3FT2wRChlhGk0RT4]{Warhorn}</li></ul>",
      "unidentified": ""
    },
    "tags": [],
    "actions": [],
    "uses": {
      "per": null,
      "value": 0,
      "maxFormula": "",
      "autoDeductChargesCost": "1"
    },
    "attackNotes": [],
    "effectNotes": [],
    "changes": [],
    "changeFlags": {
      "loseDexToAC": false,
      "noEncumbrance": false,
      "mediumArmorFullSpeed": false,
      "heavyArmorFullSpeed": false
    },
    "contextNotes": [],
    "links": {
      "children": [],
      "charges": []
    },
    "tag": "",
    "useCustomTag": false,
    "armorProf": {
      "value": [],
      "custom": ""
    },
    "weaponProf": {
      "value": [],
      "custom": ""
    },
    "languages": {
      "value": [],
      "custom": ""
    },
    "flags": {
      "boolean": {},
      "dictionary": {}
    },
    "scriptCalls": [],
    "subType": "classFeat",
    "associations": {
      "classes": []
    },
    "showInQuickbar": false,
    "abilityType": "none",
    "crOffset": "",
    "disabled": false,
    "classSkills": {},
    "nonlethal": false,
    "duration": {
      "value": null,
      "units": ""
    },
    "target": {
      "value": ""
    },
    "attackName": "",
    "actionType": null,
    "attackBonus": "",
    "critConfirmBonus": "",
    "damage": {
      "parts": [],
      "critParts": [],
      "nonCritParts": []
    },
    "attackParts": [],
    "formulaicAttacks": {
      "count": {
        "formula": ""
      },
      "bonus": {
        "formula": ""
      },
      "label": null
    },
    "formula": "",
    "ability": {
      "attack": null,
      "damage": null,
      "damageMult": 1,
      "critRange": 20,
      "critMult": 2
    },
    "save": {
      "dc": 0,
      "type": "",
      "description": ""
    },
    "soundEffect": ""
  },
  "ownership": {
    "default": 0
  },
  "_stats": {
    "systemId": "pf1",
    "systemVersion": "9.0",
    "coreVersion": "10.291",
    "createdTime": 1663168900780,
    "modifiedTime": 1689623926423,
    "lastModifiedBy": "pf1spheres-db000"
  }
}
