{
  "_id": "LHyYRg6NWlQoYp6S",
  "name": "Rebuke Death",
  "type": "feat",
  "img": "icons/svg/item-bag.svg",
  "effects": [],
  "folder": null,
  "sort": 0,
  "flags": {},
  "system": {
    "description": {
      "value": "<p>At 19th level, when the thaumaturge is reduced to 0 hit points or fewer, the thaumaturge may use two of his remaining invocations to instead be reduced to 1 hit point. Effects that kill the thaumaturge outright without dealing hit point damage are not affected by this ability.</p>\n<h2 id=\"toc19\"><span>Occult Knowledge</span></h2>\n<p>At 2nd level, a thaumaturge gains a +1 bonus to all Knowledge checks, Spellcraft checks, and Use Magic Device checks. This bonus increases by 1 for every 4 additional thaumaturge levels possessed, to a maximum of +5 at 18th level.</p>\n<h2 id=\"toc20\"><span>Bonus Feats</span></h2>\n<p>At 4th level and every 4 levels thereafter, a thaumaturge gains a bonus feat. This may be spent to gain an extra magic talent, or any feat which has casting as a prerequisite (item creation feats, metamagic feats, Sphere Focus, Circle Casting, etc.).</p>\n<h2 id=\"toc21\"><span>Master Invoker</span></h2>\n<p>At 20th level, the thaumaturge selects two invocations other than rebuke death; he may use these invocations at will without using one of his invocations per day.</p>\n",
      "unidentified": ""
    },
    "tags": [],
    "actions": [],
    "uses": {
      "per": null,
      "value": 0,
      "maxFormula": "",
      "autoDeductChargesCost": "1"
    },
    "attackNotes": [],
    "effectNotes": [],
    "changes": [],
    "changeFlags": {
      "loseDexToAC": false,
      "noEncumbrance": false,
      "mediumArmorFullSpeed": false,
      "heavyArmorFullSpeed": false
    },
    "contextNotes": [],
    "links": {
      "children": [],
      "charges": []
    },
    "tag": "",
    "useCustomTag": false,
    "armorProf": {
      "value": [],
      "custom": ""
    },
    "weaponProf": {
      "value": [],
      "custom": ""
    },
    "languages": {
      "value": [],
      "custom": ""
    },
    "flags": {
      "boolean": {},
      "dictionary": {}
    },
    "scriptCalls": [],
    "subType": "classFeat",
    "associations": {
      "classes": []
    },
    "showInQuickbar": false,
    "abilityType": "none",
    "crOffset": "",
    "disabled": false,
    "classSkills": {},
    "nonlethal": false,
    "duration": {
      "value": null,
      "units": ""
    },
    "target": {
      "value": ""
    },
    "attackName": "",
    "actionType": null,
    "attackBonus": "",
    "critConfirmBonus": "",
    "damage": {
      "parts": [],
      "critParts": [],
      "nonCritParts": []
    },
    "attackParts": [],
    "formulaicAttacks": {
      "count": {
        "formula": ""
      },
      "bonus": {
        "formula": ""
      },
      "label": null
    },
    "formula": "",
    "ability": {
      "attack": null,
      "damage": null,
      "damageMult": 1,
      "critRange": 20,
      "critMult": 2
    },
    "save": {
      "dc": 0,
      "type": "",
      "description": ""
    },
    "soundEffect": ""
  },
  "ownership": {
    "default": 0
  },
  "_stats": {
    "systemId": "pf1",
    "systemVersion": "9.0",
    "coreVersion": "10.291",
    "createdTime": 1663168900435,
    "modifiedTime": 1689623926238,
    "lastModifiedBy": "pf1spheres-db000"
  }
}
