{
  "_id": "iGvTsm4MQ5GDPD3p",
  "name": "Sequence",
  "type": "feat",
  "img": "icons/svg/item-bag.svg",
  "effects": [],
  "folder": null,
  "sort": 0,
  "flags": {},
  "system": {
    "description": {
      "value": "<p>A prodigy may string together actions in combat, building momentum, setting her position, and unbalancing enemies to be able to execute powerful offensive and defensive techniques. Sequences have three parts: openers, link components, and finishers. The maximum length of a sequence is 4 links plus 1 link per 3 class levels. Attempts to add additional links have no effect and anything that would cause the sequence to lose a link acts normally. A prodigy may only have one sequence active at a time; any actions affect the currently active sequence. Any time a prodigy begins her turn without having added a link to her sequence since the beginning of her last turn, her active sequence loses one link. Should this reduce the sequence to 0 links, the sequence ends and must be started again. If the prodigy becomes dazed, dead, helpless, paralyzed, stunned, or unconscious, the sequence immediately ends.</p>\n<p>A sequence requires the rush induced by real danger. As such, a sequence cannot be started prior to rolling initiative and ends automatically 1 round after there is no longer any apparent immediate threat (such as a hostile creature capable of making an attack or casting a spell or sphere effect).</p>\n<hr>See also:<br><ul><li>@Compendium[pf1spheres.class-features.aDAgMm4HjLzMKaJ6]{Openers}</li><li>@Compendium[pf1spheres.class-features.4BpYiiS0BJDnCZHd]{Link Components}</li><li>@Compendium[pf1spheres.class-features.C8mSREvvjaBUbiOm]{Finishers}</li></ul>",
      "unidentified": ""
    },
    "tags": [],
    "actions": [],
    "uses": {
      "per": null,
      "value": 0,
      "maxFormula": "",
      "autoDeductChargesCost": "1"
    },
    "attackNotes": [],
    "effectNotes": [],
    "changes": [],
    "changeFlags": {
      "loseDexToAC": false,
      "noEncumbrance": false,
      "mediumArmorFullSpeed": false,
      "heavyArmorFullSpeed": false
    },
    "contextNotes": [],
    "links": {
      "children": [],
      "charges": []
    },
    "tag": "",
    "useCustomTag": false,
    "armorProf": {
      "value": [],
      "custom": ""
    },
    "weaponProf": {
      "value": [],
      "custom": ""
    },
    "languages": {
      "value": [],
      "custom": ""
    },
    "flags": {
      "boolean": {},
      "dictionary": {}
    },
    "scriptCalls": [],
    "subType": "classFeat",
    "associations": {
      "classes": []
    },
    "showInQuickbar": false,
    "abilityType": "ex",
    "crOffset": "",
    "disabled": false,
    "classSkills": {},
    "nonlethal": false,
    "duration": {
      "value": null,
      "units": ""
    },
    "target": {
      "value": ""
    },
    "attackName": "",
    "actionType": null,
    "attackBonus": "",
    "critConfirmBonus": "",
    "damage": {
      "parts": [],
      "critParts": [],
      "nonCritParts": []
    },
    "attackParts": [],
    "formulaicAttacks": {
      "count": {
        "formula": ""
      },
      "bonus": {
        "formula": ""
      },
      "label": null
    },
    "formula": "",
    "ability": {
      "attack": null,
      "damage": null,
      "damageMult": 1,
      "critRange": 20,
      "critMult": 2
    },
    "save": {
      "dc": 0,
      "type": "",
      "description": ""
    },
    "soundEffect": ""
  },
  "ownership": {
    "default": 0
  },
  "_stats": {
    "systemId": "pf1",
    "systemVersion": "9.0",
    "coreVersion": "10.291",
    "createdTime": 1663168900783,
    "modifiedTime": 1689623926425,
    "lastModifiedBy": "pf1spheres-db000"
  }
}
