{
  "_id": "AATP7sUpN26hMiNm",
  "name": "Smithing Insight",
  "type": "feat",
  "img": "icons/svg/item-bag.svg",
  "effects": [],
  "folder": null,
  "sort": 0,
  "flags": {},
  "system": {
    "description": {
      "value": "<p>The blacksmith&#8217;s expertise in crafting and maintaining weapons and equipment has given him a broader and deeper insight into the strengths and weaknesses of all kinds of equipment. Unless otherwise noted, a blacksmith cannot select an individual smithing insight more than once. At 2nd level and every 2 levels thereafter the blacksmith gains one smithing insight from the following list:</p>\n<hr>See also:<br><ul><li>@Compendium[pf1spheres.class-features.vva1q8R8amFjgOMt]{Alchemical Maintenance}</li><li>@Compendium[pf1spheres.class-features.V7s4VamdUYEftWQ8]{Animal Grooming}</li><li>@Compendium[pf1spheres.class-features.kVYDaXtEyy2Enjyx]{Armorclad Mastery}</li><li>@Compendium[pf1spheres.class-features.nTVh7sgCTi4jI9cI]{Crafting Competence}</li><li>@Compendium[pf1spheres.class-features.Cs76ZycmfFcba4wX]{Double-Edged Sword}</li><li>@Compendium[pf1spheres.class-features.3CQ0u0i1y1ARNi4c]{Durable}</li><li>@Compendium[pf1spheres.class-features.iClYj0kwT8LeEeK4]{Economic Crafting}</li><li>@Compendium[pf1spheres.class-features.85NEB0IlBtqBdCkk]{Expanded Crafting}</li><li>@Compendium[pf1spheres.class-features.iocyswGe6jqyPZm1]{Gunsmith}</li><li>@Compendium[pf1spheres.class-features.0GSFzTt4tvDMVh8j]{Hammer Down}</li><li>@Compendium[pf1spheres.class-features.LU0Fvq8XJkbK64hi]{Hampering Dents}</li><li>@Compendium[pf1spheres.class-features.FHHV9yMNxnZ2OwpO]{Heat Forged}</li><li>@Compendium[pf1spheres.class-features.Qi4CdfM9WctaamTE]{Hobbling Strikes}</li><li>@Compendium[pf1spheres.class-features.r4cxTk2xetWPnoex]{Maker’s Know How}</li><li>@Compendium[pf1spheres.class-features.8KjcCCCSrhkXpLMe]{Master Shieldsmith}</li><li>@Compendium[pf1spheres.class-features.TyRgVtQHwBNePVFA]{Painful Shred}</li><li>@Compendium[pf1spheres.class-features.GgPmVUUk4AWyr45a]{Penetrating Blows}</li><li>@Compendium[pf1spheres.class-features.oZ6vXeXaYP956dPF]{Practiced Power}</li><li>@Compendium[pf1spheres.class-features.zMkpxwk7nFjo5Okb]{Rune-Charged Maintenance}</li><li>@Compendium[pf1spheres.class-features.im16l1lGNvHZQKyq]{Satisfying Crunch}</li><li>@Compendium[pf1spheres.class-features.rILdr4uCMoPLbrdr]{Shieldsmith}</li><li>@Compendium[pf1spheres.class-features.a8r5h36Ek67GlcKu]{Siegesmith}</li><li>@Compendium[pf1spheres.class-features.WZ2xnU9bq6mXupo4]{Stunning Strikes}</li><li>@Compendium[pf1spheres.class-features.LtJzCqjZYPAQ85DQ]{Tangling Wreckage}</li><li>@Compendium[pf1spheres.class-features.6rQU6gpsNNglFA8V]{Toolsmith}</li><li>@Compendium[pf1spheres.class-features.roSrow0gRFu0AseY]{Toymaker}</li></ul>",
      "unidentified": ""
    },
    "tags": [],
    "actions": [],
    "uses": {
      "per": null,
      "value": 0,
      "maxFormula": "",
      "autoDeductChargesCost": "1"
    },
    "attackNotes": [],
    "effectNotes": [],
    "changes": [],
    "changeFlags": {
      "loseDexToAC": false,
      "noEncumbrance": false,
      "mediumArmorFullSpeed": false,
      "heavyArmorFullSpeed": false
    },
    "contextNotes": [],
    "links": {
      "children": [],
      "charges": []
    },
    "tag": "",
    "useCustomTag": false,
    "armorProf": {
      "value": [],
      "custom": ""
    },
    "weaponProf": {
      "value": [],
      "custom": ""
    },
    "languages": {
      "value": [],
      "custom": ""
    },
    "flags": {
      "boolean": {},
      "dictionary": {}
    },
    "scriptCalls": [],
    "subType": "classFeat",
    "associations": {
      "classes": []
    },
    "showInQuickbar": false,
    "abilityType": "ex",
    "crOffset": "",
    "disabled": false,
    "classSkills": {},
    "nonlethal": false,
    "duration": {
      "value": null,
      "units": ""
    },
    "target": {
      "value": ""
    },
    "attackName": "",
    "actionType": null,
    "attackBonus": "",
    "critConfirmBonus": "",
    "damage": {
      "parts": [],
      "critParts": [],
      "nonCritParts": []
    },
    "attackParts": [],
    "formulaicAttacks": {
      "count": {
        "formula": ""
      },
      "bonus": {
        "formula": ""
      },
      "label": null
    },
    "formula": "",
    "ability": {
      "attack": null,
      "damage": null,
      "damageMult": 1,
      "critRange": 20,
      "critMult": 2
    },
    "save": {
      "dc": 0,
      "type": "",
      "description": ""
    },
    "soundEffect": ""
  },
  "ownership": {
    "default": 0
  },
  "_stats": {
    "systemId": "pf1",
    "systemVersion": "9.0",
    "coreVersion": "10.291",
    "createdTime": 1663168900146,
    "modifiedTime": 1689623926085,
    "lastModifiedBy": "pf1spheres-db000"
  }
}
