{
  "_id": "gLS3up98eNDTZZeb",
  "name": "Sphere Specialization (Leadership)",
  "type": "feat",
  "img": "icons/svg/item-bag.svg",
  "effects": [],
  "folder": null,
  "sort": 0,
  "flags": {},
  "system": {
    "description": {
      "value": "<p><strong>Cohort Coordination:</strong> At 3rd level and every five levels thereafter, a conscript gains a teamwork feat he qualifies for as a bonus feat. The conscript may share these feats with any cohort within close range (25 feet + 5 feet per 2 class levels), even if they would not normally qualify for it.</p>\n<p><strong>Directed Motion:</strong> At 8th level, the conscript may grant an additional move action to a number of cohorts equal to his practitioner ability modifier (minimum 1) as a move action. This additional move action may only be used to move.</p>\n<p><strong>True Leader:</strong> At 20th level, the conscript&#8217;s cohorts gain a morale bonus to AC and all saving throws equal to the conscript's practitioner ability modifier and fast healing 5.</p>\n",
      "unidentified": ""
    },
    "tags": [],
    "actions": [],
    "uses": {
      "per": null,
      "value": 0,
      "maxFormula": "",
      "autoDeductChargesCost": "1"
    },
    "attackNotes": [],
    "effectNotes": [],
    "changes": [],
    "changeFlags": {
      "loseDexToAC": false,
      "noEncumbrance": false,
      "mediumArmorFullSpeed": false,
      "heavyArmorFullSpeed": false
    },
    "contextNotes": [],
    "links": {
      "children": [],
      "charges": []
    },
    "tag": "",
    "useCustomTag": false,
    "armorProf": {
      "value": [],
      "custom": ""
    },
    "weaponProf": {
      "value": [],
      "custom": ""
    },
    "languages": {
      "value": [],
      "custom": ""
    },
    "flags": {
      "boolean": {},
      "dictionary": {}
    },
    "scriptCalls": [],
    "subType": "classFeat",
    "associations": {
      "classes": []
    },
    "showInQuickbar": false,
    "abilityType": "none",
    "crOffset": "",
    "disabled": false,
    "classSkills": {},
    "nonlethal": false,
    "duration": {
      "value": null,
      "units": ""
    },
    "target": {
      "value": ""
    },
    "attackName": "",
    "actionType": null,
    "attackBonus": "",
    "critConfirmBonus": "",
    "damage": {
      "parts": [],
      "critParts": [],
      "nonCritParts": []
    },
    "attackParts": [],
    "formulaicAttacks": {
      "count": {
        "formula": ""
      },
      "bonus": {
        "formula": ""
      },
      "label": null
    },
    "formula": "",
    "ability": {
      "attack": null,
      "damage": null,
      "damageMult": 1,
      "critRange": 20,
      "critMult": 2
    },
    "save": {
      "dc": 0,
      "type": "",
      "description": ""
    },
    "soundEffect": ""
  },
  "ownership": {
    "default": 0
  },
  "_stats": {
    "systemId": "pf1",
    "systemVersion": "9.0",
    "coreVersion": "10.291",
    "createdTime": 1663168900768,
    "modifiedTime": 1689623926416,
    "lastModifiedBy": "pf1spheres-db000"
  }
}
