{
  "_id": "rNUbHYQTgxzStK5F",
  "name": "Sphere Specialization (Gladiator)",
  "type": "feat",
  "img": "icons/svg/item-bag.svg",
  "effects": [],
  "folder": null,
  "sort": 0,
  "flags": {},
  "system": {
    "description": {
      "value": "<p><strong>Armed Intimidator (Ex):</strong> At 3rd level, whenever the conscript is wielding a weapon with the performance special feature, or any weapon from the Gladiator Training discipline, he may add its enhancement bonus (if any) to his Intimidate checks.</p>\n<p><strong>Celebrity Combatant (Ex):</strong> From 8th level on, the conscript treats every battle as a performance combat as long as he is wielding a weapon with the performance special feature or a weapon from the Gladiator Training discipline, treating his allies and other creatures participating in the combat as a small, indifferent crowd for the purposes of determining what benefits he receives. In addition, whenever he begins a performance combat, he starts with a number of victory points equal to half his practitioner modifier (rounded down, minimum 1).</p>\n<p><strong>Gladiatorial Weapon Master (Ex):</strong> Once the conscript reaches 20th level, whenever he threatens a critical hit with a weapon with the performance special feature or any weapon from the Gladiator Training discipline, he automatically confirms the critical threat. In addition, he is always treated as having the Improved Critical feat for any of these weapons.</p>\n",
      "unidentified": ""
    },
    "tags": [],
    "actions": [],
    "uses": {
      "per": null,
      "value": 0,
      "maxFormula": "",
      "autoDeductChargesCost": "1"
    },
    "attackNotes": [],
    "effectNotes": [],
    "changes": [],
    "changeFlags": {
      "loseDexToAC": false,
      "noEncumbrance": false,
      "mediumArmorFullSpeed": false,
      "heavyArmorFullSpeed": false
    },
    "contextNotes": [],
    "links": {
      "children": [],
      "charges": []
    },
    "tag": "",
    "useCustomTag": false,
    "armorProf": {
      "value": [],
      "custom": ""
    },
    "weaponProf": {
      "value": [],
      "custom": ""
    },
    "languages": {
      "value": [],
      "custom": ""
    },
    "flags": {
      "boolean": {},
      "dictionary": {}
    },
    "scriptCalls": [],
    "subType": "classFeat",
    "associations": {
      "classes": []
    },
    "showInQuickbar": false,
    "abilityType": "none",
    "crOffset": "",
    "disabled": false,
    "classSkills": {},
    "nonlethal": false,
    "duration": {
      "value": null,
      "units": ""
    },
    "target": {
      "value": ""
    },
    "attackName": "",
    "actionType": null,
    "attackBonus": "",
    "critConfirmBonus": "",
    "damage": {
      "parts": [],
      "critParts": [],
      "nonCritParts": []
    },
    "attackParts": [],
    "formulaicAttacks": {
      "count": {
        "formula": ""
      },
      "bonus": {
        "formula": ""
      },
      "label": null
    },
    "formula": "",
    "ability": {
      "attack": null,
      "damage": null,
      "damageMult": 1,
      "critRange": 20,
      "critMult": 2
    },
    "save": {
      "dc": 0,
      "type": "",
      "description": ""
    },
    "soundEffect": ""
  },
  "ownership": {
    "default": 0
  },
  "_stats": {
    "systemId": "pf1",
    "systemVersion": "9.0",
    "coreVersion": "10.291",
    "createdTime": 1663168900982,
    "modifiedTime": 1689623926530,
    "lastModifiedBy": "pf1spheres-db000"
  }
}
