{
  "_id": "GyKLln0TfYXgROWm",
  "name": "Sphere Specialization (Blood)",
  "type": "feat",
  "img": "icons/svg/item-bag.svg",
  "effects": [],
  "folder": null,
  "sort": 0,
  "flags": {},
  "system": {
    "description": {
      "value": "<strong>Red Minion (Su):</strong> At 3rd level, the incanter gains a Tiny blood construct as a permanent servant. As the incanter gains levels, he may choose to increase the size of the construct based on the following table, changeable when the incanter gains a level. The incanter may choose to advance the blood construct&#8217;s Hit Dice to that of an available size without actually increasing its size, if he so chooses.<br>\n<table class=\"wiki-content-table\">\n<tr>\n<th>Incanter Level</th>\n<th>Construct</th>\n</tr>\n<tr>\n<td>3rd</td>\n<td>Small</td>\n</tr>\n<tr>\n<td>6th</td>\n<td>Medium</td>\n</tr>\n<tr>\n<td>9th</td>\n<td>Large</td>\n</tr>\n<tr>\n<td>12th</td>\n<td>Huge</td>\n</tr>\n<tr>\n<td>15th</td>\n<td>Gargantuan</td>\n</tr>\n<tr>\n<td>18th</td>\n<td>Colossal</td>\n</tr>\n</table>\n<p>A slain blood construct may be replaced with an 8 hour ritual and sufficient blood to create a construct of that size (see the Extract Blood Construct talent).</p>\n<p><strong>Hemorrhagic Aura (Su):</strong> At 8th level, as a free action the incanter can emit a 30-foot aura that intensifies any bleed effects for one round. He may emit this aura for a total number of rounds per day equal to his incanter level. Hostile creatures within this area that are suffering from ongoing bleed effects must attempt a Fortitude save each round or suffer 1d2 points of Constitution damage that round. These rounds do not need to be consecutive.</p>\n<p><strong>Hemorrhagic Mastery (Su):</strong> At 20th level, any bleed damage the incanter deals is increased by 1/2 his incanter level. This bonus bleed damage is not increased by Empower Spell or similar effects. Additionally, whenever he uses blood control, he can roll twice to penetrate a creature&#8217;s spell resistance and take the better result.</p>\n",
      "unidentified": ""
    },
    "tags": [],
    "actions": [],
    "uses": {
      "per": null,
      "value": 0,
      "maxFormula": "",
      "autoDeductChargesCost": "1"
    },
    "attackNotes": [],
    "effectNotes": [],
    "changes": [],
    "changeFlags": {
      "loseDexToAC": false,
      "noEncumbrance": false,
      "mediumArmorFullSpeed": false,
      "heavyArmorFullSpeed": false
    },
    "contextNotes": [],
    "links": {
      "children": [],
      "charges": []
    },
    "tag": "",
    "useCustomTag": false,
    "armorProf": {
      "value": [],
      "custom": ""
    },
    "weaponProf": {
      "value": [],
      "custom": ""
    },
    "languages": {
      "value": [],
      "custom": ""
    },
    "flags": {
      "boolean": {},
      "dictionary": {}
    },
    "scriptCalls": [],
    "subType": "classFeat",
    "associations": {
      "classes": []
    },
    "showInQuickbar": false,
    "abilityType": "none",
    "crOffset": "",
    "disabled": false,
    "classSkills": {},
    "nonlethal": false,
    "duration": {
      "value": null,
      "units": ""
    },
    "target": {
      "value": ""
    },
    "attackName": "",
    "actionType": null,
    "attackBonus": "",
    "critConfirmBonus": "",
    "damage": {
      "parts": [],
      "critParts": [],
      "nonCritParts": []
    },
    "attackParts": [],
    "formulaicAttacks": {
      "count": {
        "formula": ""
      },
      "bonus": {
        "formula": ""
      },
      "label": null
    },
    "formula": "",
    "ability": {
      "attack": null,
      "damage": null,
      "damageMult": 1,
      "critRange": 20,
      "critMult": 2
    },
    "save": {
      "dc": 0,
      "type": "",
      "description": ""
    },
    "soundEffect": ""
  },
  "ownership": {
    "default": 0
  },
  "_stats": {
    "systemId": "pf1",
    "systemVersion": "9.0",
    "coreVersion": "10.291",
    "createdTime": 1663168900375,
    "modifiedTime": 1689623926205,
    "lastModifiedBy": "pf1spheres-db000"
  }
}
