{
  "_id": "MYHrdeB9vf53OIID",
  "name": "Sphere Specialization (Divination)",
  "type": "feat",
  "img": "icons/svg/item-bag.svg",
  "effects": [],
  "folder": null,
  "sort": 0,
  "flags": {},
  "system": {
    "description": {
      "value": "<p><strong>Forewarned (Su):</strong> At 3rd level, the incanter can always act in the surprise round even if he fails to attempt a Perception roll to notice a foe, but he is still considered flat-footed until he takes an action. In addition, he receives a bonus on initiative checks equal to 1/2 his incanter level (minimum +1).</p>\n<p><strong>Foretell (Su):</strong> At 8th level, the incanter can utter a prediction of the immediate future as a free action. For one round, he emits a 30-foot aura of fortune that aids his allies or hinders his enemies, as chosen by him at the time of prediction. If he chooses to aid, he and his allies gain a +2 luck bonus on ability checks, attack rolls, magic skill checks, saving throws, and skill checks. If he chooses to hinder, his enemies take a &#8211;2 penalty on those rolls instead. He can use this ability for a number of rounds per day equal to his incanter level. These rounds do not need to be consecutive.</p>\n<p><strong>Perfect Knowledge:</strong> At 20th level, anytime the incanter would roll for initiative or a Knowledge check, instead assume the roll would have resulted in a natural 20.</p>\n",
      "unidentified": ""
    },
    "tags": [],
    "actions": [],
    "uses": {
      "per": null,
      "value": 0,
      "maxFormula": "",
      "autoDeductChargesCost": "1"
    },
    "attackNotes": [],
    "effectNotes": [],
    "changes": [],
    "changeFlags": {
      "loseDexToAC": false,
      "noEncumbrance": false,
      "mediumArmorFullSpeed": false,
      "heavyArmorFullSpeed": false
    },
    "contextNotes": [],
    "links": {
      "children": [],
      "charges": []
    },
    "tag": "",
    "useCustomTag": false,
    "armorProf": {
      "value": [],
      "custom": ""
    },
    "weaponProf": {
      "value": [],
      "custom": ""
    },
    "languages": {
      "value": [],
      "custom": ""
    },
    "flags": {
      "boolean": {},
      "dictionary": {}
    },
    "scriptCalls": [],
    "subType": "classFeat",
    "associations": {
      "classes": []
    },
    "showInQuickbar": false,
    "abilityType": "none",
    "crOffset": "",
    "disabled": false,
    "classSkills": {},
    "nonlethal": false,
    "duration": {
      "value": null,
      "units": ""
    },
    "target": {
      "value": ""
    },
    "attackName": "",
    "actionType": null,
    "attackBonus": "",
    "critConfirmBonus": "",
    "damage": {
      "parts": [],
      "critParts": [],
      "nonCritParts": []
    },
    "attackParts": [],
    "formulaicAttacks": {
      "count": {
        "formula": ""
      },
      "bonus": {
        "formula": ""
      },
      "label": null
    },
    "formula": "",
    "ability": {
      "attack": null,
      "damage": null,
      "damageMult": 1,
      "critRange": 20,
      "critMult": 2
    },
    "save": {
      "dc": 0,
      "type": "",
      "description": ""
    },
    "soundEffect": ""
  },
  "ownership": {
    "default": 0
  },
  "_stats": {
    "systemId": "pf1",
    "systemVersion": "9.0",
    "coreVersion": "10.291",
    "createdTime": 1663168900447,
    "modifiedTime": 1689623926243,
    "lastModifiedBy": "pf1spheres-db000"
  }
}
