{
  "_id": "QbBNepOJielPAcnZ",
  "name": "Sphere Specialization (Trap)",
  "type": "feat",
  "img": "icons/svg/item-bag.svg",
  "effects": [],
  "folder": null,
  "sort": 0,
  "flags": {},
  "system": {
    "description": {
      "value": "<p><strong>Surprising Activation (Ex):</strong> At 3rd level, whenever a creature fails a save against a conscript&#8217;s trap, they are flat-footed until the beginning of their next turn.</p>\n<p><strong>Engineering Genius (Ex):</strong> At 8th level, a conscript&#8217;s dart traps extend to medium range and his snare traps double their normal area.</p>\n<p><strong>Enduring Trapper (Ex):</strong> At 20th level, a conscript&#8217;s traps do not break when activated, resetting after 1 round. Each time they are activated, they lose 5 rounds of their duration (if a trap&#8217;s duration would be measured in minutes, it instead loses 5 minutes each time it is activated), breaking when their duration would expire. Traps that contain expendable items such as alchemical items still expend the item upon usage, but may be pre-loaded with additional items, in which case a new one is loaded when the trap resets.</p>\n",
      "unidentified": ""
    },
    "tags": [],
    "actions": [],
    "uses": {
      "per": null,
      "value": 0,
      "maxFormula": "",
      "autoDeductChargesCost": "1"
    },
    "attackNotes": [],
    "effectNotes": [],
    "changes": [],
    "changeFlags": {
      "loseDexToAC": false,
      "noEncumbrance": false,
      "mediumArmorFullSpeed": false,
      "heavyArmorFullSpeed": false
    },
    "contextNotes": [],
    "links": {
      "children": [],
      "charges": []
    },
    "tag": "",
    "useCustomTag": false,
    "armorProf": {
      "value": [],
      "custom": ""
    },
    "weaponProf": {
      "value": [],
      "custom": ""
    },
    "languages": {
      "value": [],
      "custom": ""
    },
    "flags": {
      "boolean": {},
      "dictionary": {}
    },
    "scriptCalls": [],
    "subType": "classFeat",
    "associations": {
      "classes": []
    },
    "showInQuickbar": false,
    "abilityType": "none",
    "crOffset": "",
    "disabled": false,
    "classSkills": {},
    "nonlethal": false,
    "duration": {
      "value": null,
      "units": ""
    },
    "target": {
      "value": ""
    },
    "attackName": "",
    "actionType": null,
    "attackBonus": "",
    "critConfirmBonus": "",
    "damage": {
      "parts": [],
      "critParts": [],
      "nonCritParts": []
    },
    "attackParts": [],
    "formulaicAttacks": {
      "count": {
        "formula": ""
      },
      "bonus": {
        "formula": ""
      },
      "label": null
    },
    "formula": "",
    "ability": {
      "attack": null,
      "damage": null,
      "damageMult": 1,
      "critRange": 20,
      "critMult": 2
    },
    "save": {
      "dc": 0,
      "type": "",
      "description": ""
    },
    "soundEffect": ""
  },
  "ownership": {
    "default": 0
  },
  "_stats": {
    "systemId": "pf1",
    "systemVersion": "9.0",
    "coreVersion": "10.291",
    "createdTime": 1663168900506,
    "modifiedTime": 1689623926275,
    "lastModifiedBy": "pf1spheres-db000"
  }
}
