{
  "_id": "3ivxvcP6E02XfLUe",
  "name": "Sphere Specialization (Wrestling)",
  "type": "feat",
  "img": "icons/svg/item-bag.svg",
  "effects": [],
  "folder": null,
  "sort": 0,
  "flags": {},
  "system": {
    "description": {
      "value": "<p><strong>Mobile Grappler (Ex):</strong> At 3rd level, whenever the conscript makes a successful grapple check to maintain a grapple, he may move himself and the grappled creature up to 5 ft. as a free action; this movement is in addition to the movement normally granted by using the move option available whenever he maintains a grapple. At 9th level and again at 15th level, he may move himself and that creature an additional 5 ft.</p>\n<p><strong>Bear Hug (Ex):</strong> At 8th level, whenever the conscript makes a successful grapple check to maintain a grapple, that creature must make a successful Fortitude save (DC 10 + 1/2 conscript level + conscript&#8217;s Strength or Dexterity modifier, whichever is higher) or become fatigued for 1 round and lose their martial focus if they possess it. At 15th level, they are instead exhausted for 1 round.</p>\n<p><strong>Fatal Clutch (Ex):</strong> At 20th level, whenever the conscript maintains a grapple against a creature, the grappled creature must make a Fortitude save (DC 10 + 1/2 conscript level + conscript&#8217;s Strength or Dexterity modifier, whichever is higher) or take damage equal to 1/4 of their maximum hit points (rounded down).</p>\n",
      "unidentified": ""
    },
    "tags": [],
    "actions": [],
    "uses": {
      "per": null,
      "value": 0,
      "maxFormula": "",
      "autoDeductChargesCost": "1"
    },
    "attackNotes": [],
    "effectNotes": [],
    "changes": [],
    "changeFlags": {
      "loseDexToAC": false,
      "noEncumbrance": false,
      "mediumArmorFullSpeed": false,
      "heavyArmorFullSpeed": false
    },
    "contextNotes": [],
    "links": {
      "children": [],
      "charges": []
    },
    "tag": "",
    "useCustomTag": false,
    "armorProf": {
      "value": [],
      "custom": ""
    },
    "weaponProf": {
      "value": [],
      "custom": ""
    },
    "languages": {
      "value": [],
      "custom": ""
    },
    "flags": {
      "boolean": {},
      "dictionary": {}
    },
    "scriptCalls": [],
    "subType": "classFeat",
    "associations": {
      "classes": []
    },
    "showInQuickbar": false,
    "abilityType": "none",
    "crOffset": "",
    "disabled": false,
    "classSkills": {},
    "nonlethal": false,
    "duration": {
      "value": null,
      "units": ""
    },
    "target": {
      "value": ""
    },
    "attackName": "",
    "actionType": null,
    "attackBonus": "",
    "critConfirmBonus": "",
    "damage": {
      "parts": [],
      "critParts": [],
      "nonCritParts": []
    },
    "attackParts": [],
    "formulaicAttacks": {
      "count": {
        "formula": ""
      },
      "bonus": {
        "formula": ""
      },
      "label": null
    },
    "formula": "",
    "ability": {
      "attack": null,
      "damage": null,
      "damageMult": 1,
      "critRange": 20,
      "critMult": 2
    },
    "save": {
      "dc": 0,
      "type": "",
      "description": ""
    },
    "soundEffect": ""
  },
  "ownership": {
    "default": 0
  },
  "_stats": {
    "systemId": "pf1",
    "systemVersion": "9.0",
    "coreVersion": "10.291",
    "createdTime": 1663168900050,
    "modifiedTime": 1689623926041,
    "lastModifiedBy": "pf1spheres-db000"
  }
}
