{
  "_id": "RCMLGRU2Votve4Xd",
  "name": "Sphere Specialization (Barroom)",
  "type": "feat",
  "img": "icons/svg/item-bag.svg",
  "effects": [],
  "folder": null,
  "sort": 0,
  "flags": {},
  "system": {
    "description": {
      "value": "<p><strong>Broken Creativity (Ex):</strong> At 3rd level, a conscript can deal either bludgeoning, piercing, or slashing damage with an improvised weapon, and while drunk a conscript deals additional damage with an improvised weapon equal to 1/3 his base attack bonus (minimum 1).</p>\n<p><strong>Lasting Drunkenness (Ex):</strong> At 8th level, whenever a conscript expends his drunk status, he is still treated as though he had the drunk status for the purpose of talents which would grant him benefits for having it for 1 minute. In addition, he gains a +2 dodge bonus to his armor class and a +2 circumstance bonus to Reflex saving throws while drunk. At 16th level, these bonuses increase by +2.</p>\n<p><strong>Eternal Drunk (Ex):</strong> At 20th level, the conscript is always treated as though he had the &#8216;drunk&#8217; status for the purpose of talents which would grant benefits for having it, and all improvised weapons he wields are always treated as 2 size categories larger than they actually are for the purpose of determining how much damage they deal.</p>\n",
      "unidentified": ""
    },
    "tags": [],
    "actions": [],
    "uses": {
      "per": null,
      "value": 0,
      "maxFormula": "",
      "autoDeductChargesCost": "1"
    },
    "attackNotes": [],
    "effectNotes": [],
    "changes": [],
    "changeFlags": {
      "loseDexToAC": false,
      "noEncumbrance": false,
      "mediumArmorFullSpeed": false,
      "heavyArmorFullSpeed": false
    },
    "contextNotes": [],
    "links": {
      "children": [],
      "charges": []
    },
    "tag": "",
    "useCustomTag": false,
    "armorProf": {
      "value": [],
      "custom": ""
    },
    "weaponProf": {
      "value": [],
      "custom": ""
    },
    "languages": {
      "value": [],
      "custom": ""
    },
    "flags": {
      "boolean": {},
      "dictionary": {}
    },
    "scriptCalls": [],
    "subType": "classFeat",
    "associations": {
      "classes": []
    },
    "showInQuickbar": false,
    "abilityType": "none",
    "crOffset": "",
    "disabled": false,
    "classSkills": {},
    "nonlethal": false,
    "duration": {
      "value": null,
      "units": ""
    },
    "target": {
      "value": ""
    },
    "attackName": "",
    "actionType": null,
    "attackBonus": "",
    "critConfirmBonus": "",
    "damage": {
      "parts": [],
      "critParts": [],
      "nonCritParts": []
    },
    "attackParts": [],
    "formulaicAttacks": {
      "count": {
        "formula": ""
      },
      "bonus": {
        "formula": ""
      },
      "label": null
    },
    "formula": "",
    "ability": {
      "attack": null,
      "damage": null,
      "damageMult": 1,
      "critRange": 20,
      "critMult": 2
    },
    "save": {
      "dc": 0,
      "type": "",
      "description": ""
    },
    "soundEffect": ""
  },
  "ownership": {
    "default": 0
  },
  "_stats": {
    "systemId": "pf1",
    "systemVersion": "9.0",
    "coreVersion": "10.291",
    "createdTime": 1663168900515,
    "modifiedTime": 1689623926278,
    "lastModifiedBy": "pf1spheres-db000"
  }
}
