{
  "_id": "lyeMc0ZSzF9OVIb0",
  "name": "Acrocatics",
  "type": "feat",
  "img": "modules/pf1spheres/assets/icons/spheres/athletics.webp",
  "effects": [],
  "folder": null,
  "sort": 0,
  "flags": {
    "pf1spheres": {
      "sphere": "athletics"
    }
  },
  "system": {
    "description": {
      "value": "<p>You gain the following ability:</p>\n<ul>\n<li><strong>Righting Reflex:</strong> Whenever you would fall prone (such as from the trip combat maneuver), you may expend your martial focus as an immediate action. If you do, you are not tripped and remain standing on your feet. This ability can cause a successful trip maneuver to be treated as an unsuccessful one for the purposes of other abilities or effects. If you are flying and use this ability to not fall prone, you instead do not fall.</li>\n</ul>\n<p>In addition, if you possess the associated Athletics sphere package, you gain additional abilities:</p>\n<ul>\n<li><strong>Catwalk (requires (run) package):</strong> You may always take 10 on Acrobatics checks made to cross narrow or uneven surfaces. In addition, as long as you have martial focus, you always succeed at Acrobatics checks made to not fall prone while moving faster than half your speed across a slippery surface (such as grease or ice) or while blind.</li>\n<li><strong>Soft-Paw Landing (requires (leap) package):</strong> During your turn, whenever you would fall at least 10 feet and suffer no falling damage (such as succeeding at Acrobatics check to soften a fall), you may immediately attempt a Stealth check to hide, and can hide even while you are observed or if you do not have cover or concealment. If this ability is used as part of your movement, you may complete your movement after attempting the Stealth check (such as to reposition into cover, etc.).</li>\n</ul>\n",
      "unidentified": ""
    },
    "tags": [],
    "actions": [],
    "uses": {
      "per": null,
      "value": 0,
      "maxFormula": "",
      "autoDeductChargesCost": "1"
    },
    "attackNotes": [],
    "effectNotes": [],
    "changes": [],
    "changeFlags": {
      "loseDexToAC": false,
      "noEncumbrance": false,
      "mediumArmorFullSpeed": false,
      "heavyArmorFullSpeed": false
    },
    "contextNotes": [],
    "links": {
      "children": [],
      "charges": []
    },
    "tag": "",
    "useCustomTag": false,
    "armorProf": {
      "value": [],
      "custom": ""
    },
    "weaponProf": {
      "value": [],
      "custom": ""
    },
    "languages": {
      "value": [],
      "custom": ""
    },
    "flags": {
      "boolean": {},
      "dictionary": {}
    },
    "scriptCalls": [],
    "subType": "combatTalent",
    "associations": {
      "classes": []
    },
    "showInQuickbar": false,
    "abilityType": "none",
    "crOffset": "",
    "disabled": false,
    "classSkills": {},
    "nonlethal": false,
    "duration": {
      "value": null,
      "units": ""
    },
    "target": {
      "value": ""
    },
    "attackName": "",
    "actionType": null,
    "attackBonus": "",
    "critConfirmBonus": "",
    "damage": {
      "parts": [],
      "critParts": [],
      "nonCritParts": []
    },
    "attackParts": [],
    "formulaicAttacks": {
      "count": {
        "formula": ""
      },
      "bonus": {
        "formula": ""
      },
      "label": null
    },
    "formula": "",
    "ability": {
      "attack": null,
      "damage": null,
      "damageMult": 1,
      "critRange": 20,
      "critMult": 2
    },
    "save": {
      "dc": 0,
      "type": "",
      "description": ""
    },
    "soundEffect": "",
    "powerAttack": {
      "multiplier": "",
      "damageBonus": 2,
      "critMultiplier": 1
    }
  },
  "ownership": {
    "default": 0
  },
  "_stats": {
    "systemId": "pf1",
    "systemVersion": "9.0",
    "coreVersion": "10.291",
    "createdTime": 1663168887966,
    "modifiedTime": 1689623921369,
    "lastModifiedBy": "pf1spheres-db000"
  }
}
