{
  "_id": "rnYgorLlPj3py7dH",
  "name": "Aerial Hang",
  "type": "feat",
  "img": "modules/pf1spheres/assets/icons/spheres/athletics.webp",
  "effects": [],
  "folder": null,
  "sort": 0,
  "flags": {
    "pf1spheres": {
      "sphere": "athletics"
    }
  },
  "system": {
    "description": {
      "value": "<p><strong>Prerequisite:</strong> Athletics sphere.</p>\n<p>While in this stance and standing on solid ground, you may levitate 5 feet off of the ground until the beginning of your next turn as a free action. While levitating this way, you gain a +2 to your CMD against creatures at a lower elevation. In addition, whenever you successfully attack a creature with a melee attack action while levitating this way, you can make a free 5-foot step. At the beginning of your next turn, you descend back to the ground, although you can instantly kick off of the ground to return to your previous space if this stance is still active (this movement does not provoke attacks of opportunity); if you are not 5 feet above solid ground, you fall as normal. For every 5 ranks in Acrobatics you possess, the bonus to your CMD increases by 1 and you can levitate an additional 5 feet from the ground (and can be an additional 5 feet from the ground before treated as though you were falling).</p>\n",
      "unidentified": ""
    },
    "tags": ["Leap", "Stance"],
    "actions": [],
    "uses": {
      "per": null,
      "value": 0,
      "maxFormula": "",
      "autoDeductChargesCost": "1"
    },
    "attackNotes": [],
    "effectNotes": [],
    "changes": [],
    "changeFlags": {
      "loseDexToAC": false,
      "noEncumbrance": false,
      "mediumArmorFullSpeed": false,
      "heavyArmorFullSpeed": false
    },
    "contextNotes": [],
    "links": {
      "children": [],
      "charges": []
    },
    "tag": "",
    "useCustomTag": false,
    "armorProf": {
      "value": [],
      "custom": ""
    },
    "weaponProf": {
      "value": [],
      "custom": ""
    },
    "languages": {
      "value": [],
      "custom": ""
    },
    "flags": {
      "boolean": {},
      "dictionary": {}
    },
    "scriptCalls": [],
    "subType": "combatTalent",
    "associations": {
      "classes": []
    },
    "showInQuickbar": false,
    "abilityType": "none",
    "crOffset": "",
    "disabled": false,
    "classSkills": {},
    "nonlethal": false,
    "duration": {
      "value": null,
      "units": ""
    },
    "target": {
      "value": ""
    },
    "attackName": "",
    "actionType": null,
    "attackBonus": "",
    "critConfirmBonus": "",
    "damage": {
      "parts": [],
      "critParts": [],
      "nonCritParts": []
    },
    "attackParts": [],
    "formulaicAttacks": {
      "count": {
        "formula": ""
      },
      "bonus": {
        "formula": ""
      },
      "label": null
    },
    "formula": "",
    "ability": {
      "attack": null,
      "damage": null,
      "damageMult": 1,
      "critRange": 20,
      "critMult": 2
    },
    "save": {
      "dc": 0,
      "type": "",
      "description": ""
    },
    "soundEffect": "",
    "powerAttack": {
      "multiplier": "",
      "damageBonus": 2,
      "critMultiplier": 1
    }
  },
  "ownership": {
    "default": 0
  },
  "_stats": {
    "systemId": "pf1",
    "systemVersion": "9.0",
    "coreVersion": "10.291",
    "createdTime": 1663168888169,
    "modifiedTime": 1689623921485,
    "lastModifiedBy": "pf1spheres-db000"
  }
}
