{
  "_id": "TJUuC5Dg0pUl26L1",
  "name": "Armor Maintenance Kit",
  "type": "feat",
  "img": "modules/pf1spheres/assets/icons/spheres/alchemy.webp",
  "effects": [],
  "folder": null,
  "sort": 0,
  "flags": {
    "pf1spheres": {
      "sphere": "alchemy"
    }
  },
  "system": {
    "description": {
      "value": "<p><strong>Craft DC:</strong> 20</p>\n<p>When you create this formulae you may choose to create it as a polish kit or a lubrication kit.</p>\n<p><strong>Polish Kit:</strong> You create a specialized polish that can be applied to armor to give it an immaculate shine. Armor polish may only be applied to a single piece of armor once every 24 hours. A ray striking a creature wearing polished armor has a 20% chance to be deflected, causing no effect. Once a single ray has been deflected in this way the armor loses its shine and can no longer deflect rays. You may not apply a polish kit to a suit of armor affected by the polish blacksmith maintenance. The Craft DC may be increased in increments of 10 to allow the armor to deflect an additional ray for each increment.</p>\n<p><strong>Lubrication Kit:</strong> You create special lubricant that can be applied to the joints of a suit of armor. This lubricant reduces the armor check penalty of a suit of armor by 1 + 1 per 10 ranks in Craft (alchemy) you possess. Lubricated armor can also be donned and doffed twice as fast. The lubricant lasts for 2 hours before being rendered useless. You may not apply a lubrication kit to suit of armor affected by the armor maintenance blacksmith maintenance. You can increase the Craft DC in increments of 10 to also have the lubricant increase the maximum Dexterity bonus of the armor by 1 and increase the duration by 2 hours.</p>\n",
      "unidentified": ""
    },
    "tags": ["Formulae"],
    "actions": [],
    "uses": {
      "per": null,
      "value": 0,
      "maxFormula": "",
      "autoDeductChargesCost": "1"
    },
    "attackNotes": [],
    "effectNotes": [],
    "changes": [],
    "changeFlags": {
      "loseDexToAC": false,
      "noEncumbrance": false,
      "mediumArmorFullSpeed": false,
      "heavyArmorFullSpeed": false
    },
    "contextNotes": [],
    "links": {
      "children": [],
      "charges": []
    },
    "tag": "",
    "useCustomTag": false,
    "armorProf": {
      "value": [],
      "custom": ""
    },
    "weaponProf": {
      "value": [],
      "custom": ""
    },
    "languages": {
      "value": [],
      "custom": ""
    },
    "flags": {
      "boolean": {},
      "dictionary": {}
    },
    "scriptCalls": [],
    "subType": "combatTalent",
    "associations": {
      "classes": []
    },
    "showInQuickbar": false,
    "abilityType": "none",
    "crOffset": "",
    "disabled": false,
    "classSkills": {},
    "nonlethal": false,
    "duration": {
      "value": null,
      "units": ""
    },
    "target": {
      "value": ""
    },
    "attackName": "",
    "actionType": null,
    "attackBonus": "",
    "critConfirmBonus": "",
    "damage": {
      "parts": [],
      "critParts": [],
      "nonCritParts": []
    },
    "attackParts": [],
    "formulaicAttacks": {
      "count": {
        "formula": ""
      },
      "bonus": {
        "formula": ""
      },
      "label": null
    },
    "formula": "",
    "ability": {
      "attack": null,
      "damage": null,
      "damageMult": 1,
      "critRange": 20,
      "critMult": 2
    },
    "save": {
      "dc": 0,
      "type": "",
      "description": ""
    },
    "soundEffect": "",
    "powerAttack": {
      "multiplier": "",
      "damageBonus": 2,
      "critMultiplier": 1
    }
  },
  "ownership": {
    "default": 0
  },
  "_stats": {
    "systemId": "pf1",
    "systemVersion": "9.0",
    "coreVersion": "10.291",
    "createdTime": 1663168887030,
    "modifiedTime": 1689623921136,
    "lastModifiedBy": "pf1spheres-db000"
  }
}
