{
  "_id": "MQL1nVT6q0Uvt6lZ",
  "name": "Artificers",
  "type": "feat",
  "img": "modules/pf1spheres/assets/icons/spheres/leadership.webp",
  "effects": [],
  "folder": null,
  "sort": 0,
  "flags": {
    "pf1spheres": {
      "sphere": "leadership"
    }
  },
  "system": {
    "description": {
      "value": "<p>(This talent utilizes the Tech sphere from The Inventor&#8217;s Handbook.)</p>\n<p>When any allied creature is with your followers, the allied creature counts as having access to an engineering kit.</p>\n<p>The followers can craft technological items with a DC of not greater than 15 + your ranks in Diplomacy, requiring that you pay the normal crafting cost. The followers makes 10 gp of progress per rank in Diplomacy per day and can craft masterwork items.</p>\n<p>Additionally, if a PC is charging gadgets from the Tech sphere, the followers can assist them, allowing them to add one additional charge per rank in Diplomacy in the 15 minute crafting time. This additional productivity may be divided among present PCs who are crafting at the same time.</p>\n<p>Artificers can identify gadgets and technological items with a Craft (mechanical) check of 15 + your ranks in Diplomacy.</p>\n<p>Any Craft (mechanical) checks made while with the followers automatically gain a +2 circumstance bonus from the artificers&#8217; aid. This bonus increases by +1 for every 8 ranks in Diplomacy that you possess.</p>\n<p>If you possess the Merchants talent, technological items purchased from the followers have their cost reduced by half.</p>\n<p>If using the Downtime rules from Ultimate Campaign, your followers may generate Goods capital in place of earning gold, with 10 gp equaling 1 Good. Use your Diplomacy modifier for making the earnings checks. This stacks with capital gains from other talents.</p>\n",
      "unidentified": ""
    },
    "tags": ["Followers"],
    "actions": [],
    "uses": {
      "per": null,
      "value": 0,
      "maxFormula": "",
      "autoDeductChargesCost": "1"
    },
    "attackNotes": [],
    "effectNotes": [],
    "changes": [],
    "changeFlags": {
      "loseDexToAC": false,
      "noEncumbrance": false,
      "mediumArmorFullSpeed": false,
      "heavyArmorFullSpeed": false
    },
    "contextNotes": [],
    "links": {
      "children": [],
      "charges": []
    },
    "tag": "",
    "useCustomTag": false,
    "armorProf": {
      "value": [],
      "custom": ""
    },
    "weaponProf": {
      "value": [],
      "custom": ""
    },
    "languages": {
      "value": [],
      "custom": ""
    },
    "flags": {
      "boolean": {},
      "dictionary": {}
    },
    "scriptCalls": [],
    "subType": "combatTalent",
    "associations": {
      "classes": []
    },
    "showInQuickbar": false,
    "abilityType": "none",
    "crOffset": "",
    "disabled": false,
    "classSkills": {},
    "nonlethal": false,
    "duration": {
      "value": null,
      "units": ""
    },
    "target": {
      "value": ""
    },
    "attackName": "",
    "actionType": null,
    "attackBonus": "",
    "critConfirmBonus": "",
    "damage": {
      "parts": [],
      "critParts": [],
      "nonCritParts": []
    },
    "attackParts": [],
    "formulaicAttacks": {
      "count": {
        "formula": ""
      },
      "bonus": {
        "formula": ""
      },
      "label": null
    },
    "formula": "",
    "ability": {
      "attack": null,
      "damage": null,
      "damageMult": 1,
      "critRange": 20,
      "critMult": 2
    },
    "save": {
      "dc": 0,
      "type": "",
      "description": ""
    },
    "soundEffect": "",
    "powerAttack": {
      "multiplier": "",
      "damageBonus": 2,
      "critMultiplier": 1
    }
  },
  "ownership": {
    "default": 0
  },
  "_stats": {
    "systemId": "pf1",
    "systemVersion": "9.0",
    "coreVersion": "10.291",
    "createdTime": 1663168886428,
    "modifiedTime": 1689623921011,
    "lastModifiedBy": "pf1spheres-db000"
  }
}
