{
  "_id": "An6WOlHGb7gpY5Vt",
  "name": "Berserking",
  "type": "feat",
  "img": "modules/pf1spheres/assets/icons/spheres/berserker.webp",
  "effects": [],
  "folder": null,
  "sort": 0,
  "flags": {
    "pf1spheres": {
      "sphere": "berserker"
    }
  },
  "system": {
    "description": {
      "value": "<p>As a free action at the start of each turn, you may choose to take a -2 penalty to AC in exchange for 3 temporary hit points. The penalty and the temporary hit points end at the start of your next turn. For every point of base attack bonus you have, the granted temporary hit points increase by 1.</p>\n<p>See Adrenaline talents, below, for alternative benefits to gaining temporary hit points while berserking.</p>\n<p><sup><strong>Wiki Note:</strong> Temporary hit points from different sources stack. This means you can use Berserking and still benefit from other sources of temporary hit points.</sup></p>\n<h2 id=\"toc1\"><span><span style=\"color: #993300\">Brutal Strike</span></span></h2>\n<p>As a special attack action, you may make a melee attack against a target. Creatures damaged by a brutal strike gain the battered condition until the end of your next turn. You may expend martial focus to have the attack deal additional damage equal to twice your base attack bonus.</p>\n<p>Each brutal strike may be modified by a single (exertion) talent.</p>\n",
      "unidentified": ""
    },
    "tags": [],
    "actions": [],
    "uses": {
      "per": null,
      "value": 0,
      "maxFormula": "",
      "autoDeductChargesCost": "1"
    },
    "attackNotes": [],
    "effectNotes": [],
    "changes": [],
    "changeFlags": {
      "loseDexToAC": false,
      "noEncumbrance": false,
      "mediumArmorFullSpeed": false,
      "heavyArmorFullSpeed": false
    },
    "contextNotes": [],
    "links": {
      "children": [],
      "charges": []
    },
    "tag": "",
    "useCustomTag": false,
    "armorProf": {
      "value": [],
      "custom": ""
    },
    "weaponProf": {
      "value": [],
      "custom": ""
    },
    "languages": {
      "value": [],
      "custom": ""
    },
    "flags": {
      "boolean": {},
      "dictionary": {}
    },
    "scriptCalls": [],
    "subType": "combatTalent",
    "associations": {
      "classes": []
    },
    "showInQuickbar": false,
    "abilityType": "none",
    "crOffset": "",
    "disabled": false,
    "classSkills": {},
    "nonlethal": false,
    "duration": {
      "value": null,
      "units": ""
    },
    "target": {
      "value": ""
    },
    "attackName": "",
    "actionType": null,
    "attackBonus": "",
    "critConfirmBonus": "",
    "damage": {
      "parts": [],
      "critParts": [],
      "nonCritParts": []
    },
    "attackParts": [],
    "formulaicAttacks": {
      "count": {
        "formula": ""
      },
      "bonus": {
        "formula": ""
      },
      "label": null
    },
    "formula": "",
    "ability": {
      "attack": null,
      "damage": null,
      "damageMult": 1,
      "critRange": 20,
      "critMult": 2
    },
    "save": {
      "dc": 0,
      "type": "",
      "description": ""
    },
    "soundEffect": "",
    "powerAttack": {
      "multiplier": "",
      "damageBonus": 2,
      "critMultiplier": 1
    }
  },
  "ownership": {
    "default": 0
  },
  "_stats": {
    "systemId": "pf1",
    "systemVersion": "9.0",
    "coreVersion": "10.291",
    "createdTime": 1663168885568,
    "modifiedTime": 1689623920802,
    "lastModifiedBy": "pf1spheres-db000"
  }
}
