{
  "_id": "RCkezBwXj9PFCLMx",
  "name": "Blooded Strike",
  "type": "feat",
  "img": "modules/pf1spheres/assets/icons/spheres/duelist.webp",
  "effects": [],
  "folder": null,
  "sort": 0,
  "flags": {
    "pf1spheres": {
      "sphere": "duelist"
    }
  },
  "system": {
    "description": {
      "value": "<p>Whenever you use the attack action or an attack of opportunity to attack or disarm a creature, you deal an additional 1 point of bleed damage to the target on a successful attempt, +1 for every 3 points of base attack bonus you possess; this stacks with any other bleed damage you are capable of dealing. Practitioners of the Duelist sphere never provoke attacks of opportunity when attempting combat maneuvers against a target currently taking bleed damage.</p>\n<p><strong>Bleed:</strong> Some talents have the (bleed) descriptor; these talents are triggered when you deal bleed damage to a creature using your blooded strike. You may only apply the effects of a single (bleed) talent to a given attack. A target that is immune to bleed damage is also immune to all other effects of talents with this descriptor. For the purpose of these talents, only bleed damage you deal with your blooded strike is considered when determining their effects.</p>\n<p><strong>Disarm:</strong> Some talents have the (disarm) descriptor; these talents trigger whenever you succeed at a disarm attempt against a creature. You may only apply the effects of a single (disarm) talent to a given disarm attempt. (Disarm) talents cannot be applied to maneuvers performed as a free action.</p>\n",
      "unidentified": ""
    },
    "tags": [],
    "actions": [],
    "uses": {
      "per": null,
      "value": 0,
      "maxFormula": "",
      "autoDeductChargesCost": "1"
    },
    "attackNotes": [],
    "effectNotes": [],
    "changes": [],
    "changeFlags": {
      "loseDexToAC": false,
      "noEncumbrance": false,
      "mediumArmorFullSpeed": false,
      "heavyArmorFullSpeed": false
    },
    "contextNotes": [],
    "links": {
      "children": [],
      "charges": []
    },
    "tag": "",
    "useCustomTag": false,
    "armorProf": {
      "value": [],
      "custom": ""
    },
    "weaponProf": {
      "value": [],
      "custom": ""
    },
    "languages": {
      "value": [],
      "custom": ""
    },
    "flags": {
      "boolean": {},
      "dictionary": {}
    },
    "scriptCalls": [],
    "subType": "combatTalent",
    "associations": {
      "classes": []
    },
    "showInQuickbar": false,
    "abilityType": "none",
    "crOffset": "",
    "disabled": false,
    "classSkills": {},
    "nonlethal": false,
    "duration": {
      "value": null,
      "units": ""
    },
    "target": {
      "value": ""
    },
    "attackName": "",
    "actionType": null,
    "attackBonus": "",
    "critConfirmBonus": "",
    "damage": {
      "parts": [],
      "critParts": [],
      "nonCritParts": []
    },
    "attackParts": [],
    "formulaicAttacks": {
      "count": {
        "formula": ""
      },
      "bonus": {
        "formula": ""
      },
      "label": null
    },
    "formula": "",
    "ability": {
      "attack": null,
      "damage": null,
      "damageMult": 1,
      "critRange": 20,
      "critMult": 2
    },
    "save": {
      "dc": 0,
      "type": "",
      "description": ""
    },
    "soundEffect": "",
    "powerAttack": {
      "multiplier": "",
      "damageBonus": 2,
      "critMultiplier": 1
    }
  },
  "ownership": {
    "default": 0
  },
  "_stats": {
    "systemId": "pf1",
    "systemVersion": "9.0",
    "coreVersion": "10.291",
    "createdTime": 1663168886830,
    "modifiedTime": 1689623921116,
    "lastModifiedBy": "pf1spheres-db000"
  }
}
