{
  "_id": "cyPxzpLGhLB6v7Zq",
  "name": "Bloody Hell",
  "type": "feat",
  "img": "modules/pf1spheres/assets/icons/spheres/duelist.webp",
  "effects": [],
  "folder": null,
  "sort": 0,
  "flags": {
    "pf1spheres": {
      "sphere": "duelist"
    }
  },
  "system": {
    "description": {
      "value": "<p><strong>Prerequisites:</strong> Duelist sphere, Great Focus, base attack bonus +15.</p>\n<p>Whenever you deal bleed damage to a creature, you may expend two martial focuses to attempt to send the target to hell, or heck, or somewhere. If you do, that creature must succeed at a Will save or be transported to another plane that is strongly-aligned with evil (e.g. Hell, Abaddon). If the target succeeds at their saving throw, the cosmic energy you attempted to exploit backlashes and you suffer 6d6 fire damage and are fatigued. This is a supernatural effect; you can only use this talent against the same creature once every 24 hours.</p>\n",
      "unidentified": ""
    },
    "tags": ["Bleed"],
    "actions": [],
    "uses": {
      "per": null,
      "value": 0,
      "maxFormula": "",
      "autoDeductChargesCost": "1"
    },
    "attackNotes": [],
    "effectNotes": [],
    "changes": [],
    "changeFlags": {
      "loseDexToAC": false,
      "noEncumbrance": false,
      "mediumArmorFullSpeed": false,
      "heavyArmorFullSpeed": false
    },
    "contextNotes": [],
    "links": {
      "children": [],
      "charges": []
    },
    "tag": "",
    "useCustomTag": false,
    "armorProf": {
      "value": [],
      "custom": ""
    },
    "weaponProf": {
      "value": [],
      "custom": ""
    },
    "languages": {
      "value": [],
      "custom": ""
    },
    "flags": {
      "boolean": {},
      "dictionary": {}
    },
    "scriptCalls": [],
    "subType": "combatTalent",
    "associations": {
      "classes": []
    },
    "showInQuickbar": false,
    "abilityType": "none",
    "crOffset": "",
    "disabled": false,
    "classSkills": {},
    "nonlethal": false,
    "duration": {
      "value": null,
      "units": ""
    },
    "target": {
      "value": ""
    },
    "attackName": "",
    "actionType": null,
    "attackBonus": "",
    "critConfirmBonus": "",
    "damage": {
      "parts": [],
      "critParts": [],
      "nonCritParts": []
    },
    "attackParts": [],
    "formulaicAttacks": {
      "count": {
        "formula": ""
      },
      "bonus": {
        "formula": ""
      },
      "label": null
    },
    "formula": "",
    "ability": {
      "attack": null,
      "damage": null,
      "damageMult": 1,
      "critRange": 20,
      "critMult": 2
    },
    "save": {
      "dc": 0,
      "type": "",
      "description": ""
    },
    "soundEffect": "",
    "powerAttack": {
      "multiplier": "",
      "damageBonus": 2,
      "critMultiplier": 1
    }
  },
  "ownership": {
    "default": 0
  },
  "_stats": {
    "systemId": "pf1",
    "systemVersion": "9.0",
    "coreVersion": "10.291",
    "createdTime": 1663168887713,
    "modifiedTime": 1689623921235,
    "lastModifiedBy": "pf1spheres-db000"
  }
}
