{
  "_id": "a9jFNYHEc2pqlnla",
  "name": "Bolster Beast",
  "type": "feat",
  "img": "modules/pf1spheres/assets/icons/spheres/beastmastery.webp",
  "effects": [],
  "folder": null,
  "sort": 0,
  "flags": {
    "pf1spheres": {
      "sphere": "beastmastery"
    }
  },
  "system": {
    "description": {
      "value": "<p>You may increase the power of a tame creature through intense training. You may grant a tame creature 1 bonus Hit Die for every hour you spend training it with a Handle Animal check with a DC of 10 + the creature&#8217;s new Hit Dice total. These additional Hit Dice count against your Hit Dice cap for the trainer ability as normal and cannot cause the creature&#8217;s Hit Dice to exceed your ranks in Handle Animal. These additional Hit Dice are multiplied as normal for companions that have their Hit Dice doubled for the purposes of determining how many creatures you may have tame. If a creature is released from the tame condition, these bonus Hit Dice are lost immediately.</p>\n<p>Creatures do not gain size increases for these additional Hit Dice. Additional feats and skill points from these Hit Dice are assigned by the GM unless you possess the Purposeful Training talent, in which case they may be assigned within the limits of the retraining granted by that talent. This ability can never be applied to an animal companion or familiar.</p>\n",
      "unidentified": ""
    },
    "tags": ["Handle Animal"],
    "actions": [],
    "uses": {
      "per": null,
      "value": 0,
      "maxFormula": "",
      "autoDeductChargesCost": "1"
    },
    "attackNotes": [],
    "effectNotes": [],
    "changes": [],
    "changeFlags": {
      "loseDexToAC": false,
      "noEncumbrance": false,
      "mediumArmorFullSpeed": false,
      "heavyArmorFullSpeed": false
    },
    "contextNotes": [],
    "links": {
      "children": [],
      "charges": []
    },
    "tag": "",
    "useCustomTag": false,
    "armorProf": {
      "value": [],
      "custom": ""
    },
    "weaponProf": {
      "value": [],
      "custom": ""
    },
    "languages": {
      "value": [],
      "custom": ""
    },
    "flags": {
      "boolean": {},
      "dictionary": {}
    },
    "scriptCalls": [],
    "subType": "combatTalent",
    "associations": {
      "classes": []
    },
    "showInQuickbar": false,
    "abilityType": "none",
    "crOffset": "",
    "disabled": false,
    "classSkills": {},
    "nonlethal": false,
    "duration": {
      "value": null,
      "units": ""
    },
    "target": {
      "value": ""
    },
    "attackName": "",
    "actionType": null,
    "attackBonus": "",
    "critConfirmBonus": "",
    "damage": {
      "parts": [],
      "critParts": [],
      "nonCritParts": []
    },
    "attackParts": [],
    "formulaicAttacks": {
      "count": {
        "formula": ""
      },
      "bonus": {
        "formula": ""
      },
      "label": null
    },
    "formula": "",
    "ability": {
      "attack": null,
      "damage": null,
      "damageMult": 1,
      "critRange": 20,
      "critMult": 2
    },
    "save": {
      "dc": 0,
      "type": "",
      "description": ""
    },
    "soundEffect": "",
    "powerAttack": {
      "multiplier": "",
      "damageBonus": 2,
      "critMultiplier": 1
    }
  },
  "ownership": {
    "default": 0
  },
  "_stats": {
    "systemId": "pf1",
    "systemVersion": "9.0",
    "coreVersion": "10.291",
    "createdTime": 1663168887672,
    "modifiedTime": 1689623921207,
    "lastModifiedBy": "pf1spheres-db000"
  }
}
