{
  "_id": "veB7CwsNpsyxhWXU",
  "name": "Brainwash",
  "type": "feat",
  "img": "modules/pf1spheres/assets/icons/spheres/leadership.webp",
  "effects": [],
  "folder": null,
  "sort": 0,
  "flags": {
    "pf1spheres": {
      "sphere": "leadership"
    }
  },
  "system": {
    "description": {
      "value": "<p><strong>Prerequisites:</strong> Leadership sphere, (cohort) package.</p>\n<p>You may choose to have the exposure to your latent mind affecting abilities permanently bent your cohorts to your will. When you recruit a cohort, you may choose to affect it with this talent. Affected cohorts will obey harmful and even suicidal orders. Additionally, due to your mental influence, the DC of your recruit ability no longer suffers an increase for cohorts having died when applying this talent. This is a supernatural, mind-affecting ability.</p>\n<p>Cohorts (such as those gained from the Advanced Cohorts legendary talent) that are immune to such effects may not be targeted with this talent.</p>\n",
      "unidentified": ""
    },
    "tags": ["Cohort"],
    "actions": [],
    "uses": {
      "per": null,
      "value": 0,
      "maxFormula": "",
      "autoDeductChargesCost": "1"
    },
    "attackNotes": [],
    "effectNotes": [],
    "changes": [],
    "changeFlags": {
      "loseDexToAC": false,
      "noEncumbrance": false,
      "mediumArmorFullSpeed": false,
      "heavyArmorFullSpeed": false
    },
    "contextNotes": [],
    "links": {
      "children": [],
      "charges": []
    },
    "tag": "",
    "useCustomTag": false,
    "armorProf": {
      "value": [],
      "custom": ""
    },
    "weaponProf": {
      "value": [],
      "custom": ""
    },
    "languages": {
      "value": [],
      "custom": ""
    },
    "flags": {
      "boolean": {},
      "dictionary": {}
    },
    "scriptCalls": [],
    "subType": "combatTalent",
    "associations": {
      "classes": []
    },
    "showInQuickbar": false,
    "abilityType": "none",
    "crOffset": "",
    "disabled": false,
    "classSkills": {},
    "nonlethal": false,
    "duration": {
      "value": null,
      "units": ""
    },
    "target": {
      "value": ""
    },
    "attackName": "",
    "actionType": null,
    "attackBonus": "",
    "critConfirmBonus": "",
    "damage": {
      "parts": [],
      "critParts": [],
      "nonCritParts": []
    },
    "attackParts": [],
    "formulaicAttacks": {
      "count": {
        "formula": ""
      },
      "bonus": {
        "formula": ""
      },
      "label": null
    },
    "formula": "",
    "ability": {
      "attack": null,
      "damage": null,
      "damageMult": 1,
      "critRange": 20,
      "critMult": 2
    },
    "save": {
      "dc": 0,
      "type": "",
      "description": ""
    },
    "soundEffect": "",
    "powerAttack": {
      "multiplier": "",
      "damageBonus": 2,
      "critMultiplier": 1
    }
  },
  "ownership": {
    "default": 0
  },
  "_stats": {
    "systemId": "pf1",
    "systemVersion": "9.0",
    "coreVersion": "10.291",
    "createdTime": 1663168888209,
    "modifiedTime": 1689623921511,
    "lastModifiedBy": "pf1spheres-db000"
  }
}
