{
  "_id": "DJv6PI0dEkrF08Og",
  "name": "Catch Blade",
  "type": "feat",
  "img": "modules/pf1spheres/assets/icons/spheres/shield.webp",
  "effects": [],
  "folder": null,
  "sort": 0,
  "flags": {
    "pf1spheres": {
      "sphere": "shield"
    }
  },
  "system": {
    "description": {
      "value": "<p>Whenever an attack misses a creature benefiting from your active defense, if the attack was made with a piercing or slashing melee weapon, you can allow the weapon to strike your shield. If you do, the attack hits your shield, dealing damage to the shield as normal, and the weapon becomes bound. As long as the creature&#8217;s weapon is bound, they cannot move from the square they currently occupy. A creature whose weapon is bound may release the weapon as a free action or attempt to break the bind as a standard action by making a successful combat maneuver check against your disarm CMD. If the bound weapon is a natural attack or unarmed strike, the creature must succeed at a successful combat maneuver check to break the bind. You cannot attack with, receive any shield bonus from, nor use active defense with the shield used to bind a creature as long as the bind is in effect. If any effect, including this attack, renders the shield broken or destroyed, this effect ends immediately.</p>\n",
      "unidentified": ""
    },
    "tags": ["Deflect"],
    "actions": [],
    "uses": {
      "per": null,
      "value": 0,
      "maxFormula": "",
      "autoDeductChargesCost": "1"
    },
    "attackNotes": [],
    "effectNotes": [],
    "changes": [],
    "changeFlags": {
      "loseDexToAC": false,
      "noEncumbrance": false,
      "mediumArmorFullSpeed": false,
      "heavyArmorFullSpeed": false
    },
    "contextNotes": [],
    "links": {
      "children": [],
      "charges": []
    },
    "tag": "",
    "useCustomTag": false,
    "armorProf": {
      "value": [],
      "custom": ""
    },
    "weaponProf": {
      "value": [],
      "custom": ""
    },
    "languages": {
      "value": [],
      "custom": ""
    },
    "flags": {
      "boolean": {},
      "dictionary": {}
    },
    "scriptCalls": [],
    "subType": "combatTalent",
    "associations": {
      "classes": []
    },
    "showInQuickbar": false,
    "abilityType": "none",
    "crOffset": "",
    "disabled": false,
    "classSkills": {},
    "nonlethal": false,
    "duration": {
      "value": null,
      "units": ""
    },
    "target": {
      "value": ""
    },
    "attackName": "",
    "actionType": null,
    "attackBonus": "",
    "critConfirmBonus": "",
    "damage": {
      "parts": [],
      "critParts": [],
      "nonCritParts": []
    },
    "attackParts": [],
    "formulaicAttacks": {
      "count": {
        "formula": ""
      },
      "bonus": {
        "formula": ""
      },
      "label": null
    },
    "formula": "",
    "ability": {
      "attack": null,
      "damage": null,
      "damageMult": 1,
      "critRange": 20,
      "critMult": 2
    },
    "save": {
      "dc": 0,
      "type": "",
      "description": ""
    },
    "soundEffect": "",
    "powerAttack": {
      "multiplier": "",
      "damageBonus": 2,
      "critMultiplier": 1
    }
  },
  "ownership": {
    "default": 0
  },
  "_stats": {
    "systemId": "pf1",
    "systemVersion": "9.0",
    "coreVersion": "10.291",
    "createdTime": 1663168885776,
    "modifiedTime": 1689623920917,
    "lastModifiedBy": "pf1spheres-db000"
  }
}
