{
  "_id": "9C4R5uQRiZ6LLg5h",
  "name": "Clouding Cut",
  "type": "feat",
  "img": "modules/pf1spheres/assets/icons/spheres/duelist.webp",
  "effects": [],
  "folder": null,
  "sort": 0,
  "flags": {
    "pf1spheres": {
      "sphere": "duelist"
    }
  },
  "system": {
    "description": {
      "value": "<p>Whenever you deal bleed damage to a creature, you may expend your martial focus to open a gash near the target&#8217;s sensory organ. The creature immediately suffers from a 10% miss chance on all of their attacks. At the start of their turn, when it takes damage due to their bleeds, it increases the miss chance bestowed by this talent by 10%. When the miss chance would reach 40%, the creature is instead blinded and the miss chance ceases to increase. Stopping the bleed damage ends this effect.</p>\n<p>You may use Clouding Cut against a creature already suffering from its effects without spending martial focus, and doing so causes their miss chance to increase by 10%, unless they are already blinded.</p>\n",
      "unidentified": ""
    },
    "tags": ["Bleed"],
    "actions": [],
    "uses": {
      "per": null,
      "value": 0,
      "maxFormula": "",
      "autoDeductChargesCost": "1"
    },
    "attackNotes": [],
    "effectNotes": [],
    "changes": [],
    "changeFlags": {
      "loseDexToAC": false,
      "noEncumbrance": false,
      "mediumArmorFullSpeed": false,
      "heavyArmorFullSpeed": false
    },
    "contextNotes": [],
    "links": {
      "children": [],
      "charges": []
    },
    "tag": "",
    "useCustomTag": false,
    "armorProf": {
      "value": [],
      "custom": ""
    },
    "weaponProf": {
      "value": [],
      "custom": ""
    },
    "languages": {
      "value": [],
      "custom": ""
    },
    "flags": {
      "boolean": {},
      "dictionary": {}
    },
    "scriptCalls": [],
    "subType": "combatTalent",
    "associations": {
      "classes": []
    },
    "showInQuickbar": false,
    "abilityType": "none",
    "crOffset": "",
    "disabled": false,
    "classSkills": {},
    "nonlethal": false,
    "duration": {
      "value": null,
      "units": ""
    },
    "target": {
      "value": ""
    },
    "attackName": "",
    "actionType": null,
    "attackBonus": "",
    "critConfirmBonus": "",
    "damage": {
      "parts": [],
      "critParts": [],
      "nonCritParts": []
    },
    "attackParts": [],
    "formulaicAttacks": {
      "count": {
        "formula": ""
      },
      "bonus": {
        "formula": ""
      },
      "label": null
    },
    "formula": "",
    "ability": {
      "attack": null,
      "damage": null,
      "damageMult": 1,
      "critRange": 20,
      "critMult": 2
    },
    "save": {
      "dc": 0,
      "type": "",
      "description": ""
    },
    "soundEffect": "",
    "powerAttack": {
      "multiplier": "",
      "damageBonus": 2,
      "critMultiplier": 1
    }
  },
  "ownership": {
    "default": 0
  },
  "_stats": {
    "systemId": "pf1",
    "systemVersion": "9.0",
    "coreVersion": "10.291",
    "createdTime": 1663168885541,
    "modifiedTime": 1689623920788,
    "lastModifiedBy": "pf1spheres-db000"
  }
}
