{
  "_id": "Ndsz2Yk5rY2J3h6j",
  "name": "Concentrated Breakdown",
  "type": "feat",
  "img": "modules/pf1spheres/assets/icons/spheres/dual_wielding.webp",
  "effects": [],
  "folder": null,
  "sort": 0,
  "flags": {
    "pf1spheres": {
      "sphere": "dualWielding"
    }
  },
  "system": {
    "description": {
      "value": "<p>Whenever you deal damage to a creature with two or more weapons in a single round, you can select either that creature&#8217;s natural armor bonus or damage reduction; reduce it by 2 (to a minimum of 0) for 1 minute or until that creature recovers hit points from any source. If you would be able to apply the effects of this talent to the same creature 2 or more times before its duration is over, you can either choose to reduce whichever target (natural armor or damage reduction) that you did not select before or increase the reduction by 1 as well as reset the duration. At +10 base attack bonus, whenever you apply the effects of this talent to a creature, if you select the same target (natural armor or damage reduction), the penalty is increased by 2 instead of 1.</p>\n",
      "unidentified": ""
    },
    "tags": [],
    "actions": [],
    "uses": {
      "per": null,
      "value": 0,
      "maxFormula": "",
      "autoDeductChargesCost": "1"
    },
    "attackNotes": [],
    "effectNotes": [],
    "changes": [],
    "changeFlags": {
      "loseDexToAC": false,
      "noEncumbrance": false,
      "mediumArmorFullSpeed": false,
      "heavyArmorFullSpeed": false
    },
    "contextNotes": [],
    "links": {
      "children": [],
      "charges": []
    },
    "tag": "",
    "useCustomTag": false,
    "armorProf": {
      "value": [],
      "custom": ""
    },
    "weaponProf": {
      "value": [],
      "custom": ""
    },
    "languages": {
      "value": [],
      "custom": ""
    },
    "flags": {
      "boolean": {},
      "dictionary": {}
    },
    "scriptCalls": [],
    "subType": "combatTalent",
    "associations": {
      "classes": []
    },
    "showInQuickbar": false,
    "abilityType": "none",
    "crOffset": "",
    "disabled": false,
    "classSkills": {},
    "nonlethal": false,
    "duration": {
      "value": null,
      "units": ""
    },
    "target": {
      "value": ""
    },
    "attackName": "",
    "actionType": null,
    "attackBonus": "",
    "critConfirmBonus": "",
    "damage": {
      "parts": [],
      "critParts": [],
      "nonCritParts": []
    },
    "attackParts": [],
    "formulaicAttacks": {
      "count": {
        "formula": ""
      },
      "bonus": {
        "formula": ""
      },
      "label": null
    },
    "formula": "",
    "ability": {
      "attack": null,
      "damage": null,
      "damageMult": 1,
      "critRange": 20,
      "critMult": 2
    },
    "save": {
      "dc": 0,
      "type": "",
      "description": ""
    },
    "soundEffect": "",
    "powerAttack": {
      "multiplier": "",
      "damageBonus": 2,
      "critMultiplier": 1
    }
  },
  "ownership": {
    "default": 0
  },
  "_stats": {
    "systemId": "pf1",
    "systemVersion": "9.0",
    "coreVersion": "10.291",
    "createdTime": 1663168886665,
    "modifiedTime": 1689623921024,
    "lastModifiedBy": "pf1spheres-db000"
  }
}
