{
  "_id": "tstSw8CNcCMJw3RG",
  "name": "Crew",
  "type": "feat",
  "img": "modules/pf1spheres/assets/icons/spheres/leadership.webp",
  "effects": [],
  "folder": null,
  "sort": 0,
  "flags": {
    "pf1spheres": {
      "sphere": "leadership"
    }
  },
  "system": {
    "description": {
      "value": "<p>Your followers are experienced at handling various tasks onboard large craft. Your caravan counts as one small crew with a level equal to your ranks in Diplomacy - 2 (minimum 1, but if you have less than 2 ranks in Diplomacy, reduce the crew&#8217;s hit points by 20 and damage by 2d6 and if you have exactly 2 ranks in Diplomacy, reduce hit points by 10 and damage by 1d6). For every five ranks of Diplomacy you possess, the caravan may count as an additional small crew. A crew formed from your followers gains a +10 morale bonus on loyalty checks and their loyalty is not reduced by not paying them. Each crew gains one bonus perk, plus one additional perk for every five ranks of Diplomacy you possess. These perks may be changed with 1d4 days of training and recruiting.</p>\n<p>(See Players Guide to Skybourne and Ships of Skybourne for crew rules.)</p>\n",
      "unidentified": ""
    },
    "tags": ["Followers"],
    "actions": [],
    "uses": {
      "per": null,
      "value": 0,
      "maxFormula": "",
      "autoDeductChargesCost": "1"
    },
    "attackNotes": [],
    "effectNotes": [],
    "changes": [],
    "changeFlags": {
      "loseDexToAC": false,
      "noEncumbrance": false,
      "mediumArmorFullSpeed": false,
      "heavyArmorFullSpeed": false
    },
    "contextNotes": [],
    "links": {
      "children": [],
      "charges": []
    },
    "tag": "",
    "useCustomTag": false,
    "armorProf": {
      "value": [],
      "custom": ""
    },
    "weaponProf": {
      "value": [],
      "custom": ""
    },
    "languages": {
      "value": [],
      "custom": ""
    },
    "flags": {
      "boolean": {},
      "dictionary": {}
    },
    "scriptCalls": [],
    "subType": "combatTalent",
    "associations": {
      "classes": []
    },
    "showInQuickbar": false,
    "abilityType": "none",
    "crOffset": "",
    "disabled": false,
    "classSkills": {},
    "nonlethal": false,
    "duration": {
      "value": null,
      "units": ""
    },
    "target": {
      "value": ""
    },
    "attackName": "",
    "actionType": null,
    "attackBonus": "",
    "critConfirmBonus": "",
    "damage": {
      "parts": [],
      "critParts": [],
      "nonCritParts": []
    },
    "attackParts": [],
    "formulaicAttacks": {
      "count": {
        "formula": ""
      },
      "bonus": {
        "formula": ""
      },
      "label": null
    },
    "formula": "",
    "ability": {
      "attack": null,
      "damage": null,
      "damageMult": 1,
      "critRange": 20,
      "critMult": 2
    },
    "save": {
      "dc": 0,
      "type": "",
      "description": ""
    },
    "soundEffect": "",
    "powerAttack": {
      "multiplier": "",
      "damageBonus": 2,
      "critMultiplier": 1
    }
  },
  "ownership": {
    "default": 0
  },
  "_stats": {
    "systemId": "pf1",
    "systemVersion": "9.0",
    "coreVersion": "10.291",
    "createdTime": 1663168888188,
    "modifiedTime": 1689623921495,
    "lastModifiedBy": "pf1spheres-db000"
  }
}
