{
  "_id": "D3O9ZOT8QOixUYE3",
  "name": "Curtain Call",
  "type": "feat",
  "img": "modules/pf1spheres/assets/icons/spheres/duelist.webp",
  "effects": [],
  "folder": null,
  "sort": 0,
  "flags": {
    "pf1spheres": {
      "sphere": "duelist"
    }
  },
  "system": {
    "description": {
      "value": "<p><strong>Prerequisites:</strong> Duelist sphere (Iai Slash (bleed)), base attack bonus +5.</p>\n<p>You may spend a move action and expend your martial focus to elaborately sheathe one held weapon without provoking attacks of opportunity and glare at nearby enemies. Each enemy within 30 feet of you currently suffering from bleed damage dealt by your blooded strike suddenly spasms and hemorrhages blood, suffering 1d6 bludgeoning, slashing and piercing damage, plus an additional 1d6 for every 3 points of base attack bonuses you possess. If you possess Perforating Wounds, the creature suffers an additional 2d6 damage for every stack of that talent applied to them. After suffering this damage, any bleed damage dealt due to your Duelist sphere abilities immediately end.</p>\n<p>If you possess Defiant Focus, you do not need to expend your martial focus to use this ability.</p>\n",
      "unidentified": ""
    },
    "tags": [],
    "actions": [],
    "uses": {
      "per": null,
      "value": 0,
      "maxFormula": "",
      "autoDeductChargesCost": "1"
    },
    "attackNotes": [],
    "effectNotes": [],
    "changes": [],
    "changeFlags": {
      "loseDexToAC": false,
      "noEncumbrance": false,
      "mediumArmorFullSpeed": false,
      "heavyArmorFullSpeed": false
    },
    "contextNotes": [],
    "links": {
      "children": [],
      "charges": []
    },
    "tag": "",
    "useCustomTag": false,
    "armorProf": {
      "value": [],
      "custom": ""
    },
    "weaponProf": {
      "value": [],
      "custom": ""
    },
    "languages": {
      "value": [],
      "custom": ""
    },
    "flags": {
      "boolean": {},
      "dictionary": {}
    },
    "scriptCalls": [],
    "subType": "combatTalent",
    "associations": {
      "classes": []
    },
    "showInQuickbar": false,
    "abilityType": "none",
    "crOffset": "",
    "disabled": false,
    "classSkills": {},
    "nonlethal": false,
    "duration": {
      "value": null,
      "units": ""
    },
    "target": {
      "value": ""
    },
    "attackName": "",
    "actionType": null,
    "attackBonus": "",
    "critConfirmBonus": "",
    "damage": {
      "parts": [],
      "critParts": [],
      "nonCritParts": []
    },
    "attackParts": [],
    "formulaicAttacks": {
      "count": {
        "formula": ""
      },
      "bonus": {
        "formula": ""
      },
      "label": null
    },
    "formula": "",
    "ability": {
      "attack": null,
      "damage": null,
      "damageMult": 1,
      "critRange": 20,
      "critMult": 2
    },
    "save": {
      "dc": 0,
      "type": "",
      "description": ""
    },
    "soundEffect": "",
    "powerAttack": {
      "multiplier": "",
      "damageBonus": 2,
      "critMultiplier": 1
    }
  },
  "ownership": {
    "default": 0
  },
  "_stats": {
    "systemId": "pf1",
    "systemVersion": "9.0",
    "coreVersion": "10.291",
    "createdTime": 1663168885650,
    "modifiedTime": 1689623920820,
    "lastModifiedBy": "pf1spheres-db000"
  }
}
