{
  "_id": "WrInSpYo6DbgNg8D",
  "name": "Death Valley Driver",
  "type": "feat",
  "img": "modules/pf1spheres/assets/icons/spheres/wrestling.webp",
  "effects": [],
  "folder": null,
  "sort": 0,
  "flags": {
    "pf1spheres": {
      "sphere": "wrestling"
    }
  },
  "system": {
    "description": {
      "value": "<p>You ceremoniously swing the creature&#8217;s body up over your back before dropping them onto their back.</p>\n<p><strong>Prerequisites:</strong> Wrestling sphere, base attack bonus +10.</p>\n<p>The creature suffers 1 negative level and must succeed at a Reflex save or fall prone. Negative levels caused by this talent last for a number of hours equal to your base attack bonus. This is a supernatural effect; using this slam immediately ends your grapple on the creature. If you expend martial focus when using this talent, a creature who fails their Reflex saving throw suffers 1 additional negative level for every 10 points of base attack bonus you possess.</p>\n<p>In addition, the first time each round a creature suffering from negative levels attacks you, that creature provokes an attack of opportunity from you. You can use this attack of opportunity to grapple the creature even if you could not normally grapple on an attack of opportunity.</p>\n",
      "unidentified": ""
    },
    "tags": ["Slam"],
    "actions": [],
    "uses": {
      "per": null,
      "value": 0,
      "maxFormula": "",
      "autoDeductChargesCost": "1"
    },
    "attackNotes": [],
    "effectNotes": [],
    "changes": [],
    "changeFlags": {
      "loseDexToAC": false,
      "noEncumbrance": false,
      "mediumArmorFullSpeed": false,
      "heavyArmorFullSpeed": false
    },
    "contextNotes": [],
    "links": {
      "children": [],
      "charges": []
    },
    "tag": "",
    "useCustomTag": false,
    "armorProf": {
      "value": [],
      "custom": ""
    },
    "weaponProf": {
      "value": [],
      "custom": ""
    },
    "languages": {
      "value": [],
      "custom": ""
    },
    "flags": {
      "boolean": {},
      "dictionary": {}
    },
    "scriptCalls": [],
    "subType": "combatTalent",
    "associations": {
      "classes": []
    },
    "showInQuickbar": false,
    "abilityType": "none",
    "crOffset": "",
    "disabled": false,
    "classSkills": {},
    "nonlethal": false,
    "duration": {
      "value": null,
      "units": ""
    },
    "target": {
      "value": ""
    },
    "attackName": "",
    "actionType": null,
    "attackBonus": "",
    "critConfirmBonus": "",
    "damage": {
      "parts": [],
      "critParts": [],
      "nonCritParts": []
    },
    "attackParts": [],
    "formulaicAttacks": {
      "count": {
        "formula": ""
      },
      "bonus": {
        "formula": ""
      },
      "label": null
    },
    "formula": "",
    "ability": {
      "attack": null,
      "damage": null,
      "damageMult": 1,
      "critRange": 20,
      "critMult": 2
    },
    "save": {
      "dc": 0,
      "type": "",
      "description": ""
    },
    "soundEffect": "",
    "powerAttack": {
      "multiplier": "",
      "damageBonus": 2,
      "critMultiplier": 1
    }
  },
  "ownership": {
    "default": 0
  },
  "_stats": {
    "systemId": "pf1",
    "systemVersion": "9.0",
    "coreVersion": "10.291",
    "createdTime": 1663168887439,
    "modifiedTime": 1689623921175,
    "lastModifiedBy": "pf1spheres-db000"
  }
}
