{
  "_id": "k9OM7XCLKvsRwnJK",
  "name": "Disarming Jab",
  "type": "feat",
  "img": "modules/pf1spheres/assets/icons/spheres/boxing.webp",
  "effects": [],
  "folder": null,
  "sort": 0,
  "flags": {
    "pf1spheres": {
      "sphere": "boxing"
    }
  },
  "system": {
    "description": {
      "value": "<p>Whenever you successfully attack with your counter punch, you can make a disarm attempt against the target as a free action which does not provoke attacks of opportunity. If you successfully disarm the target, you may automatically pick up the item dropped if you have an empty hand, even if you used a weapon to disarm the target.</p>\n<p>In addition, you gain the following new triggers to choose from when you ready a counter punch:</p>\n<ul>\n<li>A hostile creature uses a consumable item (e.g. a potion, Alchemy sphere formulae, etc.)</li>\n<li>A hostile creature activates a magic item (e.g. a wand, spell engine, etc.)</li>\n</ul>\n<p><strong>Normal:</strong> When you successfully disarm your opponent without using a weapon, you may automatically pick up the item dropped.</p>\n",
      "unidentified": ""
    },
    "tags": ["Counter"],
    "actions": [],
    "uses": {
      "per": null,
      "value": 0,
      "maxFormula": "",
      "autoDeductChargesCost": "1"
    },
    "attackNotes": [],
    "effectNotes": [],
    "changes": [],
    "changeFlags": {
      "loseDexToAC": false,
      "noEncumbrance": false,
      "mediumArmorFullSpeed": false,
      "heavyArmorFullSpeed": false
    },
    "contextNotes": [],
    "links": {
      "children": [],
      "charges": []
    },
    "tag": "",
    "useCustomTag": false,
    "armorProf": {
      "value": [],
      "custom": ""
    },
    "weaponProf": {
      "value": [],
      "custom": ""
    },
    "languages": {
      "value": [],
      "custom": ""
    },
    "flags": {
      "boolean": {},
      "dictionary": {}
    },
    "scriptCalls": [],
    "subType": "combatTalent",
    "associations": {
      "classes": []
    },
    "showInQuickbar": false,
    "abilityType": "none",
    "crOffset": "",
    "disabled": false,
    "classSkills": {},
    "nonlethal": false,
    "duration": {
      "value": null,
      "units": ""
    },
    "target": {
      "value": ""
    },
    "attackName": "",
    "actionType": null,
    "attackBonus": "",
    "critConfirmBonus": "",
    "damage": {
      "parts": [],
      "critParts": [],
      "nonCritParts": []
    },
    "attackParts": [],
    "formulaicAttacks": {
      "count": {
        "formula": ""
      },
      "bonus": {
        "formula": ""
      },
      "label": null
    },
    "formula": "",
    "ability": {
      "attack": null,
      "damage": null,
      "damageMult": 1,
      "critRange": 20,
      "critMult": 2
    },
    "save": {
      "dc": 0,
      "type": "",
      "description": ""
    },
    "soundEffect": "",
    "powerAttack": {
      "multiplier": "",
      "damageBonus": 2,
      "critMultiplier": 1
    }
  },
  "ownership": {
    "default": 0
  },
  "_stats": {
    "systemId": "pf1",
    "systemVersion": "9.0",
    "coreVersion": "10.291",
    "createdTime": 1663168887929,
    "modifiedTime": 1689623921349,
    "lastModifiedBy": "pf1spheres-db000"
  }
}
