{
  "_id": "laVl25AG1whjj4Cw",
  "name": "Double Impale",
  "type": "feat",
  "img": "modules/pf1spheres/assets/icons/spheres/lancer.webp",
  "effects": [],
  "folder": null,
  "sort": 0,
  "flags": {
    "pf1spheres": {
      "sphere": "lancer"
    }
  },
  "system": {
    "description": {
      "value": "<p>If you successfully impale a creature with a weapon wielded with two hands, you can expend your martial focus to make an additional attack roll against a creature adjacent to that creature with the same penalty. If this attack is successful, that creature takes damage and is also impaled. While they are impaled, both creatures are forced to act on the same initiative count (whichever is lower between the two) until they are no longer impaled, and both can only move if both agree to move using both of their move actions, using the slower of their speeds to determine movement between the two using a movement type both share. The creature who was impaled first cannot remove the weapon impaling them as long as it is still impaling the creature who was impaled second, but both can make a combat maneuver check to remove it, gaining a +2 circumstance bonus on this check. The creature who was impaled second can choose to attempt to free only themselves from the impaling weapon.</p>\n",
      "unidentified": ""
    },
    "tags": [],
    "actions": [],
    "uses": {
      "per": null,
      "value": 0,
      "maxFormula": "",
      "autoDeductChargesCost": "1"
    },
    "attackNotes": [],
    "effectNotes": [],
    "changes": [],
    "changeFlags": {
      "loseDexToAC": false,
      "noEncumbrance": false,
      "mediumArmorFullSpeed": false,
      "heavyArmorFullSpeed": false
    },
    "contextNotes": [],
    "links": {
      "children": [],
      "charges": []
    },
    "tag": "",
    "useCustomTag": false,
    "armorProf": {
      "value": [],
      "custom": ""
    },
    "weaponProf": {
      "value": [],
      "custom": ""
    },
    "languages": {
      "value": [],
      "custom": ""
    },
    "flags": {
      "boolean": {},
      "dictionary": {}
    },
    "scriptCalls": [],
    "subType": "combatTalent",
    "associations": {
      "classes": []
    },
    "showInQuickbar": false,
    "abilityType": "none",
    "crOffset": "",
    "disabled": false,
    "classSkills": {},
    "nonlethal": false,
    "duration": {
      "value": null,
      "units": ""
    },
    "target": {
      "value": ""
    },
    "attackName": "",
    "actionType": null,
    "attackBonus": "",
    "critConfirmBonus": "",
    "damage": {
      "parts": [],
      "critParts": [],
      "nonCritParts": []
    },
    "attackParts": [],
    "formulaicAttacks": {
      "count": {
        "formula": ""
      },
      "bonus": {
        "formula": ""
      },
      "label": null
    },
    "formula": "",
    "ability": {
      "attack": null,
      "damage": null,
      "damageMult": 1,
      "critRange": 20,
      "critMult": 2
    },
    "save": {
      "dc": 0,
      "type": "",
      "description": ""
    },
    "soundEffect": "",
    "powerAttack": {
      "multiplier": "",
      "damageBonus": 2,
      "critMultiplier": 1
    }
  },
  "ownership": {
    "default": 0
  },
  "_stats": {
    "systemId": "pf1",
    "systemVersion": "9.0",
    "coreVersion": "10.291",
    "createdTime": 1663168887961,
    "modifiedTime": 1689623921365,
    "lastModifiedBy": "pf1spheres-db000"
  }
}
