{
  "_id": "15dcreXN26SGE2UM",
  "name": "Draft",
  "type": "feat",
  "img": "modules/pf1spheres/assets/icons/spheres/leadership.webp",
  "effects": [],
  "folder": null,
  "sort": 0,
  "flags": {
    "pf1spheres": {
      "sphere": "leadership"
    }
  },
  "system": {
    "description": {
      "value": "<p><strong>Prerequisites:</strong> Leadership sphere, Diplomacy 5 ranks.</p>\n<p>You may expend martial focus as a standard action to force a creature which you can recruit within close range (25 feet + 5 feet per 2 base attack bonus) to make a Will save or have its attitude improved to helpful and serve you as a cohort for 1 minute per rank in Diplomacy you possess. Creatures not of the humanoid type gain a +2 bonus on their Will saves. Once a creature saves successfully against your use of this ability, it is immune to further uses of this ability by you for 24 hours. When the duration of the recruit effect ends, the creature returns to its previous disposition, modified by any other effects that would have altered it in the meantime.</p>\n<p>Attempting to make the creature perform an obviously suicidal action automatically releases it, even if you possess the Brainwash legendary talent. This is a supernatural, mind-affecting ability.</p>\n",
      "unidentified": ""
    },
    "tags": [],
    "actions": [],
    "uses": {
      "per": null,
      "value": 0,
      "maxFormula": "",
      "autoDeductChargesCost": "1"
    },
    "attackNotes": [],
    "effectNotes": [],
    "changes": [],
    "changeFlags": {
      "loseDexToAC": false,
      "noEncumbrance": false,
      "mediumArmorFullSpeed": false,
      "heavyArmorFullSpeed": false
    },
    "contextNotes": [],
    "links": {
      "children": [],
      "charges": []
    },
    "tag": "",
    "useCustomTag": false,
    "armorProf": {
      "value": [],
      "custom": ""
    },
    "weaponProf": {
      "value": [],
      "custom": ""
    },
    "languages": {
      "value": [],
      "custom": ""
    },
    "flags": {
      "boolean": {},
      "dictionary": {}
    },
    "scriptCalls": [],
    "subType": "combatTalent",
    "associations": {
      "classes": []
    },
    "showInQuickbar": false,
    "abilityType": "none",
    "crOffset": "",
    "disabled": false,
    "classSkills": {},
    "nonlethal": false,
    "duration": {
      "value": null,
      "units": ""
    },
    "target": {
      "value": ""
    },
    "attackName": "",
    "actionType": null,
    "attackBonus": "",
    "critConfirmBonus": "",
    "damage": {
      "parts": [],
      "critParts": [],
      "nonCritParts": []
    },
    "attackParts": [],
    "formulaicAttacks": {
      "count": {
        "formula": ""
      },
      "bonus": {
        "formula": ""
      },
      "label": null
    },
    "formula": "",
    "ability": {
      "attack": null,
      "damage": null,
      "damageMult": 1,
      "critRange": 20,
      "critMult": 2
    },
    "save": {
      "dc": 0,
      "type": "",
      "description": ""
    },
    "soundEffect": "",
    "powerAttack": {
      "multiplier": "",
      "damageBonus": 2,
      "critMultiplier": 1
    }
  },
  "ownership": {
    "default": 0
  },
  "_stats": {
    "systemId": "pf1",
    "systemVersion": "9.0",
    "coreVersion": "10.291",
    "createdTime": 1663168885401,
    "modifiedTime": 1689623920684,
    "lastModifiedBy": "pf1spheres-db000"
  }
}
