{
  "_id": "FXo9kjPcJXmFtdBc",
  "name": "Durable",
  "type": "feat",
  "img": "modules/pf1spheres/assets/icons/spheres/guardian.webp",
  "effects": [],
  "folder": null,
  "sort": 0,
  "flags": {
    "pf1spheres": {
      "sphere": "guardian"
    }
  },
  "system": {
    "description": {
      "value": "<p>When targeted by a natural, extraordinary or supernatural ability that inflicts ability damage, ability drain, disease, negative levels, poison or any of the following conditions: (blinded, confused, cowering, dazed, dazzled, entangled, exhausted, fascinated, fatigued, frightened, nauseated, panicked, paralyzed, petrified, shaken, sickened, staggered, stunned, unconscious) you may delay the onset of its effects until the end of your next turn. Each effect is treated as if it were an amount of hit point damage equal to the attacking creature&#8217;s Hit Dice for determining the capacity of your delayed damage pool. If you do not have enough space remaining in the delayed damage pool, you may not delay the effect.</p>\n<p>If you possess the (patrol) package and the Defend Other talent, when an ally within the area of your patrol is the target of such an ability, you may spend an attack of opportunity to move to put that ally within reach (with the normal limits for moving as part of your patrol) and redirect the effect to yourself.</p>\n<p>If you possess the (challenge) package, any time a creature under the effects of your challenge uses such an ability that does not include you in its effect, it suffers a -2 penalty to the ability&#8217;s save DC. This penalty increases by 1 for every 4 points of base attack bonus you possess.</p>\n<p><sup><strong>Wiki Note:</strong> Per discussion with the author, this is intended to permit characters to cure effects caused by things this ability can delay before they take effect.</sup></p>\n",
      "unidentified": ""
    },
    "tags": [],
    "actions": [],
    "uses": {
      "per": null,
      "value": 0,
      "maxFormula": "",
      "autoDeductChargesCost": "1"
    },
    "attackNotes": [],
    "effectNotes": [],
    "changes": [],
    "changeFlags": {
      "loseDexToAC": false,
      "noEncumbrance": false,
      "mediumArmorFullSpeed": false,
      "heavyArmorFullSpeed": false
    },
    "contextNotes": [],
    "links": {
      "children": [],
      "charges": []
    },
    "tag": "",
    "useCustomTag": false,
    "armorProf": {
      "value": [],
      "custom": ""
    },
    "weaponProf": {
      "value": [],
      "custom": ""
    },
    "languages": {
      "value": [],
      "custom": ""
    },
    "flags": {
      "boolean": {},
      "dictionary": {}
    },
    "scriptCalls": [],
    "subType": "combatTalent",
    "associations": {
      "classes": []
    },
    "showInQuickbar": false,
    "abilityType": "none",
    "crOffset": "",
    "disabled": false,
    "classSkills": {},
    "nonlethal": false,
    "duration": {
      "value": null,
      "units": ""
    },
    "target": {
      "value": ""
    },
    "attackName": "",
    "actionType": null,
    "attackBonus": "",
    "critConfirmBonus": "",
    "damage": {
      "parts": [],
      "critParts": [],
      "nonCritParts": []
    },
    "attackParts": [],
    "formulaicAttacks": {
      "count": {
        "formula": ""
      },
      "bonus": {
        "formula": ""
      },
      "label": null
    },
    "formula": "",
    "ability": {
      "attack": null,
      "damage": null,
      "damageMult": 1,
      "critRange": 20,
      "critMult": 2
    },
    "save": {
      "dc": 0,
      "type": "",
      "description": ""
    },
    "soundEffect": "",
    "powerAttack": {
      "multiplier": "",
      "damageBonus": 2,
      "critMultiplier": 1
    }
  },
  "ownership": {
    "default": 0
  },
  "_stats": {
    "systemId": "pf1",
    "systemVersion": "9.0",
    "coreVersion": "10.291",
    "createdTime": 1663168885907,
    "modifiedTime": 1689623920939,
    "lastModifiedBy": "pf1spheres-db000"
  }
}
