{
  "_id": "jziRSSrbcP9pjKvD",
  "name": "Flaming Ríastrad",
  "type": "feat",
  "img": "modules/pf1spheres/assets/icons/spheres/berserker.webp",
  "effects": [],
  "folder": null,
  "sort": 0,
  "flags": {
    "pf1spheres": {
      "sphere": "berserker"
    }
  },
  "system": {
    "description": {
      "value": "<p><strong>Prerequisite:</strong> Berserker sphere.</p>\n<p>You are not subject to fatigue or exhaustion that is the result of taking damage from environmental heat. In addition, while berserking or using the rage class feature, your body puts off an aura of heat affecting all creatures and objects within reach (including yourself). Each round that you continue berserking or raging, the heat severity level in the affected area increases by 1 step (maximum heat severity 4 + 1 step per 7 points of base attack bonus). Any round that you are not berserking or raging, the heat severity level in the affected area decreases by 1 step, until it has reached normal heat levels. For the purpose of control weather, you are considered to have a magic skill bonus equal to your base attack bonus.</p>\n",
      "unidentified": ""
    },
    "tags": [],
    "actions": [],
    "uses": {
      "per": null,
      "value": 0,
      "maxFormula": "",
      "autoDeductChargesCost": "1"
    },
    "attackNotes": [],
    "effectNotes": [],
    "changes": [],
    "changeFlags": {
      "loseDexToAC": false,
      "noEncumbrance": false,
      "mediumArmorFullSpeed": false,
      "heavyArmorFullSpeed": false
    },
    "contextNotes": [],
    "links": {
      "children": [],
      "charges": []
    },
    "tag": "",
    "useCustomTag": false,
    "armorProf": {
      "value": [],
      "custom": ""
    },
    "weaponProf": {
      "value": [],
      "custom": ""
    },
    "languages": {
      "value": [],
      "custom": ""
    },
    "flags": {
      "boolean": {},
      "dictionary": {}
    },
    "scriptCalls": [],
    "subType": "combatTalent",
    "associations": {
      "classes": []
    },
    "showInQuickbar": false,
    "abilityType": "none",
    "crOffset": "",
    "disabled": false,
    "classSkills": {},
    "nonlethal": false,
    "duration": {
      "value": null,
      "units": ""
    },
    "target": {
      "value": ""
    },
    "attackName": "",
    "actionType": null,
    "attackBonus": "",
    "critConfirmBonus": "",
    "damage": {
      "parts": [],
      "critParts": [],
      "nonCritParts": []
    },
    "attackParts": [],
    "formulaicAttacks": {
      "count": {
        "formula": ""
      },
      "bonus": {
        "formula": ""
      },
      "label": null
    },
    "formula": "",
    "ability": {
      "attack": null,
      "damage": null,
      "damageMult": 1,
      "critRange": 20,
      "critMult": 2
    },
    "save": {
      "dc": 0,
      "type": "",
      "description": ""
    },
    "soundEffect": "",
    "powerAttack": {
      "multiplier": "",
      "damageBonus": 2,
      "critMultiplier": 1
    }
  },
  "ownership": {
    "default": 0
  },
  "_stats": {
    "systemId": "pf1",
    "systemVersion": "9.0",
    "coreVersion": "10.291",
    "createdTime": 1663168887927,
    "modifiedTime": 1689623921348,
    "lastModifiedBy": "pf1spheres-db000"
  }
}
