{
  "_id": "JY3ZhzU7i2hBdNKW",
  "name": "Giant",
  "type": "feat",
  "img": "modules/pf1spheres/assets/icons/spheres/brute.webp",
  "effects": [],
  "folder": null,
  "sort": 0,
  "flags": {
    "pf1spheres": {
      "sphere": "brute"
    }
  },
  "system": {
    "description": {
      "value": "<p><strong>Prerequisites:</strong> Brute sphere, Muscular Surge.</p>\n<p>You may use your Muscular Surge talent as a free action rather than a move action, and are not fatigued after its duration expires; in essence, the bonuses become permanent. Your total carrying capacity is also multiplied by 2. This does not stack with other effects that multiply carrying capacity, such as the ant haul spell.</p>\n<p>You may still expend your martial focus as a free action to gain the more powerful bonus for a number of rounds equal to your Constitution modifier, and are only fatigued afterward rather than exhausted. For this duration, you also count as being one size larger than you are for the purpose of targeting creatures with combat maneuvers and for talents that have effects dependent on size, such as Rock Toss or Thrower&#8217;s Reflexes from the Equipment sphere, the Terrain Trasher legendary Brute talent, or Living Weapon from the Wrestling sphere.</p>\n",
      "unidentified": ""
    },
    "tags": [],
    "actions": [],
    "uses": {
      "per": null,
      "value": 0,
      "maxFormula": "",
      "autoDeductChargesCost": "1"
    },
    "attackNotes": [],
    "effectNotes": [],
    "changes": [],
    "changeFlags": {
      "loseDexToAC": false,
      "noEncumbrance": false,
      "mediumArmorFullSpeed": false,
      "heavyArmorFullSpeed": false
    },
    "contextNotes": [],
    "links": {
      "children": [],
      "charges": []
    },
    "tag": "",
    "useCustomTag": false,
    "armorProf": {
      "value": [],
      "custom": ""
    },
    "weaponProf": {
      "value": [],
      "custom": ""
    },
    "languages": {
      "value": [],
      "custom": ""
    },
    "flags": {
      "boolean": {},
      "dictionary": {}
    },
    "scriptCalls": [],
    "subType": "combatTalent",
    "associations": {
      "classes": []
    },
    "showInQuickbar": false,
    "abilityType": "none",
    "crOffset": "",
    "disabled": false,
    "classSkills": {},
    "nonlethal": false,
    "duration": {
      "value": null,
      "units": ""
    },
    "target": {
      "value": ""
    },
    "attackName": "",
    "actionType": null,
    "attackBonus": "",
    "critConfirmBonus": "",
    "damage": {
      "parts": [],
      "critParts": [],
      "nonCritParts": []
    },
    "attackParts": [],
    "formulaicAttacks": {
      "count": {
        "formula": ""
      },
      "bonus": {
        "formula": ""
      },
      "label": null
    },
    "formula": "",
    "ability": {
      "attack": null,
      "damage": null,
      "damageMult": 1,
      "critRange": 20,
      "critMult": 2
    },
    "save": {
      "dc": 0,
      "type": "",
      "description": ""
    },
    "soundEffect": "",
    "powerAttack": {
      "multiplier": "",
      "damageBonus": 2,
      "critMultiplier": 1
    }
  },
  "ownership": {
    "default": 0
  },
  "_stats": {
    "systemId": "pf1",
    "systemVersion": "9.0",
    "coreVersion": "10.291",
    "createdTime": 1663168886392,
    "modifiedTime": 1689623920985,
    "lastModifiedBy": "pf1spheres-db000"
  }
}
