{
  "_id": "xccWVY2YP3pg7sXi",
  "name": "Great Senses",
  "type": "feat",
  "img": "modules/pf1spheres/assets/icons/spheres/scout.webp",
  "effects": [],
  "folder": null,
  "sort": 0,
  "flags": {
    "pf1spheres": {
      "sphere": "scout"
    }
  },
  "system": {
    "description": {
      "value": "<p>You gain 5 ranks in the Perception skill, plus 5 ranks per additional talent spent in the Scout sphere (maximum ranks equal to your total Hit Dice). If you already have ranks in the Perception skill you may immediately retrain them, but you do not get to retrain when only temporarily gaining talents, such as through the armiger&#8217;s customized weapons class feature.</p>\n",
      "unidentified": ""
    },
    "tags": [],
    "actions": [],
    "uses": {
      "per": null,
      "value": 0,
      "maxFormula": "",
      "autoDeductChargesCost": "1"
    },
    "attackNotes": [],
    "effectNotes": [],
    "changes": [],
    "changeFlags": {
      "loseDexToAC": false,
      "noEncumbrance": false,
      "mediumArmorFullSpeed": false,
      "heavyArmorFullSpeed": false
    },
    "contextNotes": [],
    "links": {
      "children": [],
      "charges": []
    },
    "tag": "",
    "useCustomTag": false,
    "armorProf": {
      "value": [],
      "custom": ""
    },
    "weaponProf": {
      "value": [],
      "custom": ""
    },
    "languages": {
      "value": [],
      "custom": ""
    },
    "flags": {
      "boolean": {},
      "dictionary": {}
    },
    "scriptCalls": [],
    "subType": "combatTalent",
    "associations": {
      "classes": []
    },
    "showInQuickbar": false,
    "abilityType": "none",
    "crOffset": "",
    "disabled": false,
    "classSkills": {},
    "nonlethal": false,
    "duration": {
      "value": null,
      "units": ""
    },
    "target": {
      "value": ""
    },
    "attackName": "",
    "actionType": null,
    "attackBonus": "",
    "critConfirmBonus": "",
    "damage": {
      "parts": [],
      "critParts": [],
      "nonCritParts": []
    },
    "attackParts": [],
    "formulaicAttacks": {
      "count": {
        "formula": ""
      },
      "bonus": {
        "formula": ""
      },
      "label": null
    },
    "formula": "",
    "ability": {
      "attack": null,
      "damage": null,
      "damageMult": 1,
      "critRange": 20,
      "critMult": 2
    },
    "save": {
      "dc": 0,
      "type": "",
      "description": ""
    },
    "soundEffect": "",
    "powerAttack": {
      "multiplier": "",
      "damageBonus": 2,
      "critMultiplier": 1
    }
  },
  "ownership": {
    "default": 0
  },
  "_stats": {
    "systemId": "pf1",
    "systemVersion": "9.0",
    "coreVersion": "10.291",
    "createdTime": 1663168888240,
    "modifiedTime": 1689623921531,
    "lastModifiedBy": "pf1spheres-db000"
  }
}
