{
  "_id": "wbWlWWANZhqmcDlG",
  "name": "Lotus Touch",
  "type": "feat",
  "img": "modules/pf1spheres/assets/icons/spheres/open_hand.webp",
  "effects": [],
  "folder": null,
  "sort": 0,
  "flags": {
    "pf1spheres": {
      "sphere": "openHand"
    }
  },
  "system": {
    "description": {
      "value": "<p>As a standard action, you can make a melee touch attack against a creature, dealing damage equal to your Strength modifier (or whichever attribute was used to make the check). The next successful attack action, attack of opportunity, or additional attack granted by a class feature or talent an ally makes against that creature before the start of your next turn has its base critical threat range doubled; this does not stack with other abilities which would increase critical threat range, such as Improved Critical. A critical hit scored while a creature is affected by this ability has its critical multiplier reduced to x2 if it would normally be higher. For every 5 base attack bonus you possess, Lotus Touch applies to one more eligible attack made before the start of your next turn. <strong>Associated Feat:</strong> Butterfly&#8217;s Sting.</p>\n",
      "unidentified": ""
    },
    "tags": [],
    "actions": [],
    "uses": {
      "per": null,
      "value": 0,
      "maxFormula": "",
      "autoDeductChargesCost": "1"
    },
    "attackNotes": [],
    "effectNotes": [],
    "changes": [],
    "changeFlags": {
      "loseDexToAC": false,
      "noEncumbrance": false,
      "mediumArmorFullSpeed": false,
      "heavyArmorFullSpeed": false
    },
    "contextNotes": [],
    "links": {
      "children": [],
      "charges": []
    },
    "tag": "",
    "useCustomTag": false,
    "armorProf": {
      "value": [],
      "custom": ""
    },
    "weaponProf": {
      "value": [],
      "custom": ""
    },
    "languages": {
      "value": [],
      "custom": ""
    },
    "flags": {
      "boolean": {},
      "dictionary": {}
    },
    "scriptCalls": [],
    "subType": "combatTalent",
    "associations": {
      "classes": []
    },
    "showInQuickbar": false,
    "abilityType": "none",
    "crOffset": "",
    "disabled": false,
    "classSkills": {},
    "nonlethal": false,
    "duration": {
      "value": null,
      "units": ""
    },
    "target": {
      "value": ""
    },
    "attackName": "",
    "actionType": null,
    "attackBonus": "",
    "critConfirmBonus": "",
    "damage": {
      "parts": [],
      "critParts": [],
      "nonCritParts": []
    },
    "attackParts": [],
    "formulaicAttacks": {
      "count": {
        "formula": ""
      },
      "bonus": {
        "formula": ""
      },
      "label": null
    },
    "formula": "",
    "ability": {
      "attack": null,
      "damage": null,
      "damageMult": 1,
      "critRange": 20,
      "critMult": 2
    },
    "save": {
      "dc": 0,
      "type": "",
      "description": ""
    },
    "soundEffect": "",
    "powerAttack": {
      "multiplier": "",
      "damageBonus": 2,
      "critMultiplier": 1
    }
  },
  "ownership": {
    "default": 0
  },
  "_stats": {
    "systemId": "pf1",
    "systemVersion": "9.0",
    "coreVersion": "10.291",
    "createdTime": 1663168888226,
    "modifiedTime": 1689623921520,
    "lastModifiedBy": "pf1spheres-db000"
  }
}
