{
  "_id": "8jQd8hj1wkV2k9dO",
  "name": "Lurker",
  "type": "feat",
  "img": "modules/pf1spheres/assets/icons/spheres/scout.webp",
  "effects": [],
  "folder": null,
  "sort": 0,
  "flags": {
    "pf1spheres": {
      "sphere": "scout"
    }
  },
  "system": {
    "description": {
      "value": "<p>Creatures using unusual forms of sensory perception such as blindsight, greensight, or tremorsense cannot automatically foil your use of Stealth; such creatures must make a Perception check as normal to detect you when you make use of the Stealth skill.</p>\n<p>Lurker foils divination spells and <a href=\"/divination\">Divination</a> sphere sense abilities in the manner described above, but has no effect on spell, sphere, spell-like, or supernatural abilities specifically used to uncover information about you rather than enhancing the user&#8217;s perception, such as when scrying or using the <a href=\"/divination\">Divination</a> sphere&#8216;s divine abilities.</p>\n<p><strong>Author's Note:</strong> The Lurker talent protects against forms of perception, such as blindsight, greensight, or tremorsense, or other similar forms of vision which would pinpoint a creature and negate their use of Stealth. This does not include effects which would negate other things that allow you to stealth, such as true seeing or see invisibility.</p>\n<p>This extends to the Divination sphere, protecting against (sense) talents which provide effects similar to blindsight or blindsense (such as greensight, tremorsense, thoughtsense, spiritsense, touchsense, et. al). This talent does not protect against all (sense) talents, only those which provide forms of perception similar to blindsight or blindsense or would otherwise pinpoint a creature using Stealth.</p>\n",
      "unidentified": ""
    },
    "tags": [],
    "actions": [],
    "uses": {
      "per": null,
      "value": 0,
      "maxFormula": "",
      "autoDeductChargesCost": "1"
    },
    "attackNotes": [],
    "effectNotes": [],
    "changes": [],
    "changeFlags": {
      "loseDexToAC": false,
      "noEncumbrance": false,
      "mediumArmorFullSpeed": false,
      "heavyArmorFullSpeed": false
    },
    "contextNotes": [],
    "links": {
      "children": [],
      "charges": []
    },
    "tag": "",
    "useCustomTag": false,
    "armorProf": {
      "value": [],
      "custom": ""
    },
    "weaponProf": {
      "value": [],
      "custom": ""
    },
    "languages": {
      "value": [],
      "custom": ""
    },
    "flags": {
      "boolean": {},
      "dictionary": {}
    },
    "scriptCalls": [],
    "subType": "combatTalent",
    "associations": {
      "classes": []
    },
    "showInQuickbar": false,
    "abilityType": "none",
    "crOffset": "",
    "disabled": false,
    "classSkills": {},
    "nonlethal": false,
    "duration": {
      "value": null,
      "units": ""
    },
    "target": {
      "value": ""
    },
    "attackName": "",
    "actionType": null,
    "attackBonus": "",
    "critConfirmBonus": "",
    "damage": {
      "parts": [],
      "critParts": [],
      "nonCritParts": []
    },
    "attackParts": [],
    "formulaicAttacks": {
      "count": {
        "formula": ""
      },
      "bonus": {
        "formula": ""
      },
      "label": null
    },
    "formula": "",
    "ability": {
      "attack": null,
      "damage": null,
      "damageMult": 1,
      "critRange": 20,
      "critMult": 2
    },
    "save": {
      "dc": 0,
      "type": "",
      "description": ""
    },
    "soundEffect": "",
    "powerAttack": {
      "multiplier": "",
      "damageBonus": 2,
      "critMultiplier": 1
    }
  },
  "ownership": {
    "default": 0
  },
  "_stats": {
    "systemId": "pf1",
    "systemVersion": "9.0",
    "coreVersion": "10.291",
    "createdTime": 1663168885536,
    "modifiedTime": 1689623920785,
    "lastModifiedBy": "pf1spheres-db000"
  }
}
