{
  "_id": "1b3YKVRxOGh6yTXC",
  "name": "Savage Tricks",
  "type": "feat",
  "img": "modules/pf1spheres/assets/icons/spheres/scoundrel.webp",
  "effects": [],
  "folder": null,
  "sort": 0,
  "flags": {
    "pf1spheres": {
      "sphere": "scoundrel"
    }
  },
  "system": {
    "description": {
      "value": "<p>Whenever you successfully perform a dirty trick combat maneuver, you may also inflict the battered or fatigued conditions to a creature when selecting a condition to apply to the affected creature.</p>\nAt 5 ranks in Sleight of Hand, you may expend your martial focus as a free action whenever you successfully perform a dirty trick combat maneuver against an opponent. If you do, you may choose to inflict a greater condition than the original condition chosen, lasting for the normal duration.<br>\n<table class=\"wiki-content-table\">\n<tr>\n<th>Original Condition</th>\n<th>New Condition</th>\n</tr>\n<tr>\n<td>Battered</td>\n<td>Flat-footed</td>\n</tr>\n<tr>\n<td>Dazzled</td>\n<td>Treat all creatures as if they had concealment (20% miss chance)</td>\n</tr>\n<tr>\n<td>Entangled</td>\n<td>Suffers the penalties of being grappled (but is not actually grappled)</td>\n</tr>\n<tr>\n<td>Fatigued</td>\n<td>As fatigued, but -4 penalty to Strength and Dexterity.</td>\n</tr>\n<tr>\n<td>Shaken</td>\n<td>Frightened</td>\n</tr>\n<tr>\n<td>Sickened</td>\n<td>Staggered</td>\n</tr>\n</table>\n<p><strong>Associated Feat:</strong> Dirty Trick Master.</p>\n",
      "unidentified": ""
    },
    "tags": ["Trick"],
    "actions": [],
    "uses": {
      "per": null,
      "value": 0,
      "maxFormula": "",
      "autoDeductChargesCost": "1"
    },
    "attackNotes": [],
    "effectNotes": [],
    "changes": [],
    "changeFlags": {
      "loseDexToAC": false,
      "noEncumbrance": false,
      "mediumArmorFullSpeed": false,
      "heavyArmorFullSpeed": false
    },
    "contextNotes": [],
    "links": {
      "children": [],
      "charges": []
    },
    "tag": "",
    "useCustomTag": false,
    "armorProf": {
      "value": [],
      "custom": ""
    },
    "weaponProf": {
      "value": [],
      "custom": ""
    },
    "languages": {
      "value": [],
      "custom": ""
    },
    "flags": {
      "boolean": {},
      "dictionary": {}
    },
    "scriptCalls": [],
    "subType": "combatTalent",
    "associations": {
      "classes": []
    },
    "showInQuickbar": false,
    "abilityType": "none",
    "crOffset": "",
    "disabled": false,
    "classSkills": {},
    "nonlethal": false,
    "duration": {
      "value": null,
      "units": ""
    },
    "target": {
      "value": ""
    },
    "attackName": "",
    "actionType": null,
    "attackBonus": "",
    "critConfirmBonus": "",
    "damage": {
      "parts": [],
      "critParts": [],
      "nonCritParts": []
    },
    "attackParts": [],
    "formulaicAttacks": {
      "count": {
        "formula": ""
      },
      "bonus": {
        "formula": ""
      },
      "label": null
    },
    "formula": "",
    "ability": {
      "attack": null,
      "damage": null,
      "damageMult": 1,
      "critRange": 20,
      "critMult": 2
    },
    "save": {
      "dc": 0,
      "type": "",
      "description": ""
    },
    "soundEffect": "",
    "powerAttack": {
      "multiplier": "",
      "damageBonus": 2,
      "critMultiplier": 1
    }
  },
  "ownership": {
    "default": 0
  },
  "_stats": {
    "systemId": "pf1",
    "systemVersion": "9.0",
    "coreVersion": "10.291",
    "createdTime": 1663168885412,
    "modifiedTime": 1689623920694,
    "lastModifiedBy": "pf1spheres-db000"
  }
}
