{
  "_id": "q263gPgA7Nqlntab",
  "name": "Shaped Chemistry",
  "type": "feat",
  "img": "modules/pf1spheres/assets/icons/spheres/alchemy.webp",
  "effects": [],
  "folder": null,
  "sort": 0,
  "flags": {
    "pf1spheres": {
      "sphere": "alchemy"
    }
  },
  "system": {
    "description": {
      "value": "<p>Your splash and burst weapon formulae can be shaped into cones or lines by increasing the Craft (alchemy) DC to create them by 10. Splash weapon formulae modified this way are not considered splash weapons.</p>\n<p>If used as a cone, the length is 3 times the area of effect radius (splash weapons are treated as possessing a 5-foot burst radius, +5 feet for every time their difficulty has been increased to increase the area of effect). If used as a line, the length is 6 times the burst radius. Creatures in the area of effect take full damage (Reflex half).</p>\n<p>You may choose which direction this cone or line extends when holding, throwing or placing the formulae (if used as part of the Trap sphere). The cone or line starts at the edge of your own square, or the square where it was thrown or placed at. If a formulae that was modified by this talent is imbibed as part of the Alchemical Dragon Barroom sphere legendary talent, use the formulae&#8217;s base area and shape but increase it by an additional 5 feet for every 5 points of base attack bonus the imbiber possesses.</p>\n",
      "unidentified": ""
    },
    "tags": [],
    "actions": [],
    "uses": {
      "per": null,
      "value": 0,
      "maxFormula": "",
      "autoDeductChargesCost": "1"
    },
    "attackNotes": [],
    "effectNotes": [],
    "changes": [],
    "changeFlags": {
      "loseDexToAC": false,
      "noEncumbrance": false,
      "mediumArmorFullSpeed": false,
      "heavyArmorFullSpeed": false
    },
    "contextNotes": [],
    "links": {
      "children": [],
      "charges": []
    },
    "tag": "",
    "useCustomTag": false,
    "armorProf": {
      "value": [],
      "custom": ""
    },
    "weaponProf": {
      "value": [],
      "custom": ""
    },
    "languages": {
      "value": [],
      "custom": ""
    },
    "flags": {
      "boolean": {},
      "dictionary": {}
    },
    "scriptCalls": [],
    "subType": "combatTalent",
    "associations": {
      "classes": []
    },
    "showInQuickbar": false,
    "abilityType": "none",
    "crOffset": "",
    "disabled": false,
    "classSkills": {},
    "nonlethal": false,
    "duration": {
      "value": null,
      "units": ""
    },
    "target": {
      "value": ""
    },
    "attackName": "",
    "actionType": null,
    "attackBonus": "",
    "critConfirmBonus": "",
    "damage": {
      "parts": [],
      "critParts": [],
      "nonCritParts": []
    },
    "attackParts": [],
    "formulaicAttacks": {
      "count": {
        "formula": ""
      },
      "bonus": {
        "formula": ""
      },
      "label": null
    },
    "formula": "",
    "ability": {
      "attack": null,
      "damage": null,
      "damageMult": 1,
      "critRange": 20,
      "critMult": 2
    },
    "save": {
      "dc": 0,
      "type": "",
      "description": ""
    },
    "soundEffect": "",
    "powerAttack": {
      "multiplier": "",
      "damageBonus": 2,
      "critMultiplier": 1
    }
  },
  "ownership": {
    "default": 0
  },
  "_stats": {
    "systemId": "pf1",
    "systemVersion": "9.0",
    "coreVersion": "10.291",
    "createdTime": 1663168888033,
    "modifiedTime": 1689623921409,
    "lastModifiedBy": "pf1spheres-db000"
  }
}
