{
  "_id": "GOuWbF697ooPlLfS",
  "name": "Singularity",
  "type": "feat",
  "img": "modules/pf1spheres/assets/icons/spheres/guardian.webp",
  "effects": [],
  "folder": null,
  "sort": 0,
  "flags": {
    "pf1spheres": {
      "sphere": "guardian"
    }
  },
  "system": {
    "description": {
      "value": "<p><strong>Prerequisites:</strong> Guardian sphere, base attack bonus +5.</p>\n<p>At the start of their turns, hostile creatures within the area of your patrol must succeed on a Fortitude save or be moved 5 ft. closer to you, though stop when they become adjacent. This movement does not provoke attacks of opportunity. Hostile creatures within the area of your patrol count every square of movement directed away from you as two squares when determining their movement for the round. This stacks with the effects of difficult terrain. At +10 base attack bonus, the distance moved toward you and the additional cost of movement away from you increases by 5 ft. This is a supernatural effect.</p>\n",
      "unidentified": ""
    },
    "tags": ["Zone"],
    "actions": [],
    "uses": {
      "per": null,
      "value": 0,
      "maxFormula": "",
      "autoDeductChargesCost": "1"
    },
    "attackNotes": [],
    "effectNotes": [],
    "changes": [],
    "changeFlags": {
      "loseDexToAC": false,
      "noEncumbrance": false,
      "mediumArmorFullSpeed": false,
      "heavyArmorFullSpeed": false
    },
    "contextNotes": [],
    "links": {
      "children": [],
      "charges": []
    },
    "tag": "",
    "useCustomTag": false,
    "armorProf": {
      "value": [],
      "custom": ""
    },
    "weaponProf": {
      "value": [],
      "custom": ""
    },
    "languages": {
      "value": [],
      "custom": ""
    },
    "flags": {
      "boolean": {},
      "dictionary": {}
    },
    "scriptCalls": [],
    "subType": "combatTalent",
    "associations": {
      "classes": []
    },
    "showInQuickbar": false,
    "abilityType": "none",
    "crOffset": "",
    "disabled": false,
    "classSkills": {},
    "nonlethal": false,
    "duration": {
      "value": null,
      "units": ""
    },
    "target": {
      "value": ""
    },
    "attackName": "",
    "actionType": null,
    "attackBonus": "",
    "critConfirmBonus": "",
    "damage": {
      "parts": [],
      "critParts": [],
      "nonCritParts": []
    },
    "attackParts": [],
    "formulaicAttacks": {
      "count": {
        "formula": ""
      },
      "bonus": {
        "formula": ""
      },
      "label": null
    },
    "formula": "",
    "ability": {
      "attack": null,
      "damage": null,
      "damageMult": 1,
      "critRange": 20,
      "critMult": 2
    },
    "save": {
      "dc": 0,
      "type": "",
      "description": ""
    },
    "soundEffect": "",
    "powerAttack": {
      "multiplier": "",
      "damageBonus": 2,
      "critMultiplier": 1
    }
  },
  "ownership": {
    "default": 0
  },
  "_stats": {
    "systemId": "pf1",
    "systemVersion": "9.0",
    "coreVersion": "10.291",
    "createdTime": 1663168885919,
    "modifiedTime": 1689623920949,
    "lastModifiedBy": "pf1spheres-db000"
  }
}
