{
  "_id": "LmpDNQVcahAcCHQc",
  "name": "Sky Spider’s Touch",
  "type": "feat",
  "img": "modules/pf1spheres/assets/icons/spheres/athletics.webp",
  "effects": [],
  "folder": null,
  "sort": 0,
  "flags": {
    "pf1spheres": {
      "sphere": "athletics"
    }
  },
  "system": {
    "description": {
      "value": "<p><strong>Prerequisites:</strong> Athletics sphere, Climb 5 ranks.</p>\n<p>You can climb at your full base speed with no penalty, and may always take 10 on Climb checks, even when rushed or threatened. In addition, all base DCs for climbing all surfaces are reduced by half. This division happens before applying modifier such as from bracing between two walls, climbing a slippery surface, or when catching oneself while falling. You can climb with only one hand free with no penalty, or no hands free at a -5 penalty.</p>\n<p>In addition to the uses of Climb described by that skill, you also gain several new ones; specifically, you may climb smooth vertical walls or inverted surfaces with a DC 30 Climb check (reduced to 15 with this talent), ceilings without handholds with a DC 40 Climb check (reduced to 20 with this talent), and even climb on nothing but air with a DC 60 Climb check (reduced to 30 with this talent).</p>\n<p>Wind speed penalties to Fly checks also apply to Climb checks made to cling to air. If you fail a Climb check when climbing on air, you fall 10 ft. plus 10 ft. per 5 points by which you failed the check.</p>\n",
      "unidentified": ""
    },
    "tags": ["Climb"],
    "actions": [],
    "uses": {
      "per": null,
      "value": 0,
      "maxFormula": "",
      "autoDeductChargesCost": "1"
    },
    "attackNotes": [],
    "effectNotes": [],
    "changes": [],
    "changeFlags": {
      "loseDexToAC": false,
      "noEncumbrance": false,
      "mediumArmorFullSpeed": false,
      "heavyArmorFullSpeed": false
    },
    "contextNotes": [],
    "links": {
      "children": [],
      "charges": []
    },
    "tag": "",
    "useCustomTag": false,
    "armorProf": {
      "value": [],
      "custom": ""
    },
    "weaponProf": {
      "value": [],
      "custom": ""
    },
    "languages": {
      "value": [],
      "custom": ""
    },
    "flags": {
      "boolean": {},
      "dictionary": {}
    },
    "scriptCalls": [],
    "subType": "combatTalent",
    "associations": {
      "classes": []
    },
    "showInQuickbar": false,
    "abilityType": "none",
    "crOffset": "",
    "disabled": false,
    "classSkills": {},
    "nonlethal": false,
    "duration": {
      "value": null,
      "units": ""
    },
    "target": {
      "value": ""
    },
    "attackName": "",
    "actionType": null,
    "attackBonus": "",
    "critConfirmBonus": "",
    "damage": {
      "parts": [],
      "critParts": [],
      "nonCritParts": []
    },
    "attackParts": [],
    "formulaicAttacks": {
      "count": {
        "formula": ""
      },
      "bonus": {
        "formula": ""
      },
      "label": null
    },
    "formula": "",
    "ability": {
      "attack": null,
      "damage": null,
      "damageMult": 1,
      "critRange": 20,
      "critMult": 2
    },
    "save": {
      "dc": 0,
      "type": "",
      "description": ""
    },
    "soundEffect": "",
    "powerAttack": {
      "multiplier": "",
      "damageBonus": 2,
      "critMultiplier": 1
    }
  },
  "ownership": {
    "default": 0
  },
  "_stats": {
    "systemId": "pf1",
    "systemVersion": "9.0",
    "coreVersion": "10.291",
    "createdTime": 1663168886422,
    "modifiedTime": 1689623921007,
    "lastModifiedBy": "pf1spheres-db000"
  }
}
