{
  "_id": "UsSuiOAaYskIesUT",
  "name": "Snares",
  "type": "feat",
  "img": "modules/pf1spheres/assets/icons/spheres/trap.webp",
  "effects": [],
  "folder": null,
  "sort": 0,
  "flags": {
    "pf1spheres": {
      "sphere": "trap"
    }
  },
  "system": {
    "description": {
      "value": "<p>A snare trap is constructed from rope, wire, and similar materials. A snare targets the first creature to enter one of the squares it occupies. A creature may avoid triggering a snare with a successful Reflex save; doing so leaves the trap untriggered and makes the creature aware of the trap and able to pass through that trap&#8217;s space(s) without further risk of triggering it. Some talents grant additional types of snares. Each trap may only benefit from one (snare) talent.</p>\n<p>An alchemical item may be rigged to a snare trap. If a creature triggers the trap, the alchemical item is activated, targeting a grid intersection adjacent to the trap chosen when it is set. If the alchemical item is a thrown splash weapon, the triggering creature is affected by the item as if it were struck directly by it. Other small items such as dyes, dusts, vials of perfume, and other items with GM permission may also be attached to a snare trap as well.</p>\n<p>An inhaled poison may be rigged to a snare trap. If a creature triggers the trap, the first square entered (the creature&#8217;s choice if there is more than one entered simultaneously) becomes the centerpoint for the inhaled poison.</p>\n<p>When you first gain the Trap sphere, you gain the following snare:</p>\n",
      "unidentified": ""
    },
    "tags": [],
    "actions": [],
    "uses": {
      "per": null,
      "value": 0,
      "maxFormula": "",
      "autoDeductChargesCost": "1"
    },
    "attackNotes": [],
    "effectNotes": [],
    "changes": [],
    "changeFlags": {
      "loseDexToAC": false,
      "noEncumbrance": false,
      "mediumArmorFullSpeed": false,
      "heavyArmorFullSpeed": false
    },
    "contextNotes": [],
    "links": {
      "children": [],
      "charges": []
    },
    "tag": "",
    "useCustomTag": false,
    "armorProf": {
      "value": [],
      "custom": ""
    },
    "weaponProf": {
      "value": [],
      "custom": ""
    },
    "languages": {
      "value": [],
      "custom": ""
    },
    "flags": {
      "boolean": {},
      "dictionary": {}
    },
    "scriptCalls": [],
    "subType": "combatTalent",
    "associations": {
      "classes": []
    },
    "showInQuickbar": false,
    "abilityType": "none",
    "crOffset": "",
    "disabled": false,
    "classSkills": {},
    "nonlethal": false,
    "duration": {
      "value": null,
      "units": ""
    },
    "target": {
      "value": ""
    },
    "attackName": "",
    "actionType": null,
    "attackBonus": "",
    "critConfirmBonus": "",
    "damage": {
      "parts": [],
      "critParts": [],
      "nonCritParts": []
    },
    "attackParts": [],
    "formulaicAttacks": {
      "count": {
        "formula": ""
      },
      "bonus": {
        "formula": ""
      },
      "label": null
    },
    "formula": "",
    "ability": {
      "attack": null,
      "damage": null,
      "damageMult": 1,
      "critRange": 20,
      "critMult": 2
    },
    "save": {
      "dc": 0,
      "type": "",
      "description": ""
    },
    "soundEffect": "",
    "powerAttack": {
      "multiplier": "",
      "damageBonus": 2,
      "critMultiplier": 1
    }
  },
  "ownership": {
    "default": 0
  },
  "_stats": {
    "systemId": "pf1",
    "systemVersion": "9.0",
    "coreVersion": "10.291",
    "createdTime": 1663168887416,
    "modifiedTime": 1689623921157,
    "lastModifiedBy": "pf1spheres-db000"
  }
}
