{
  "_id": "OpuP675Qur7LiAjO",
  "name": "Spiritual Aspect",
  "type": "feat",
  "img": "modules/pf1spheres/assets/icons/spheres/shield.webp",
  "effects": [],
  "folder": null,
  "sort": 0,
  "flags": {
    "pf1spheres": {
      "sphere": "shield"
    }
  },
  "system": {
    "description": {
      "value": "<p><strong>Prerequisites:</strong> Shield sphere (Cover Ally), base attack bonus +5.</p>\n<p>As a swift action, you may choose a creature or 5-foot square that you can see within close range (25 feet + 5 feet per 2 points of base attack bonus you possess), guarding the location with an aspect of yourself until the beginning of your next turn; if you choose a creature, the aspect moves with them.</p>\n<p>You are treated as if you were standing in the same square as your aspect when determining the effects of your Shield sphere talents, including when using active defense.</p>\n<p>If you possess the Extensive Defense talent, you may expend your martial focus when creating an aspect to allow the aspect to last for a number of rounds equal to your practitioner modifier (minimum 2 rounds).</p>\n<p>This talent is a supernatural effect.</p>\n",
      "unidentified": ""
    },
    "tags": [],
    "actions": [],
    "uses": {
      "per": null,
      "value": 0,
      "maxFormula": "",
      "autoDeductChargesCost": "1"
    },
    "attackNotes": [],
    "effectNotes": [],
    "changes": [],
    "changeFlags": {
      "loseDexToAC": false,
      "noEncumbrance": false,
      "mediumArmorFullSpeed": false,
      "heavyArmorFullSpeed": false
    },
    "contextNotes": [],
    "links": {
      "children": [],
      "charges": []
    },
    "tag": "",
    "useCustomTag": false,
    "armorProf": {
      "value": [],
      "custom": ""
    },
    "weaponProf": {
      "value": [],
      "custom": ""
    },
    "languages": {
      "value": [],
      "custom": ""
    },
    "flags": {
      "boolean": {},
      "dictionary": {}
    },
    "scriptCalls": [],
    "subType": "combatTalent",
    "associations": {
      "classes": []
    },
    "showInQuickbar": false,
    "abilityType": "none",
    "crOffset": "",
    "disabled": false,
    "classSkills": {},
    "nonlethal": false,
    "duration": {
      "value": null,
      "units": ""
    },
    "target": {
      "value": ""
    },
    "attackName": "",
    "actionType": null,
    "attackBonus": "",
    "critConfirmBonus": "",
    "damage": {
      "parts": [],
      "critParts": [],
      "nonCritParts": []
    },
    "attackParts": [],
    "formulaicAttacks": {
      "count": {
        "formula": ""
      },
      "bonus": {
        "formula": ""
      },
      "label": null
    },
    "formula": "",
    "ability": {
      "attack": null,
      "damage": null,
      "damageMult": 1,
      "critRange": 20,
      "critMult": 2
    },
    "save": {
      "dc": 0,
      "type": "",
      "description": ""
    },
    "soundEffect": "",
    "powerAttack": {
      "multiplier": "",
      "damageBonus": 2,
      "critMultiplier": 1
    }
  },
  "ownership": {
    "default": 0
  },
  "_stats": {
    "systemId": "pf1",
    "systemVersion": "9.0",
    "coreVersion": "10.291",
    "createdTime": 1663168886684,
    "modifiedTime": 1689623921037,
    "lastModifiedBy": "pf1spheres-db000"
  }
}
