{
  "_id": "9NJrzw7ygSCfVcaA",
  "name": "Squad",
  "type": "feat",
  "img": "modules/pf1spheres/assets/icons/spheres/leadership.webp",
  "effects": [],
  "folder": null,
  "sort": 0,
  "flags": {
    "pf1spheres": {
      "sphere": "leadership"
    }
  },
  "system": {
    "description": {
      "value": "<p>You may recruit a troop in place of a single creature. Use the base statistics of a cohort, but apply the troop subtype. Your troop does one die of damage, increasing by one die at 3 ranks in Diplomacy and again every 3 ranks thereafter. This damage becomes magical when you reach 5 ranks in Diplomacy. Once per turn, a single creature that receives this troop damage or the damage from a special ability granted by the squad&#8217;s profession may be affected as if the damage was an attack action for the purpose of sphere effects that apply to or modify attack actions. If a Leadership sphere talent would grant a cohort an attack, the squad may inflict its troop damage on all creatures within its reach.</p>\n<p>Unlike normal troops, a cohort troop must spend a standard action to inflict its troop damage. Troop damage is normally only inflicted with melee attacks, though some professions give special abilities that have range. Effects that restore hit points to a single creature may target the troop, but have all healing reduced to 1/4 its normal amount (minimum 1); if the effect targets multiple creatures, the healing is instead reduced to 1/2 (minimum 1).</p>\n<p>Effects that heal in an area of effect grant 1.5 times their normal healing. A cohort troop may be given improved gear, though any change requires at least 10 pieces of identical equipment.</p>\n<p>The squad gains abilities based on profession:</p>\n<p><strong>Student:</strong> 1d6 troop damage, with the bomb special ability.</p>\n<p><em>Bomb:</em> as a standard action, deal 1d6 + 1d6 per three levels acid or fire (chosen at the time of use) damage to a 10 foot radius + 5 feet per 5 ranks in Diplomacy inside a 30 feet range +5 feet per 5 ranks in Diplomacy, Reflex save against your sphere DC for half.</p>\n<p><strong>Thief:</strong> 1d8 troop damage, with the low blow special ability.</p>\n<p><em>Low Blow:</em> Creatures that take damage from must succeed on a Reflex save against your sphere DC or be staggered until the end of their next turn.</p>\n<p><strong>Warrior:</strong> 1d10 troop damage, with the batter special ability.</p>\n<p><em>Batter:</em> Creatures that take damage from the troop are battered until the end of the troop&#8217;s next turn.</p>\n<p><strong>Woodsman:</strong> 1d6 troop damage, with the volley special ability.</p>\n<p><em>Volley:</em> as a standard action, deal 1d6 + 1d6 per three levels piercing damage to a 10 foot radius + 5 feet per 5 ranks in Diplomacy inside a 100 foot range, Reflex save against your sphere DC for half.</p>\n<p>If you possess the Healers talent, your troop cohort may restore 1d6 hit points per two Hit Dice it possesses (minimum 1d6) to itself a number of times per day equal to your practitioner ability modifier with 1 minute worth of effort.</p>\n<p>If you possess the Messengers talent, you may dispatch up to 2 messengers at a given time from a troop cohort.</p>\n",
      "unidentified": ""
    },
    "tags": ["Cohort"],
    "actions": [],
    "uses": {
      "per": null,
      "value": 0,
      "maxFormula": "",
      "autoDeductChargesCost": "1"
    },
    "attackNotes": [],
    "effectNotes": [],
    "changes": [],
    "changeFlags": {
      "loseDexToAC": false,
      "noEncumbrance": false,
      "mediumArmorFullSpeed": false,
      "heavyArmorFullSpeed": false
    },
    "contextNotes": [],
    "links": {
      "children": [],
      "charges": []
    },
    "tag": "",
    "useCustomTag": false,
    "armorProf": {
      "value": [],
      "custom": ""
    },
    "weaponProf": {
      "value": [],
      "custom": ""
    },
    "languages": {
      "value": [],
      "custom": ""
    },
    "flags": {
      "boolean": {},
      "dictionary": {}
    },
    "scriptCalls": [],
    "subType": "combatTalent",
    "associations": {
      "classes": []
    },
    "showInQuickbar": false,
    "abilityType": "none",
    "crOffset": "",
    "disabled": false,
    "classSkills": {},
    "nonlethal": false,
    "duration": {
      "value": null,
      "units": ""
    },
    "target": {
      "value": ""
    },
    "attackName": "",
    "actionType": null,
    "attackBonus": "",
    "critConfirmBonus": "",
    "damage": {
      "parts": [],
      "critParts": [],
      "nonCritParts": []
    },
    "attackParts": [],
    "formulaicAttacks": {
      "count": {
        "formula": ""
      },
      "bonus": {
        "formula": ""
      },
      "label": null
    },
    "formula": "",
    "ability": {
      "attack": null,
      "damage": null,
      "damageMult": 1,
      "critRange": 20,
      "critMult": 2
    },
    "save": {
      "dc": 0,
      "type": "",
      "description": ""
    },
    "soundEffect": "",
    "powerAttack": {
      "multiplier": "",
      "damageBonus": 2,
      "critMultiplier": 1
    }
  },
  "ownership": {
    "default": 0
  },
  "_stats": {
    "systemId": "pf1",
    "systemVersion": "9.0",
    "coreVersion": "10.291",
    "createdTime": 1663168885544,
    "modifiedTime": 1689623920790,
    "lastModifiedBy": "pf1spheres-db000"
  }
}
