{
  "_id": "gzQ1raC2xVvPpNtF",
  "name": "Swaying Dodge",
  "type": "feat",
  "img": "modules/pf1spheres/assets/icons/spheres/barroom.webp",
  "effects": [],
  "folder": null,
  "sort": 0,
  "flags": {
    "pf1spheres": {
      "sphere": "barroom"
    }
  },
  "system": {
    "description": {
      "value": "<p><strong>Prerequisites:</strong> Barroom sphere, base attack bonus +4.</p>\n<p>You gain a dodge pool equal to 40% + 10% per 3 points of base attack bonus you possess for a number of rounds equal to your practitioner modifier. Whenever you are attacked, you may reduce the dodge pool by any amount in increments of 5% to gain an equivalent amount of miss chance (maximum 50%) against the attack. This miss chance does not stack with other non-concealment miss chances.</p>\n<p>If you use this talent and already have a dodge pool from this talent (such as from a prior use), your dodge pool refills instead of granting you an additional pool.</p>\n",
      "unidentified": ""
    },
    "tags": ["Drunk"],
    "actions": [],
    "uses": {
      "per": null,
      "value": 0,
      "maxFormula": "",
      "autoDeductChargesCost": "1"
    },
    "attackNotes": [],
    "effectNotes": [],
    "changes": [],
    "changeFlags": {
      "loseDexToAC": false,
      "noEncumbrance": false,
      "mediumArmorFullSpeed": false,
      "heavyArmorFullSpeed": false
    },
    "contextNotes": [],
    "links": {
      "children": [],
      "charges": []
    },
    "tag": "",
    "useCustomTag": false,
    "armorProf": {
      "value": [],
      "custom": ""
    },
    "weaponProf": {
      "value": [],
      "custom": ""
    },
    "languages": {
      "value": [],
      "custom": ""
    },
    "flags": {
      "boolean": {},
      "dictionary": {}
    },
    "scriptCalls": [],
    "subType": "combatTalent",
    "associations": {
      "classes": []
    },
    "showInQuickbar": false,
    "abilityType": "none",
    "crOffset": "",
    "disabled": false,
    "classSkills": {},
    "nonlethal": false,
    "duration": {
      "value": null,
      "units": ""
    },
    "target": {
      "value": ""
    },
    "attackName": "",
    "actionType": null,
    "attackBonus": "",
    "critConfirmBonus": "",
    "damage": {
      "parts": [],
      "critParts": [],
      "nonCritParts": []
    },
    "attackParts": [],
    "formulaicAttacks": {
      "count": {
        "formula": ""
      },
      "bonus": {
        "formula": ""
      },
      "label": null
    },
    "formula": "",
    "ability": {
      "attack": null,
      "damage": null,
      "damageMult": 1,
      "critRange": 20,
      "critMult": 2
    },
    "save": {
      "dc": 0,
      "type": "",
      "description": ""
    },
    "soundEffect": "",
    "powerAttack": {
      "multiplier": "",
      "damageBonus": 2,
      "critMultiplier": 1
    }
  },
  "ownership": {
    "default": 0
  },
  "_stats": {
    "systemId": "pf1",
    "systemVersion": "9.0",
    "coreVersion": "10.291",
    "createdTime": 1663168887884,
    "modifiedTime": 1689623921322,
    "lastModifiedBy": "pf1spheres-db000"
  }
}
