{
  "_id": "mDOTR1xNSafR39OB",
  "name": "Swift Hands",
  "type": "feat",
  "img": "modules/pf1spheres/assets/icons/spheres/scoundrel.webp",
  "effects": [],
  "folder": null,
  "sort": 0,
  "flags": {
    "pf1spheres": {
      "sphere": "scoundrel"
    }
  },
  "system": {
    "description": {
      "value": "<p>You may use your Dexterity in place of your Strength when attempting a dirty trick or steal maneuver and may use your ranks in the Sleight of Hand skill in place of your base attack bonus when determining your combat maneuver bonus to perform a dirty trick or steal maneuver. In addition, you may apply any enhancement bonuses to your unarmed strikes to your dirty trick and steal combat maneuvers.</p>\n<h2 id=\"toc1\"><span><span style=\"color: #993300\">Marked Target</span></span></h2>\n<p>You may make a melee touch attack against a creature as a swift action; if this attack is successful, the creature is battered and takes a -1 penalty on Perception checks for 1 round. For every 4 ranks in Sleight of Hand you possess, this penalty is increased by 1.</p>\n<p><strong>Trick:</strong> Whenever you perform a steal or dirty trick combat maneuver, or make a Sleight of Hand check to take an object from a target unnoticed, you may apply one (trick) talent to it. (Trick) talents cannot be applied to maneuvers performed as a free action.</p>\n",
      "unidentified": ""
    },
    "tags": [],
    "actions": [],
    "uses": {
      "per": null,
      "value": 0,
      "maxFormula": "",
      "autoDeductChargesCost": "1"
    },
    "attackNotes": [],
    "effectNotes": [],
    "changes": [],
    "changeFlags": {
      "loseDexToAC": false,
      "noEncumbrance": false,
      "mediumArmorFullSpeed": false,
      "heavyArmorFullSpeed": false
    },
    "contextNotes": [],
    "links": {
      "children": [],
      "charges": []
    },
    "tag": "",
    "useCustomTag": false,
    "armorProf": {
      "value": [],
      "custom": ""
    },
    "weaponProf": {
      "value": [],
      "custom": ""
    },
    "languages": {
      "value": [],
      "custom": ""
    },
    "flags": {
      "boolean": {},
      "dictionary": {}
    },
    "scriptCalls": [],
    "subType": "combatTalent",
    "associations": {
      "classes": []
    },
    "showInQuickbar": false,
    "abilityType": "none",
    "crOffset": "",
    "disabled": false,
    "classSkills": {},
    "nonlethal": false,
    "duration": {
      "value": null,
      "units": ""
    },
    "target": {
      "value": ""
    },
    "attackName": "",
    "actionType": null,
    "attackBonus": "",
    "critConfirmBonus": "",
    "damage": {
      "parts": [],
      "critParts": [],
      "nonCritParts": []
    },
    "attackParts": [],
    "formulaicAttacks": {
      "count": {
        "formula": ""
      },
      "bonus": {
        "formula": ""
      },
      "label": null
    },
    "formula": "",
    "ability": {
      "attack": null,
      "damage": null,
      "damageMult": 1,
      "critRange": 20,
      "critMult": 2
    },
    "save": {
      "dc": 0,
      "type": "",
      "description": ""
    },
    "soundEffect": "",
    "powerAttack": {
      "multiplier": "",
      "damageBonus": 2,
      "critMultiplier": 1
    }
  },
  "ownership": {
    "default": 0
  },
  "_stats": {
    "systemId": "pf1",
    "systemVersion": "9.0",
    "coreVersion": "10.291",
    "createdTime": 1663168887970,
    "modifiedTime": 1689623921371,
    "lastModifiedBy": "pf1spheres-db000"
  }
}
