{
  "_id": "5M5kfokuKTpJNkJv",
  "name": "Teleportation",
  "type": "feat",
  "img": "modules/pf1spheres/assets/icons/spheres/leadership.webp",
  "effects": [],
  "folder": null,
  "sort": 0,
  "flags": {
    "pf1spheres": {
      "sphere": "leadership"
    }
  },
  "system": {
    "description": {
      "value": "<p><strong>Prerequisites:</strong> Leadership sphere, (followers) package, Diplomacy 13 ranks.</p>\n<p>Your followers are capable of performing rituals, borrowing spell-casting services, walking fairy-roads, and other methods of rapid, long-distance travel. Your caravan can meet you anywhere on the same plane within 1d4 days, regardless of distance. Once per day, you and your allies can be carried to another location on your current plane by your caravan, arriving 2d20 miles from a chosen destination. This requires 1d4 hours. This does not grant the caravan the ability to travel into dangerous places.</p>\n<p>If you possess the Messengers talent, your messengers can reach any location on the same plane and return within 1d4 days. If you possess both Messengers and Merchants, your messengers can be sent to obtain items from anywhere on the plane. You do not need to roll for availability; if it is available for purchase anywhere on the plane it will be bought and brought to you.</p>\n",
      "unidentified": ""
    },
    "tags": [],
    "actions": [],
    "uses": {
      "per": null,
      "value": 0,
      "maxFormula": "",
      "autoDeductChargesCost": "1"
    },
    "attackNotes": [],
    "effectNotes": [],
    "changes": [],
    "changeFlags": {
      "loseDexToAC": false,
      "noEncumbrance": false,
      "mediumArmorFullSpeed": false,
      "heavyArmorFullSpeed": false
    },
    "contextNotes": [],
    "links": {
      "children": [],
      "charges": []
    },
    "tag": "",
    "useCustomTag": false,
    "armorProf": {
      "value": [],
      "custom": ""
    },
    "weaponProf": {
      "value": [],
      "custom": ""
    },
    "languages": {
      "value": [],
      "custom": ""
    },
    "flags": {
      "boolean": {},
      "dictionary": {}
    },
    "scriptCalls": [],
    "subType": "combatTalent",
    "associations": {
      "classes": []
    },
    "showInQuickbar": false,
    "abilityType": "none",
    "crOffset": "",
    "disabled": false,
    "classSkills": {},
    "nonlethal": false,
    "duration": {
      "value": null,
      "units": ""
    },
    "target": {
      "value": ""
    },
    "attackName": "",
    "actionType": null,
    "attackBonus": "",
    "critConfirmBonus": "",
    "damage": {
      "parts": [],
      "critParts": [],
      "nonCritParts": []
    },
    "attackParts": [],
    "formulaicAttacks": {
      "count": {
        "formula": ""
      },
      "bonus": {
        "formula": ""
      },
      "label": null
    },
    "formula": "",
    "ability": {
      "attack": null,
      "damage": null,
      "damageMult": 1,
      "critRange": 20,
      "critMult": 2
    },
    "save": {
      "dc": 0,
      "type": "",
      "description": ""
    },
    "soundEffect": "",
    "powerAttack": {
      "multiplier": "",
      "damageBonus": 2,
      "critMultiplier": 1
    }
  },
  "ownership": {
    "default": 0
  },
  "_stats": {
    "systemId": "pf1",
    "systemVersion": "9.0",
    "coreVersion": "10.291",
    "createdTime": 1663168885459,
    "modifiedTime": 1689623920742,
    "lastModifiedBy": "pf1spheres-db000"
  }
}
