{
  "_id": "QGYnDBATrlb94pII",
  "name": "Terrain Trap",
  "type": "feat",
  "img": "modules/pf1spheres/assets/icons/spheres/trap.webp",
  "effects": [],
  "folder": null,
  "sort": 0,
  "flags": {
    "pf1spheres": {
      "sphere": "trap"
    }
  },
  "system": {
    "description": {
      "value": "<p>When a creature fails its Reflex save to avoid this snare, the snare creates an area of difficult terrain in a 10-foot + 5 feet per 5 ranks in Craft (trap) radius centered on one corner of one of the squares it occupies, as determined when this snare is set. You can choose to create such an effect even without creating a trap (treating this as a trap that&#8217;s immediately triggered).</p>\n<p>When creating such a snare you can choose to have this area of difficult terrain also be filled with caltrops, pressurized spikes, or other such hazards. Creatures which enter or end their turn in the area suffer 1d6 damage +1d6 damage per 6 ranks in Craft (trap) (Reflex half). Creatures who remain in the area suffer damage once per round at the end of your subsequent turns.</p>\n<p>You and allies you warn of this trap get a +5 to Reflex saves to avoid its effects as normal. If you have the Aerial Trigger talent this area of terrain extends into the air as well, and flying creatures must still pass a Fly check (DC 15 + caster level) or be forced to fly at half speed while over the area, and must make Reflex saves to avoid taking the damage. This area of difficult terrain dissipates after one minute.</p>\n",
      "unidentified": ""
    },
    "tags": ["Snare"],
    "actions": [],
    "uses": {
      "per": null,
      "value": 0,
      "maxFormula": "",
      "autoDeductChargesCost": "1"
    },
    "attackNotes": [],
    "effectNotes": [],
    "changes": [],
    "changeFlags": {
      "loseDexToAC": false,
      "noEncumbrance": false,
      "mediumArmorFullSpeed": false,
      "heavyArmorFullSpeed": false
    },
    "contextNotes": [],
    "links": {
      "children": [],
      "charges": []
    },
    "tag": "",
    "useCustomTag": false,
    "armorProf": {
      "value": [],
      "custom": ""
    },
    "weaponProf": {
      "value": [],
      "custom": ""
    },
    "languages": {
      "value": [],
      "custom": ""
    },
    "flags": {
      "boolean": {},
      "dictionary": {}
    },
    "scriptCalls": [],
    "subType": "combatTalent",
    "associations": {
      "classes": []
    },
    "showInQuickbar": false,
    "abilityType": "none",
    "crOffset": "",
    "disabled": false,
    "classSkills": {},
    "nonlethal": false,
    "duration": {
      "value": null,
      "units": ""
    },
    "target": {
      "value": ""
    },
    "attackName": "",
    "actionType": null,
    "attackBonus": "",
    "critConfirmBonus": "",
    "damage": {
      "parts": [],
      "critParts": [],
      "nonCritParts": []
    },
    "attackParts": [],
    "formulaicAttacks": {
      "count": {
        "formula": ""
      },
      "bonus": {
        "formula": ""
      },
      "label": null
    },
    "formula": "",
    "ability": {
      "attack": null,
      "damage": null,
      "damageMult": 1,
      "critRange": 20,
      "critMult": 2
    },
    "save": {
      "dc": 0,
      "type": "",
      "description": ""
    },
    "soundEffect": "",
    "powerAttack": {
      "multiplier": "",
      "damageBonus": 2,
      "critMultiplier": 1
    }
  },
  "ownership": {
    "default": 0
  },
  "_stats": {
    "systemId": "pf1",
    "systemVersion": "9.0",
    "coreVersion": "10.291",
    "createdTime": 1663168886821,
    "modifiedTime": 1689623921109,
    "lastModifiedBy": "pf1spheres-db000"
  }
}
