{
  "_id": "XXQ7OuBHbtiAdIFw",
  "name": "Tethered Dart",
  "type": "feat",
  "img": "modules/pf1spheres/assets/icons/spheres/trap.webp",
  "effects": [],
  "folder": null,
  "sort": 0,
  "flags": {
    "pf1spheres": {
      "sphere": "trap"
    }
  },
  "system": {
    "description": {
      "value": "<p>A creature that is struck by your dart must succeed at a Reflex save or be tethered to the corner chosen when placing a dart, and is subject to a drag combat maneuver, using your practitioner modifier and Craft (traps) ranks instead of your Strength and base attack bonus respectively, dragging them towards the corner&#8217;s square. Each round the target remains tethered, they are subjected to the same drag combat maneuver (attempting a new roll every time). The tether has 10 hit points plus 2 hit points per rank in Craft (traps) you possess, an AC of 5, hardness equal to 1/2 your ranks in Craft (ranks), and a Break DC equal to your Trap sphere DC. The target cannot move further away from the trap without first breaking the tether or succeeding at a drag or reposition combat maneuver against your Trap sphere DC + 5, pulling the trap along with them. If you possess the Trap Wielder talent, you can instead have the tether applied to yourself instead of a designated corner.</p>\n",
      "unidentified": ""
    },
    "tags": ["Dart"],
    "actions": [],
    "uses": {
      "per": null,
      "value": 0,
      "maxFormula": "",
      "autoDeductChargesCost": "1"
    },
    "attackNotes": [],
    "effectNotes": [],
    "changes": [],
    "changeFlags": {
      "loseDexToAC": false,
      "noEncumbrance": false,
      "mediumArmorFullSpeed": false,
      "heavyArmorFullSpeed": false
    },
    "contextNotes": [],
    "links": {
      "children": [],
      "charges": []
    },
    "tag": "",
    "useCustomTag": false,
    "armorProf": {
      "value": [],
      "custom": ""
    },
    "weaponProf": {
      "value": [],
      "custom": ""
    },
    "languages": {
      "value": [],
      "custom": ""
    },
    "flags": {
      "boolean": {},
      "dictionary": {}
    },
    "scriptCalls": [],
    "subType": "combatTalent",
    "associations": {
      "classes": []
    },
    "showInQuickbar": false,
    "abilityType": "none",
    "crOffset": "",
    "disabled": false,
    "classSkills": {},
    "nonlethal": false,
    "duration": {
      "value": null,
      "units": ""
    },
    "target": {
      "value": ""
    },
    "attackName": "",
    "actionType": null,
    "attackBonus": "",
    "critConfirmBonus": "",
    "damage": {
      "parts": [],
      "critParts": [],
      "nonCritParts": []
    },
    "attackParts": [],
    "formulaicAttacks": {
      "count": {
        "formula": ""
      },
      "bonus": {
        "formula": ""
      },
      "label": null
    },
    "formula": "",
    "ability": {
      "attack": null,
      "damage": null,
      "damageMult": 1,
      "critRange": 20,
      "critMult": 2
    },
    "save": {
      "dc": 0,
      "type": "",
      "description": ""
    },
    "soundEffect": "",
    "powerAttack": {
      "multiplier": "",
      "damageBonus": 2,
      "critMultiplier": 1
    }
  },
  "ownership": {
    "default": 0
  },
  "_stats": {
    "systemId": "pf1",
    "systemVersion": "9.0",
    "coreVersion": "10.291",
    "createdTime": 1663168887501,
    "modifiedTime": 1689623921185,
    "lastModifiedBy": "pf1spheres-db000"
  }
}
