{
  "_id": "vv1Y8D8nuMWTgWtn",
  "name": "Thunderous Clap",
  "type": "feat",
  "img": "modules/pf1spheres/assets/icons/spheres/brute.webp",
  "effects": [],
  "folder": null,
  "sort": 0,
  "flags": {
    "pf1spheres": {
      "sphere": "brute"
    }
  },
  "system": {
    "description": {
      "value": "<p><strong>Prerequisites:</strong> Brute sphere, base attack bonus +5.</p>\n<p>You may expend your martial focus as a full-round action to slam your palms together, creating a thunderous shockwave that blows down anything in its path. Creatures within a close range burst (25 ft. + 5 ft. per 2 base attack bonus) or a medium- sized cone (100 ft. +10 ft. per base attack bonus) suffer 1d8 sonic damage per 2 points of base attack bonus you possess (minimum 1d8) and are deafened for 1d4+1 rounds. A successful Fortitude save halves this damage and negates the deafened effect.</p>\n<p>In addition, you may make a bull rush at range as a free action that does not provoke an attack of opportunity against each target within the affected area. You do not move with the targets when bull rushing them in this manner, nor is there any size limitation on how large a creature you can affect with this ability.</p>\n<p>All nonmagical sources of fire within the affected area are instantly extinguished.</p>\n",
      "unidentified": ""
    },
    "tags": [],
    "actions": [],
    "uses": {
      "per": null,
      "value": 0,
      "maxFormula": "",
      "autoDeductChargesCost": "1"
    },
    "attackNotes": [],
    "effectNotes": [],
    "changes": [],
    "changeFlags": {
      "loseDexToAC": false,
      "noEncumbrance": false,
      "mediumArmorFullSpeed": false,
      "heavyArmorFullSpeed": false
    },
    "contextNotes": [],
    "links": {
      "children": [],
      "charges": []
    },
    "tag": "",
    "useCustomTag": false,
    "armorProf": {
      "value": [],
      "custom": ""
    },
    "weaponProf": {
      "value": [],
      "custom": ""
    },
    "languages": {
      "value": [],
      "custom": ""
    },
    "flags": {
      "boolean": {},
      "dictionary": {}
    },
    "scriptCalls": [],
    "subType": "combatTalent",
    "associations": {
      "classes": []
    },
    "showInQuickbar": false,
    "abilityType": "none",
    "crOffset": "",
    "disabled": false,
    "classSkills": {},
    "nonlethal": false,
    "duration": {
      "value": null,
      "units": ""
    },
    "target": {
      "value": ""
    },
    "attackName": "",
    "actionType": null,
    "attackBonus": "",
    "critConfirmBonus": "",
    "damage": {
      "parts": [],
      "critParts": [],
      "nonCritParts": []
    },
    "attackParts": [],
    "formulaicAttacks": {
      "count": {
        "formula": ""
      },
      "bonus": {
        "formula": ""
      },
      "label": null
    },
    "formula": "",
    "ability": {
      "attack": null,
      "damage": null,
      "damageMult": 1,
      "critRange": 20,
      "critMult": 2
    },
    "save": {
      "dc": 0,
      "type": "",
      "description": ""
    },
    "soundEffect": "",
    "powerAttack": {
      "multiplier": "",
      "damageBonus": 2,
      "critMultiplier": 1
    }
  },
  "ownership": {
    "default": 0
  },
  "_stats": {
    "systemId": "pf1",
    "systemVersion": "9.0",
    "coreVersion": "10.291",
    "createdTime": 1663168888216,
    "modifiedTime": 1689623921514,
    "lastModifiedBy": "pf1spheres-db000"
  }
}
