{
  "_id": "5xaLJj6t95gQjajF",
  "name": "Twin Tie-Up",
  "type": "feat",
  "img": "modules/pf1spheres/assets/icons/spheres/wrestling.webp",
  "effects": [],
  "folder": null,
  "sort": 0,
  "flags": {
    "pf1spheres": {
      "sphere": "wrestling"
    }
  },
  "system": {
    "description": {
      "value": "<p>You can expend your martial focus to make a grapple check against two different creatures within your reach as a standard action. If your grapple check is successful against both creatures, you can grapple both creatures simultaneously, although you must be adjacent to both creatures while maintaining a grapple against them. Whenever you make a check to maintain the grapple, you use the result against both creature&#8217;s CMD with a -4 penalty to your combat maneuver bonus in order to maintain the grapple against both creatures, and both creatures gain a +4 on their combat maneuver checks to end the grapple. If you use a (slam) talent, you can spend a move action in addition to the swift action required to use a slam to use it against both grappled creatures. For every 5 points of base attack bonus you possess, this penalty to CMD and bonus to combat maneuver checks is reduced by 1/-1 respectively.</p>\n",
      "unidentified": ""
    },
    "tags": [],
    "actions": [],
    "uses": {
      "per": null,
      "value": 0,
      "maxFormula": "",
      "autoDeductChargesCost": "1"
    },
    "attackNotes": [],
    "effectNotes": [],
    "changes": [],
    "changeFlags": {
      "loseDexToAC": false,
      "noEncumbrance": false,
      "mediumArmorFullSpeed": false,
      "heavyArmorFullSpeed": false
    },
    "contextNotes": [],
    "links": {
      "children": [],
      "charges": []
    },
    "tag": "",
    "useCustomTag": false,
    "armorProf": {
      "value": [],
      "custom": ""
    },
    "weaponProf": {
      "value": [],
      "custom": ""
    },
    "languages": {
      "value": [],
      "custom": ""
    },
    "flags": {
      "boolean": {},
      "dictionary": {}
    },
    "scriptCalls": [],
    "subType": "combatTalent",
    "associations": {
      "classes": []
    },
    "showInQuickbar": false,
    "abilityType": "none",
    "crOffset": "",
    "disabled": false,
    "classSkills": {},
    "nonlethal": false,
    "duration": {
      "value": null,
      "units": ""
    },
    "target": {
      "value": ""
    },
    "attackName": "",
    "actionType": null,
    "attackBonus": "",
    "critConfirmBonus": "",
    "damage": {
      "parts": [],
      "critParts": [],
      "nonCritParts": []
    },
    "attackParts": [],
    "formulaicAttacks": {
      "count": {
        "formula": ""
      },
      "bonus": {
        "formula": ""
      },
      "label": null
    },
    "formula": "",
    "ability": {
      "attack": null,
      "damage": null,
      "damageMult": 1,
      "critRange": 20,
      "critMult": 2
    },
    "save": {
      "dc": 0,
      "type": "",
      "description": ""
    },
    "soundEffect": "",
    "powerAttack": {
      "multiplier": "",
      "damageBonus": 2,
      "critMultiplier": 1
    }
  },
  "ownership": {
    "default": 0
  },
  "_stats": {
    "systemId": "pf1",
    "systemVersion": "9.0",
    "coreVersion": "10.291",
    "createdTime": 1663168885473,
    "modifiedTime": 1689623920753,
    "lastModifiedBy": "pf1spheres-db000"
  }
}
