{
  "_id": "Q9gmGek5Oj6Ale67",
  "name": "Unarmored Training",
  "type": "feat",
  "img": "modules/pf1spheres/assets/icons/spheres/equipment.webp",
  "effects": [],
  "folder": null,
  "sort": 0,
  "flags": {
    "pf1spheres": {
      "sphere": "equipment"
    }
  },
  "system": {
    "description": {
      "value": "<p>Your deft movements, physical conditioning, and expert use of your chosen weapons allow you to create a protective barrier around yourself as effective as any true suit of armor. When unarmored and unencumbered, you gain a +3 armor bonus to your AC. This bonus increases by +1 for every 3 points of base attack bonus you possess. Characters who gain Acrobatics as a class skill may instead choose to have the armor bonus increase by +1 for every 3 ranks in the Acrobatics skill they possess.</p>\n<p>This bonus to AC applies even against touch attacks or when you are flat-footed. You lose these bonuses when you are immobilized or helpless, when you wear any armor, or when you carry a medium or heavy load. These bonuses do not stack with the AC bonus class feature of the monk or similar abilities.</p>\n<p>This bonus depends on an intricate awareness of the practitioner's body and balance, and as such is lost when the target is under any shapeshift other than blank form, or is polymorphed into a creature of the animal, dragon, elemental, magical beast, plant, or vermin type.</p>\n",
      "unidentified": ""
    },
    "tags": [],
    "actions": [],
    "uses": {
      "per": null,
      "value": 0,
      "maxFormula": "",
      "autoDeductChargesCost": "1"
    },
    "attackNotes": [],
    "effectNotes": [],
    "changes": [],
    "changeFlags": {
      "loseDexToAC": false,
      "noEncumbrance": false,
      "mediumArmorFullSpeed": false,
      "heavyArmorFullSpeed": false
    },
    "contextNotes": [],
    "links": {
      "children": [],
      "charges": []
    },
    "tag": "",
    "useCustomTag": false,
    "armorProf": {
      "value": [],
      "custom": ""
    },
    "weaponProf": {
      "value": [],
      "custom": ""
    },
    "languages": {
      "value": [],
      "custom": ""
    },
    "flags": {
      "boolean": {},
      "dictionary": {}
    },
    "scriptCalls": [],
    "subType": "combatTalent",
    "associations": {
      "classes": []
    },
    "showInQuickbar": false,
    "abilityType": "none",
    "crOffset": "",
    "disabled": false,
    "classSkills": {},
    "nonlethal": false,
    "duration": {
      "value": null,
      "units": ""
    },
    "target": {
      "value": ""
    },
    "attackName": "",
    "actionType": null,
    "attackBonus": "",
    "critConfirmBonus": "",
    "damage": {
      "parts": [],
      "critParts": [],
      "nonCritParts": []
    },
    "attackParts": [],
    "formulaicAttacks": {
      "count": {
        "formula": ""
      },
      "bonus": {
        "formula": ""
      },
      "label": null
    },
    "formula": "",
    "ability": {
      "attack": null,
      "damage": null,
      "damageMult": 1,
      "critRange": 20,
      "critMult": 2
    },
    "save": {
      "dc": 0,
      "type": "",
      "description": ""
    },
    "soundEffect": "",
    "powerAttack": {
      "multiplier": "",
      "damageBonus": 2,
      "critMultiplier": 1
    }
  },
  "ownership": {
    "default": 0
  },
  "_stats": {
    "systemId": "pf1",
    "systemVersion": "9.0",
    "coreVersion": "10.291",
    "createdTime": 1663168886816,
    "modifiedTime": 1689623921107,
    "lastModifiedBy": "pf1spheres-db000"
  }
}
