{
  "_id": "MBHvHDXy4CeKtnDx",
  "name": "Vacuum Cut",
  "type": "feat",
  "img": "modules/pf1spheres/assets/icons/spheres/duelist.webp",
  "effects": [],
  "folder": null,
  "sort": 0,
  "flags": {
    "pf1spheres": {
      "sphere": "duelist"
    }
  },
  "system": {
    "description": {
      "value": "<p><strong>Prerequisite:</strong> Duelist sphere.</p>\n<p>Whenever you use the attack action to make a melee attack in the same round you draw a sheathed weapon, you may target a creature within close range (25 feet + 5 feet per 2 base attack bonus), provoking attacks of opportunity as though using a ranged attack.</p>\n<p>Using this talent reduces the damage die of the weapon being used with this talent by 1 step, and the attack made with this weapon is treated as a projectile for the purposes of being able to be blocked or deflected by effects. This attack is treated as a melee attack for all other purposes (and may not be used with talents or abilities which would only affect ranged attacks) except for the target of the attack. At +5 base attack bonus, using this talent no longer provokes attacks of opportunity. At +10 base attack bonus, attacks made with this talent no longer have their damage die reduced.</p>\n<p>You may take Vacuum Cut a second time. If you do, when utilizing another Duelist sphere talent that targets creatures within your reach (such as Iai Slash and Hurricane Strike, but not talents that merely grant you an attack such as Swift Slice), you may instead use the range of Vacuum Cut in place of your reach for the purpose of those talents.</p>\n",
      "unidentified": ""
    },
    "tags": [],
    "actions": [],
    "uses": {
      "per": null,
      "value": 0,
      "maxFormula": "",
      "autoDeductChargesCost": "1"
    },
    "attackNotes": [],
    "effectNotes": [],
    "changes": [],
    "changeFlags": {
      "loseDexToAC": false,
      "noEncumbrance": false,
      "mediumArmorFullSpeed": false,
      "heavyArmorFullSpeed": false
    },
    "contextNotes": [],
    "links": {
      "children": [],
      "charges": []
    },
    "tag": "",
    "useCustomTag": false,
    "armorProf": {
      "value": [],
      "custom": ""
    },
    "weaponProf": {
      "value": [],
      "custom": ""
    },
    "languages": {
      "value": [],
      "custom": ""
    },
    "flags": {
      "boolean": {},
      "dictionary": {}
    },
    "scriptCalls": [],
    "subType": "combatTalent",
    "associations": {
      "classes": []
    },
    "showInQuickbar": false,
    "abilityType": "none",
    "crOffset": "",
    "disabled": false,
    "classSkills": {},
    "nonlethal": false,
    "duration": {
      "value": null,
      "units": ""
    },
    "target": {
      "value": ""
    },
    "attackName": "",
    "actionType": null,
    "attackBonus": "",
    "critConfirmBonus": "",
    "damage": {
      "parts": [],
      "critParts": [],
      "nonCritParts": []
    },
    "attackParts": [],
    "formulaicAttacks": {
      "count": {
        "formula": ""
      },
      "bonus": {
        "formula": ""
      },
      "label": null
    },
    "formula": "",
    "ability": {
      "attack": null,
      "damage": null,
      "damageMult": 1,
      "critRange": 20,
      "critMult": 2
    },
    "save": {
      "dc": 0,
      "type": "",
      "description": ""
    },
    "soundEffect": "",
    "powerAttack": {
      "multiplier": "",
      "damageBonus": 2,
      "critMultiplier": 1
    }
  },
  "ownership": {
    "default": 0
  },
  "_stats": {
    "systemId": "pf1",
    "systemVersion": "9.0",
    "coreVersion": "10.291",
    "createdTime": 1663168886425,
    "modifiedTime": 1689623921009,
    "lastModifiedBy": "pf1spheres-db000"
  }
}
