{
  "_id": "WXaQk3flkDngBa3E",
  "name": "Vital Crusher",
  "type": "feat",
  "img": "modules/pf1spheres/assets/icons/spheres/wrestling.webp",
  "effects": [],
  "folder": null,
  "sort": 0,
  "flags": {
    "pf1spheres": {
      "sphere": "wrestling"
    }
  },
  "system": {
    "description": {
      "value": "<p><strong>Prerequisites:</strong> Wrestling sphere (Limb Ripper (slam)), base attack bonus +15.</p>\n<p>When using the Limb Ripper talent, you can attempt to destroy the creature&#8217;s vitals instead of another limb. If the creature fails the initial Fortitude save, the creature is instantly reduced to -1 hit points and begins dying, in addition to suffering a -4 penalty to all saving throws and becoming exhausted for 24 hours.</p>\n<p>If you attempt to destroy the creature&#8217;s vitals a second time while the creature is suffering from these penalties, and the creature fails their Fortitude save, the creature&#8217;s vitals are destroyed, killing them. Some creatures, such as aberrations, oozes, and constructs do not usually possess vitals (and thus suffer no effects due to failing the saving throws against this effect), but most other creatures will die when their vitals are destroyed. This is a death effect.</p>\n<p>If the creature has a CR less than half your base attack bonus, the creature instead dies if they fail their first saving throw against this effect.</p>\n",
      "unidentified": ""
    },
    "tags": [],
    "actions": [],
    "uses": {
      "per": null,
      "value": 0,
      "maxFormula": "",
      "autoDeductChargesCost": "1"
    },
    "attackNotes": [],
    "effectNotes": [],
    "changes": [],
    "changeFlags": {
      "loseDexToAC": false,
      "noEncumbrance": false,
      "mediumArmorFullSpeed": false,
      "heavyArmorFullSpeed": false
    },
    "contextNotes": [],
    "links": {
      "children": [],
      "charges": []
    },
    "tag": "",
    "useCustomTag": false,
    "armorProf": {
      "value": [],
      "custom": ""
    },
    "weaponProf": {
      "value": [],
      "custom": ""
    },
    "languages": {
      "value": [],
      "custom": ""
    },
    "flags": {
      "boolean": {},
      "dictionary": {}
    },
    "scriptCalls": [],
    "subType": "combatTalent",
    "associations": {
      "classes": []
    },
    "showInQuickbar": false,
    "abilityType": "none",
    "crOffset": "",
    "disabled": false,
    "classSkills": {},
    "nonlethal": false,
    "duration": {
      "value": null,
      "units": ""
    },
    "target": {
      "value": ""
    },
    "attackName": "",
    "actionType": null,
    "attackBonus": "",
    "critConfirmBonus": "",
    "damage": {
      "parts": [],
      "critParts": [],
      "nonCritParts": []
    },
    "attackParts": [],
    "formulaicAttacks": {
      "count": {
        "formula": ""
      },
      "bonus": {
        "formula": ""
      },
      "label": null
    },
    "formula": "",
    "ability": {
      "attack": null,
      "damage": null,
      "damageMult": 1,
      "critRange": 20,
      "critMult": 2
    },
    "save": {
      "dc": 0,
      "type": "",
      "description": ""
    },
    "soundEffect": "",
    "powerAttack": {
      "multiplier": "",
      "damageBonus": 2,
      "critMultiplier": 1
    }
  },
  "ownership": {
    "default": 0
  },
  "_stats": {
    "systemId": "pf1",
    "systemVersion": "9.0",
    "coreVersion": "10.291",
    "createdTime": 1663168887437,
    "modifiedTime": 1689623921173,
    "lastModifiedBy": "pf1spheres-db000"
  }
}
