{
  "_id": "lZZzW7RQMvNaE6qo",
  "name": "Wild Rider",
  "type": "feat",
  "img": "modules/pf1spheres/assets/icons/spheres/beastmastery.webp",
  "effects": [],
  "folder": null,
  "sort": 0,
  "flags": {
    "pf1spheres": {
      "sphere": "beastmastery"
    }
  },
  "system": {
    "description": {
      "value": "<p>Any creature serving as your mount counts as tame and an animal ally and as having been combat trained per the Handle Animal skill. This does not allow you to handle or push a creature of greater than animal Intelligence (Intelligence 3 or higher), but does allow them to benefit from some talents, such as Lookout or Pack Attack, though not from any that grant additional tricks, purposes, or Hit Dice. The creature no longer counts as tame or an animal ally once you dismount. Additionally, you may add half your base attack bonus (minimum +1) as a competence bonus on all checks to stay mounted and never fall off your mount when you become unconscious unless you choose to at the time you fall unconscious. You never take a penalty on ride checks for lacking a saddle, bit, or bridle.</p>\n",
      "unidentified": ""
    },
    "tags": ["Ride"],
    "actions": [],
    "uses": {
      "per": null,
      "value": 0,
      "maxFormula": "",
      "autoDeductChargesCost": "1"
    },
    "attackNotes": [],
    "effectNotes": [],
    "changes": [],
    "changeFlags": {
      "loseDexToAC": false,
      "noEncumbrance": false,
      "mediumArmorFullSpeed": false,
      "heavyArmorFullSpeed": false
    },
    "contextNotes": [],
    "links": {
      "children": [],
      "charges": []
    },
    "tag": "",
    "useCustomTag": false,
    "armorProf": {
      "value": [],
      "custom": ""
    },
    "weaponProf": {
      "value": [],
      "custom": ""
    },
    "languages": {
      "value": [],
      "custom": ""
    },
    "flags": {
      "boolean": {},
      "dictionary": {}
    },
    "scriptCalls": [],
    "subType": "combatTalent",
    "associations": {
      "classes": []
    },
    "showInQuickbar": false,
    "abilityType": "none",
    "crOffset": "",
    "disabled": false,
    "classSkills": {},
    "nonlethal": false,
    "duration": {
      "value": null,
      "units": ""
    },
    "target": {
      "value": ""
    },
    "attackName": "",
    "actionType": null,
    "attackBonus": "",
    "critConfirmBonus": "",
    "damage": {
      "parts": [],
      "critParts": [],
      "nonCritParts": []
    },
    "attackParts": [],
    "formulaicAttacks": {
      "count": {
        "formula": ""
      },
      "bonus": {
        "formula": ""
      },
      "label": null
    },
    "formula": "",
    "ability": {
      "attack": null,
      "damage": null,
      "damageMult": 1,
      "critRange": 20,
      "critMult": 2
    },
    "save": {
      "dc": 0,
      "type": "",
      "description": ""
    },
    "soundEffect": "",
    "powerAttack": {
      "multiplier": "",
      "damageBonus": 2,
      "critMultiplier": 1
    }
  },
  "ownership": {
    "default": 0
  },
  "_stats": {
    "systemId": "pf1",
    "systemVersion": "9.0",
    "coreVersion": "10.291",
    "createdTime": 1663168887960,
    "modifiedTime": 1689623921364,
    "lastModifiedBy": "pf1spheres-db000"
  }
}
