{
  "id": "pf1spheres",
  "name": "pf1spheres",
  "title": "Spheres for Pathfinder 1e",
  "description": "Adds Spheres of Power/Might content packs and mechanics to Pathfinder 1e",
  "version": "0.5.1",
  "authors": [
    {
      "name": "Ethaks",
      "discord": "Ethaks#2903",
      "ko-fi": "ethaks",
      "url": "https://gitlab.com/Ethaks"
    },
    { "name": "Xavion", "discord": "Xavion#9504" }
  ],
  "minimumCoreVersion": "10",
  "compatibility": { "minimum": "10", "verified": "10.285" },
  "relationships": {
    "systems": [
      {
        "id": "pf1",
        "compatibility": { "minimum": "9.0", "verified": "9.0" }
      }
    ]
  },
  "scripts": [],
  "esmodules": ["pf1spheres.js"],
  "styles": ["style.css"],
  "packs": [
    {
      "name": "combat-talents",
      "label": "Combat Talents",
      "system": "pf1",
      "path": "./packs/combat-talents.db",
      "type": "Item"
    },
    {
      "name": "combat-spheres",
      "label": "Combat Spheres",
      "system": "pf1",
      "path": "./packs/combat-spheres.db",
      "type": "JournalEntry"
    },
    {
      "name": "magic-talents",
      "label": "Magic Talents",
      "system": "pf1",
      "path": "./packs/magic-talents.db",
      "type": "Item"
    },
    {
      "name": "magic-spheres",
      "label": "Magic Spheres",
      "system": "pf1",
      "path": "./packs/magic-spheres.db",
      "type": "JournalEntry"
    },
    {
      "name": "sphere-feats",
      "label": "Spheres Feats",
      "system": "pf1",
      "path": "./packs/sphere-feats.db",
      "type": "Item"
    },
    {
      "name": "classes",
      "label": "Spheres Classes",
      "system": "pf1",
      "path": "./packs/sphere-classes.db",
      "type": "Item"
    },
    {
      "name": "class-features",
      "label": "Spheres Class Features",
      "system": "pf1",
      "path": "./packs/sphere-class-features.db",
      "type": "Item"
    }
  ],
  "dependencies": [],
  "languages": [{ "lang": "en", "name": "English", "path": "lang/en.json" }],
  "socket": false,
  "url": "https://gitlab.com/ethaks-fvtt/foundryvtt-pf1-spheres",
  "manifest": "https://gitlab.com/ethaks-fvtt/foundryvtt-pf1-spheres/-/releases/permalink/latest/downloads/module.json",
  "download": "https://gitlab.com/Ethaks/foundryvtt-pf1-spheres/-/releases/v0.5.1/downloads/pf1spheres.zip",
  "license": "EUPL-1.2",
  "readme": "https://gitlab.com/ethaks-fvtt/foundryvtt-pf1-spheres/-/blob/master/README.md",
  "bugs": "https://gitlab.com/ethaks-fvtt/foundryvtt-pf1-spheres/-/issues",
  "changelog": "https://gitlab.com/ethaks-fvtt/foundryvtt-pf1-spheres/-/blob/master/CHANGELOG.md",
  "library": false,
  "flags": { "allowBugReporter": true }
}
