{
  "_id": "IAxQy8QvXgi3eTUh",
  "name": "Armiger",
  "type": "class",
  "img": "icons/svg/item-bag.svg",
  "effects": [],
  "folder": null,
  "sort": 0,
  "flags": {
    "pf1spheres": {
      "casterProgression": ""
    }
  },
  "system": {
    "description": {
      "value": "“Right tool, right job.”\n<p>A warrior trained in a variety of weapons, mastering different techniques with each, able to quickly bring the best tool to bear against her foes.</p>\n<p><strong>Role:</strong> The armiger is formidable in both ranged and melee combat, able to master a variety of weapons.</p>\n<p><strong>Alignment:</strong> Any.</p>\n<p><strong>Hit Die:</strong> d10</p>\n<p><strong>Starting Wealth:</strong> 5d6 x 10 gp (average 175 gp). In addition, each character begins play with an outfit worth 10 gp or less.</p>\n<p><strong>Starting Age:</strong> Self-taught</p>\n<p><strong>Class Skills:</strong> The armiger&#8217;s class skills are Acrobatics (Dex), Climb (Str), Craft (Int), Intimidate (Cha), Knowledge (dungeoneering) (Int), Knowledge (geography) (Int), Knowledge (local) (Int), Knowledge (nobility) (Int), Perception (Wis), Profession (Wis), Ride (Dex), Sense Motive (Wis), Sleight of Hand (Dex), Survival (Wis), and Swim (Str).</p>\n<p><strong>Skill Ranks Per Level:</strong> 4 + Int modifier.</p>\n<p><strong>Proficiencies:</strong> Armigers are proficient with simple weapons, as well as light armor and bucklers. In addition, if this is this character&#8217;s first level in any class, they may select a martial tradition of their choice.</p>\n\n<h2>Combat Training</h2>\n<p>An armiger may combine combat spheres and talents to create powerful martial techniques. Armigers use the Proficient talent progression. When they gain their first level in the armiger class, armigers may choose either Charisma, Intelligence or Wisdom as their practitioner modifier.</p>\n",
      "unidentified": ""
    },
    "tags": [],
    "changes": [],
    "changeFlags": {
      "loseDexToAC": false,
      "noEncumbrance": false,
      "mediumArmorFullSpeed": false,
      "heavyArmorFullSpeed": false
    },
    "links": {
      "children": [],
      "classAssociations": [
        {
          "name": "Customized Weapons",
          "level": 1,
          "_index": 0,
          "uuid": "Compendium.pf1spheres.class-features.8dNBGM1f42K8N4BZ"
        },
        {
          "name": "Quick Change (Armiger)",
          "level": 1,
          "_index": 1,
          "uuid": "Compendium.pf1spheres.class-features.nkcqLdLqqItqkYpi"
        },
        {
          "name": "Prowess",
          "level": 2,
          "_index": 2,
          "uuid": "Compendium.pf1spheres.class-features.i4Q0l5kRqi7dBtiN"
        },
        {
          "name": "Focusing Switch",
          "level": 3,
          "_index": 3,
          "uuid": "Compendium.pf1spheres.class-features.eAc0tDnFizX3hS3x"
        },
        {
          "name": "Rapid Assault",
          "level": 5,
          "_index": 4,
          "uuid": "Compendium.pf1spheres.class-features.vOzcNmnCHav7vFjz"
        },
        {
          "name": "Enhanced Customization",
          "level": 5,
          "_index": 5,
          "uuid": "Compendium.pf1spheres.class-features.LrNMHH5Fg3ffwNcM"
        },
        {
          "name": "Lightning Change",
          "level": 7,
          "_index": 6,
          "uuid": "Compendium.pf1spheres.class-features.gCM1hZCushWQpH9s"
        },
        {
          "name": "Lightning Assault",
          "level": 15,
          "_index": 7,
          "uuid": "Compendium.pf1spheres.class-features.6lo8hxts38XFyb4f"
        },
        {
          "name": "Unlimited Assault",
          "level": 20,
          "_index": 8,
          "uuid": "Compendium.pf1spheres.class-features.iLH8qZVF2GCwXg6u"
        }
      ]
    },
    "tag": "armiger",
    "useCustomTag": false,
    "armorProf": {
      "value": ["lgt"],
      "custom": "Buckler"
    },
    "weaponProf": {
      "value": ["sim"],
      "custom": ""
    },
    "languages": {
      "value": [],
      "custom": ""
    },
    "flags": {
      "boolean": {},
      "dictionary": {}
    },
    "scriptCalls": [],
    "subType": "base",
    "level": 1,
    "hd": 10,
    "hp": 8,
    "bab": "high",
    "skillsPerLevel": 4,
    "savingThrows": {
      "fort": {
        "value": "high"
      },
      "ref": {
        "value": "high"
      },
      "will": {
        "value": "low"
      }
    },
    "fc": {
      "hp": {
        "value": 0
      },
      "skill": {
        "value": 0
      },
      "alt": {
        "value": 0,
        "notes": ""
      }
    },
    "classSkills": {
      "acr": true,
      "apr": false,
      "art": true,
      "blf": false,
      "clm": true,
      "crf": true,
      "dip": false,
      "dev": false,
      "dis": false,
      "esc": false,
      "fly": false,
      "han": false,
      "hea": false,
      "int": true,
      "kar": false,
      "kdu": true,
      "ken": false,
      "kge": true,
      "khi": false,
      "klo": true,
      "kna": false,
      "kno": true,
      "kpl": false,
      "kre": false,
      "lin": false,
      "lor": false,
      "per": true,
      "prf": false,
      "pro": true,
      "rid": true,
      "sen": true,
      "slt": true,
      "spl": false,
      "ste": false,
      "sur": true,
      "swm": true,
      "umd": false
    },
    "customHD": "",
    "classType": "base"
  },
  "ownership": {
    "default": 0
  },
  "_stats": {
    "systemId": "pf1",
    "systemVersion": "9.0",
    "coreVersion": "10.291",
    "createdTime": 1663168899453,
    "modifiedTime": 1689623925738,
    "lastModifiedBy": "pf1spheres-db000"
  }
}
