{
  "_id": "YHSGUT3ah3Kf57kI",
  "name": "Savant",
  "type": "class",
  "img": "icons/svg/item-bag.svg",
  "effects": [],
  "folder": null,
  "sort": 0,
  "flags": {
    "pf1spheres": {
      "casterProgression": ""
    }
  },
  "system": {
    "description": {
      "value": "<strong>Wiki Note:</strong> The Savant is technically an archetype of the <a href=\"/thaumaturge\">Thaumaturge</a>. However, because it changes practically everything of its base class (up to, and including, its base attack bonus and saving throws), it is <em>functionally</em> a separate class in its own right and is included here for ease of play. The Savant still qualifies for any feats that have Thaumaturge as a prerequisite, assuming they meet the other prerequisites.\n<hr>\n<p>Naturally gifted with an innate sense of the workings of their own bodies and an uncanny knack for quickly copying new skills, savants are unpredictable foes.</p>\n<p><strong>Alignment:</strong> Any</p>\n<p><strong>Hit Die:</strong> d10</p>\n<p><strong>Starting Wealth:</strong> 3d6 x 10 gp (average 105 gp). In addition, each character begins play with an outfit worth 10 gp or less.</p>\n<p><strong>Class Skills:</strong> The savant&#8217;s class skills are Acrobatics (Dex), Climb (Str), Craft (Int), Disguise (Cha), Diplomacy (Cha), Fly (Dex), Heal (Wis), Intimidate (Cha), Knowledge (all except Arcana; Int), Linguistics (Int), Perform (Cha), Profession (Wis), Sense Motive (Wis), and Swim (Str).</p>\n<p><strong>Skill Ranks Per Level:</strong> 4 + Int modifier.</p>\n",
      "unidentified": ""
    },
    "tags": [],
    "changes": [],
    "changeFlags": {
      "loseDexToAC": false,
      "noEncumbrance": false,
      "mediumArmorFullSpeed": false,
      "heavyArmorFullSpeed": false
    },
    "links": {
      "children": [],
      "classAssociations": [
        {
          "name": "Weapon and Armor Training (Savant)",
          "level": 1,
          "_index": 0,
          "uuid": "Compendium.pf1spheres.class-features.O0dO2Kl3At8mHVZf"
        },
        {
          "name": "Flexible Combat Training",
          "level": 1,
          "_index": 1,
          "uuid": "Compendium.pf1spheres.class-features.xWLXx46RjpMymAyl"
        },
        {
          "name": "Strain",
          "level": 1,
          "_index": 2,
          "uuid": "Compendium.pf1spheres.class-features.m2lCuQ1PeMhyRxaC"
        },
        {
          "name": "Kinesthetic Intuition",
          "level": 2,
          "_index": 3,
          "uuid": "Compendium.pf1spheres.class-features.ROBTObibYMOojbpF"
        },
        {
          "name": "Insights",
          "level": 1,
          "_index": 4,
          "uuid": "Compendium.pf1spheres.class-features.jR840pGKGd0iyDB8"
        },
        {
          "name": "Combat Trained",
          "level": 1,
          "_index": 5,
          "uuid": "Compendium.pf1spheres.class-features.rCoxav45ZAPSnOgK"
        },
        {
          "name": "Masterful Insights",
          "level": 20,
          "_index": 6,
          "uuid": "Compendium.pf1spheres.class-features.GPD8JoHUMvlTQnqX"
        }
      ]
    },
    "tag": "savant",
    "useCustomTag": false,
    "armorProf": {
      "value": [],
      "custom": ""
    },
    "weaponProf": {
      "value": [],
      "custom": ""
    },
    "languages": {
      "value": [],
      "custom": ""
    },
    "flags": {
      "boolean": {},
      "dictionary": {}
    },
    "scriptCalls": [],
    "subType": "base",
    "level": 1,
    "hd": 10,
    "hp": 8,
    "bab": "high",
    "skillsPerLevel": 4,
    "savingThrows": {
      "fort": {
        "value": "high"
      },
      "ref": {
        "value": "low"
      },
      "will": {
        "value": "low"
      }
    },
    "fc": {
      "hp": {
        "value": 0
      },
      "skill": {
        "value": 0
      },
      "alt": {
        "value": 0,
        "notes": ""
      }
    },
    "classSkills": {
      "acr": true,
      "apr": false,
      "art": true,
      "blf": false,
      "clm": true,
      "crf": true,
      "dip": true,
      "dev": false,
      "dis": true,
      "esc": false,
      "fly": true,
      "han": false,
      "hea": true,
      "int": true,
      "kar": false,
      "kdu": false,
      "ken": false,
      "kge": false,
      "khi": false,
      "klo": false,
      "kna": false,
      "kno": false,
      "kpl": false,
      "kre": false,
      "lin": true,
      "lor": false,
      "per": false,
      "prf": true,
      "pro": true,
      "rid": false,
      "sen": true,
      "slt": false,
      "spl": false,
      "ste": false,
      "sur": false,
      "swm": true,
      "umd": false
    },
    "customHD": "",
    "classType": "base"
  },
  "ownership": {
    "default": 0
  },
  "_stats": {
    "systemId": "pf1",
    "systemVersion": "9.0",
    "coreVersion": "10.291",
    "createdTime": 1663168899462,
    "modifiedTime": 1689623925739,
    "lastModifiedBy": "pf1spheres-db000"
  }
}
