{
  "_id": "2UorFmJv3A6ThlOL",
  "name": "Warden",
  "type": "class",
  "img": "icons/svg/item-bag.svg",
  "effects": [],
  "folder": null,
  "sort": 0,
  "flags": {
    "pf1spheres": {
      "casterProgression": "mid"
    }
  },
  "system": {
    "description": {
      "value": "“Who needs a good defense when they have me?”\n<p>The warden is a tireless defender whose pure will to defend those around him have manifested into a source of magic. This source varies from warden to warden, but typically emerges from an ideal that the warden holds dear. Despite varying sources of this magic, all wardens share the common goal of defending those they hold dear, even if that means sacrificing themselves for this purpose.</p>\n<p><strong>Role:</strong> A warden defends their party using a combination of defensive magic, incredible reflexes, and sheer force of will.</p>\n<p><strong>Alignment:</strong> Any.</p>\n<p><strong>Hit Die:</strong> d10.</p>\n<p><strong>Starting Wealth:</strong> 4d6 x 10 gp (average 140 gp). In addition, each character begins play with an outfit worth 10 gp or less.</p>\n<p><strong>Starting Age:</strong> Trained</p>\n<p><strong>Class Skills:</strong> The warden&#8217;s class skills are Climb (Str), Craft (Int), Diplomacy (Cha), Handle Animal (Cha), Heal (Wis), Intimidate (Cha), Knowledge (arcana) (Int), Knowledge (history) (Int), Knowledge (local) (Int), Knowledge (nobility) (Int), Perception (Wis), Profession (Wis), Sense Motive (Wis), Spellcraft (Int), and Swim (Str).</p>\n<p><strong>Skill Ranks per Level:</strong> 4 + Int modifier.</p>\n<div style=\"clear:both; height: 0px; font-size: 1px\"></div>\n",
      "unidentified": ""
    },
    "tags": [],
    "changes": [],
    "changeFlags": {
      "loseDexToAC": false,
      "noEncumbrance": false,
      "mediumArmorFullSpeed": false,
      "heavyArmorFullSpeed": false
    },
    "links": {
      "children": [],
      "classAssociations": [
        {
          "name": "Weapon and Armor Proficiency (Warden)",
          "level": 1,
          "_index": 0,
          "uuid": "Compendium.pf1spheres.class-features.idNxS6zGphVqeCB4"
        },
        {
          "name": "Casting (Warden)",
          "level": 1,
          "_index": 1,
          "uuid": "Compendium.pf1spheres.class-features.ZGLzjqwRX9sLU0Qa"
        },
        {
          "name": "Blended Training (Warden)",
          "level": 1,
          "_index": 2,
          "uuid": "Compendium.pf1spheres.class-features.HL5WlVwnEOOPMGNo"
        },
        {
          "name": "Spell Pool (Warden)",
          "level": 1,
          "_index": 3,
          "uuid": "Compendium.pf1spheres.class-features.lrNzKqQCmvjREpWs"
        },
        {
          "name": "Vigil",
          "level": 1,
          "_index": 4,
          "uuid": "Compendium.pf1spheres.class-features.rsrj8LFO1DM0FCAf"
        },
        {
          "name": "Mystical Guardian",
          "level": 1,
          "_index": 5,
          "uuid": "Compendium.pf1spheres.class-features.JD2KxssapMcCyzhz"
        },
        {
          "name": "Steadfast",
          "level": 1,
          "_index": 6,
          "uuid": "Compendium.pf1spheres.class-features.ggp3h7fP0m6616nG"
        },
        {
          "name": "Guard",
          "level": 1,
          "_index": 7,
          "uuid": "Compendium.pf1spheres.class-features.IhZqMftBr2B14GqN"
        },
        {
          "name": "Reinforcement",
          "level": 2,
          "_index": 8,
          "uuid": "Compendium.pf1spheres.class-features.n2ZtQYCI1Hcb6nm4"
        },
        {
          "name": "Indomitable",
          "level": 3,
          "_index": 9,
          "uuid": "Compendium.pf1spheres.class-features.hpYexWjE6WMZnBHW"
        },
        {
          "name": "Routine Patrol",
          "level": 3,
          "_index": 10,
          "uuid": "Compendium.pf1spheres.class-features.yaaR40v4JxqRu1KM"
        },
        {
          "name": "Focusing Guard",
          "level": 4,
          "_index": 11,
          "uuid": "Compendium.pf1spheres.class-features.fsnwFbgGL6oUfVOa"
        },
        {
          "name": "Expanded Guard",
          "level": 5,
          "_index": 12,
          "uuid": "Compendium.pf1spheres.class-features.kTYHoLkpaRySaYwU"
        },
        {
          "name": "Projected Empathy",
          "level": 5,
          "_index": 13,
          "uuid": "Compendium.pf1spheres.class-features.Puran859YBj246cM"
        },
        {
          "name": "Lingering Guard",
          "level": 7,
          "_index": 14,
          "uuid": "Compendium.pf1spheres.class-features.sg66Q9kmpwZzP6HX"
        },
        {
          "name": "Self Sufficiency",
          "level": 1,
          "_index": 15,
          "uuid": "Compendium.pf1spheres.class-features.IbYUbwhNI2I410Df"
        },
        {
          "name": "Improved Indomitable",
          "level": 9,
          "_index": 16,
          "uuid": "Compendium.pf1spheres.class-features.QnXAfg98bsovcgmj"
        },
        {
          "name": "Improved Patrol",
          "level": 9,
          "_index": 17,
          "uuid": "Compendium.pf1spheres.class-features.WuvjxEXNB4ujLOWY"
        },
        {
          "name": "Tireless Protector",
          "level": 17,
          "_index": 18,
          "uuid": "Compendium.pf1spheres.class-features.CDHeATRWPVWG7pht"
        },
        {
          "name": "Warden of the Many",
          "level": 20,
          "_index": 19,
          "uuid": "Compendium.pf1spheres.class-features.oht8LCC3wWd4Qo1B"
        },
        {
          "name": "Acceptance",
          "level": 1,
          "_index": 20,
          "uuid": "Compendium.pf1spheres.class-features.J6P4QbrRC3GnUU4R"
        },
        {
          "name": "Altruism",
          "level": 1,
          "_index": 21,
          "uuid": "Compendium.pf1spheres.class-features.t4wlC5Gs3rzlXBC2"
        },
        {
          "name": "Confidence",
          "level": 1,
          "_index": 22,
          "uuid": "Compendium.pf1spheres.class-features.fRJCVVHDxYQAx8Zt"
        },
        {
          "name": "Courage",
          "level": 1,
          "_index": 23,
          "uuid": "Compendium.pf1spheres.class-features.SRhKopDPvLs4gwDL"
        },
        {
          "name": "Intuition (Warden)",
          "level": 1,
          "_index": 24,
          "uuid": "Compendium.pf1spheres.class-features.eiff8hiRQ1UEmXa5"
        },
        {
          "name": "Luck (Warden)",
          "level": 1,
          "_index": 25,
          "uuid": "Compendium.pf1spheres.class-features.AS298TdQk8FQUI5o"
        },
        {
          "name": "Obscurity",
          "level": 1,
          "_index": 26,
          "uuid": "Compendium.pf1spheres.class-features.KUcJ37yiJUthXNcS"
        },
        {
          "name": "Purity",
          "level": 1,
          "_index": 27,
          "uuid": "Compendium.pf1spheres.class-features.jYTN6bzvw2OKdO5R"
        },
        {
          "name": "Selflessness",
          "level": 1,
          "_index": 28,
          "uuid": "Compendium.pf1spheres.class-features.3QJzZHaFlpTGufGw"
        },
        {
          "name": "Sentimentality",
          "level": 1,
          "_index": 29,
          "uuid": "Compendium.pf1spheres.class-features.cuWfSO8HyztzeElW"
        },
        {
          "name": "Spirit",
          "level": 1,
          "_index": 30,
          "uuid": "Compendium.pf1spheres.class-features.wxMMtKWphNYR2mMZ"
        },
        {
          "name": "Urgency",
          "level": 1,
          "_index": 31,
          "uuid": "Compendium.pf1spheres.class-features.T9L1KIIXBGoTl5mq"
        },
        {
          "name": "Willpower",
          "level": 1,
          "_index": 32,
          "uuid": "Compendium.pf1spheres.class-features.ccZsu8A4ZdgTv9pL"
        }
      ]
    },
    "tag": "warden",
    "useCustomTag": false,
    "armorProf": {
      "value": [],
      "custom": ""
    },
    "weaponProf": {
      "value": [],
      "custom": ""
    },
    "languages": {
      "value": [],
      "custom": ""
    },
    "flags": {
      "boolean": {},
      "dictionary": {}
    },
    "scriptCalls": [],
    "subType": "base",
    "level": 1,
    "hd": 10,
    "hp": 8,
    "bab": "med",
    "skillsPerLevel": 4,
    "savingThrows": {
      "fort": {
        "value": "high"
      },
      "ref": {
        "value": "low"
      },
      "will": {
        "value": "high"
      }
    },
    "fc": {
      "hp": {
        "value": 0
      },
      "skill": {
        "value": 0
      },
      "alt": {
        "value": 0,
        "notes": ""
      }
    },
    "classSkills": {
      "acr": false,
      "apr": false,
      "art": true,
      "blf": false,
      "clm": true,
      "crf": true,
      "dip": true,
      "dev": false,
      "dis": false,
      "esc": false,
      "fly": false,
      "han": true,
      "hea": true,
      "int": true,
      "kar": true,
      "kdu": false,
      "ken": false,
      "kge": false,
      "khi": true,
      "klo": true,
      "kna": false,
      "kno": true,
      "kpl": false,
      "kre": false,
      "lin": false,
      "lor": false,
      "per": true,
      "prf": false,
      "pro": true,
      "rid": false,
      "sen": true,
      "slt": false,
      "spl": true,
      "ste": false,
      "sur": false,
      "swm": true,
      "umd": false
    },
    "customHD": "",
    "classType": "base"
  },
  "ownership": {
    "default": 0
  },
  "_stats": {
    "systemId": "pf1",
    "systemVersion": "9.0",
    "coreVersion": "10.291",
    "createdTime": 1663168899448,
    "modifiedTime": 1689623925737,
    "lastModifiedBy": "pf1spheres-db000"
  }
}
