{
  "_id": "nP4sgDZSPB5RiZEs",
  "name": "Wraith",
  "type": "class",
  "img": "icons/svg/item-bag.svg",
  "effects": [],
  "folder": null,
  "sort": 0,
  "flags": {
    "pf1spheres": {
      "casterProgression": "mid"
    }
  },
  "system": {
    "description": {
      "value": "Emulating powerful and perilous creatures such as ghosts and shadow demons, wraiths gain the power to fade into the ether. A diverse group, each wraith is attuned to certain types of creatures or states of mind. This attunement can be exploited to seize control, turning foes into puppets. Some gain their talents from exposure to possessing entities, others obtain their power as part of returning from death themselves, or via other, more esoteric, paths.\n<p><strong>Role:</strong> Eerie casters able to slip out of phase with reality and leap into susceptible minds, seizing control, making them perfect for infiltration and espionage.</p>\n<p><strong>Alignment:</strong> Any</p>\n<p><strong>Hit Die:</strong> d8</p>\n<p><strong>Starting Wealth:</strong> 3d6 x 10 gp (average 105 gp). In addition, each character begins play with an outfit worth 10 gp or less.</p>\n<p><strong>Class Skills:</strong> Bluff (Cha), Craft (Int), Disguise (Cha), Fly (Dex), Intimidate (Cha), Knowledge (arcana) (Int), Knowledge (history) (Int), Knowledge (nobility) (Int), Knowledge (religion) (Int), Linguistics (Int), Perception (Wis), Profession (Wis), Sense Motive (Wis), Spellcraft (Int), Stealth (Dex), Use Magic Device (Cha).</p>\n<p><strong>Skill Ranks Per Level:</strong> 4 + Int modifier</p>\n",
      "unidentified": ""
    },
    "tags": [],
    "changes": [],
    "changeFlags": {
      "loseDexToAC": false,
      "noEncumbrance": false,
      "mediumArmorFullSpeed": false,
      "heavyArmorFullSpeed": false
    },
    "links": {
      "children": [],
      "classAssociations": [
        {
          "name": "Weapon and Armor Proficiencies",
          "level": 1,
          "_index": 0,
          "uuid": "Compendium.pf1spheres.class-features.wu8LKUnWbIOEfOz5"
        },
        {
          "name": "Casting (Wraith)",
          "level": 1,
          "_index": 1,
          "uuid": "Compendium.pf1spheres.class-features.qjxhDJ6DHrQdMmxO"
        },
        {
          "name": "Spell Pool (Wraith)",
          "level": 1,
          "_index": 2,
          "uuid": "Compendium.pf1spheres.class-features.CCO6fnN9lnTRPeus"
        },
        {
          "name": "Magic Talents (Wraith)",
          "level": 1,
          "_index": 3,
          "uuid": "Compendium.pf1spheres.class-features.qobC1BfGt3IZxVGJ"
        },
        {
          "name": "Haunt Path",
          "level": 1,
          "_index": 4,
          "uuid": "Compendium.pf1spheres.class-features.Rre7ofzGROCWag3d"
        },
        {
          "name": "Wraith Form Mastery",
          "level": 1,
          "_index": 5,
          "uuid": "Compendium.pf1spheres.class-features.S5SxrTHPALZSASue"
        },
        {
          "name": "Possession",
          "level": 2,
          "_index": 6,
          "uuid": "Compendium.pf1spheres.class-features.jD36VABy9AbiyHrz"
        },
        {
          "name": "Wraith Haunts",
          "level": 1,
          "_index": 7,
          "uuid": "Compendium.pf1spheres.class-features.Fp75YxemiGRqXZBV"
        },
        {
          "name": "Greater Possession",
          "level": 10,
          "_index": 8,
          "uuid": "Compendium.pf1spheres.class-features.nL5TIp4uVHHqOx5n"
        },
        {
          "name": "Wraith Form Mastery",
          "level": 20,
          "_index": 9,
          "uuid": "Compendium.pf1spheres.class-features.S5SxrTHPALZSASue"
        }
      ]
    },
    "tag": "wraith",
    "useCustomTag": false,
    "armorProf": {
      "value": [],
      "custom": ""
    },
    "weaponProf": {
      "value": [],
      "custom": ""
    },
    "languages": {
      "value": [],
      "custom": ""
    },
    "flags": {
      "boolean": {},
      "dictionary": {}
    },
    "scriptCalls": [],
    "subType": "base",
    "level": 1,
    "hd": 8,
    "hp": 8,
    "bab": "med",
    "skillsPerLevel": 4,
    "savingThrows": {
      "fort": {
        "value": "low"
      },
      "ref": {
        "value": "high"
      },
      "will": {
        "value": "high"
      }
    },
    "fc": {
      "hp": {
        "value": 0
      },
      "skill": {
        "value": 0
      },
      "alt": {
        "value": 0,
        "notes": ""
      }
    },
    "classSkills": {
      "acr": false,
      "apr": false,
      "art": true,
      "blf": false,
      "clm": false,
      "crf": true,
      "dip": false,
      "dev": false,
      "dis": true,
      "esc": false,
      "fly": true,
      "han": false,
      "hea": false,
      "int": true,
      "kar": true,
      "kdu": false,
      "ken": false,
      "kge": false,
      "khi": true,
      "klo": false,
      "kna": false,
      "kno": true,
      "kpl": false,
      "kre": true,
      "lin": true,
      "lor": false,
      "per": true,
      "prf": false,
      "pro": true,
      "rid": false,
      "sen": true,
      "slt": false,
      "spl": true,
      "ste": true,
      "sur": false,
      "swm": false,
      "umd": true
    },
    "customHD": "",
    "classType": "base"
  },
  "ownership": {
    "default": 0
  },
  "_stats": {
    "systemId": "pf1",
    "systemVersion": "9.0",
    "coreVersion": "10.291",
    "createdTime": 1663168899465,
    "modifiedTime": 1689623925739,
    "lastModifiedBy": "pf1spheres-db000"
  }
}
