{
  "_id": "PLUeOH1RNweMdDcW",
  "name": "Beastmastery",
  "folder": null,
  "sort": 0,
  "flags": {
    "pf1spheres": {
      "sphere": "beastmastery"
    }
  },
  "pages": [
    {
      "name": "Beastmastery",
      "type": "text",
      "title": {
        "show": false,
        "level": 1
      },
      "text": {
        "format": 1,
        "content": "<img src=\"modules/pf1spheres/assets/icons/spheres/beastmastery.webp\" style=\"float:right;border:none;outline:none\" />The Beastmastery sphere focuses on all forms of animal handling.\n<p>Unlike most other spheres which rest squarely on the related core rules, talents and abilities granted by the Beastmastery sphere override certain skill functions (particularly Handle Animal and Ride). No additional checks are required outside of those listed in the associated ability. Some abilities call out joint actions. These actions require both the user and his animal ally to pay the requisite action cost.</p>\n<p><strong>Animal Allies:</strong> Some talents and abilities reference animal allies; your animal companions, familiars, tame creatures, and any creature actively serving as your mount with an Intelligence score of 2 or less are considered your animal allies. Animal allies always act on your initiative.</p>\n<p><strong>Special:</strong> Animal companions, Conjuration sphere companions, drake companions, eidolons, and familiars cannot gain this sphere or talents from this sphere.</p>\n<p>When you first take the Beastmastery sphere, choose one of the following packages: Handle Animal or Ride. Talents possessing a tag or tags matching one of the Beastmastery packages cannot be taken unless you possess one of the tagged packages.</p>\n<h1 id=\"toc0\"><span><span style=\"color:#993300\">Beastmastery Packages</span></span></h1>\n<h3 id=\"toc1\"><span><span style=\"color:#993300\">Handle Animal</span></span></h3>\n<p>You gain 5 ranks in the Handle Animal skill, plus 5 ranks per talent spent in the Beastmastery sphere (maximum equal to your total Hit Dice). If you already have ranks in Handle Animal you may immediately retrain them. You do not get to retrain skill ranks when only gaining Beastmastery sphere talents as temporary talents, such as through the armiger’s customized weapons class feature or the brawler’s martial flexibility ability. Talents with the (handle animal) tag grant new ways to tame and train your animal allies. Talents with the (handle animal) tag substitute your ranks in Handle Animal for your base attack bonus when determining the saving throw DC of those talents (10 + 1/2 your ranks in Handle Animal + your practitioner modifier) unless otherwise stated.</p>\n<p>You also gain the following ability:</p>\n<h4 id=\"toc2\"><span>Tame</span></h4>\n<p>You may attempt to train an animal to readily obey your commands in and out of combat. This requires 8 hours and a creature of the animal type that has an attitude toward you of indifferent or better. This time may be divided as per the magic item crafting rules. You may only train one creature at a time with this ability. At the end of this period, make a Handle Animal check with a DC of 10 + the creature’s Hit Dice. If successful, the creature is now considered tame.</p>\n<p>You may not tame a creature with more Hit Dice than you have ranks in Handle Animal. You may have multiple tame creatures under your control, but their total Hit Dice cannot exceed your ranks in Handle Animal. If you attempt to tame a creature that would exceed your Hit Dice cap, you must choose which other creatures to release. Animal companions and familiars, such as from class features, the Animal Companion talent, or the Pet talent, never count against this Hit Dice cap.</p>\n<p>You may not use this ability on a creature with the swarm subtype. A creature with a template adds the challenge rating adjustment of the template to its HD (minimum increase +0) for determining if you may tame it and for how many creatures you can have tame. Variant creatures with increased challenge ratings (such as a pyrohydra compared to a normal hydra, if using the Broad Skills talent), treats the challenge rating increase of the variant as if it were a template for this purpose. A creature whose permanent Intelligence score is raised above 2 is no longer a valid target for this ability and is automatically released. This effect ends if you go two full days without spending at least 1 hour training your tame creatures.</p>\n<p>This is treated as an extraordinary mind-affecting compulsion effect for the purposes of opposed control checks, such as another compulsion effect affecting your tame creature. Use your ranks in Handle Animal in place of your caster level for the opposed check.</p>\n<h3 id=\"toc3\"><span><span style=\"color:#993300\">Ride</span></span></h3>\n<p>You gain 5 ranks in the Ride skill, plus 5 ranks per talent spent in the Beastmastery sphere (maximum equal to your total Hit Dice). If you already have ranks in Ride you may immediately retrain them. You do not get to retrain skill ranks when only gaining Beastmastery sphere talents as temporary talents, such as through the armiger’s customized weapons class feature or the brawler’s martial flexibility ability. When using the handle or push functions of the Handle Animal skill on a creature you are mounted on, you may substitute your Ride skill modifier for your Handle Animal skill modifier.</p>\n<p>Talents with the (ride) tag grant new ways to interact with your mount. Talents with the (ride) tag substitute your ranks in Ride for your base attack bonus when determining the saving throw DC of those talents (10 + 1/2 your ranks in Ride + your practitioner modifier) unless otherwise stated.</p>\n<p>Additionally, you gain the following ability:</p>\n<h4 id=\"toc4\"><span>Defensive Rider</span></h4>\n<p>When your mount is targeted by an attack or subject to a Reflex save, you may spend an attack of opportunity to make a Ride check and use the result in place of your mount’s AC or Reflex save result, if higher. <strong>Associated Feat:</strong> Mounted Combat.</p>\n<hr /><br />\n<br /><b>Beastmastery Talents</b><br /><ul>\n<li>@Compendium[pf1spheres.combat-talents.kivPTMfIa6ijmmvQ]{Accomplice}</li>\n<li>@Compendium[pf1spheres.combat-talents.gjNuNdPtew31bOAt]{Animal Companion}</li>\n<li>@Compendium[pf1spheres.combat-talents.8ATRNMajPOjRQmp6]{Armored Charge}</li>\n<li>@Compendium[pf1spheres.combat-talents.dPt4jZbxLH6l2oAN]{Armored Mount}</li>\n<li>@Compendium[pf1spheres.combat-talents.xIGvDUxXNgQhfIcS]{Coordinated Attack}</li>\n<li>@Compendium[pf1spheres.combat-talents.eZAbFk82Cj2xh8eE]{Defensive Teamwork}</li>\n<li>@Compendium[pf1spheres.combat-talents.oA4fQRNQfV0Php6F]{Double Team}</li>\n<li>@Compendium[pf1spheres.combat-talents.p38Gn4cfFm5xTvFg]{Extra Beastmastery Package}</li>\n<li>@Compendium[pf1spheres.combat-talents.alTQ4uhWsbNQqq0V]{Faithful Friend}</li>\n<li>@Compendium[pf1spheres.combat-talents.X8YjPPqVvplvGoYr]{Focusing Connection}</li>\n<li>@Compendium[pf1spheres.combat-talents.VMhanwvfnK5xoh9A]{Lookout}</li>\n<li>@Compendium[pf1spheres.combat-talents.Ft4agj5dWoslpcAB]{Pack Attack}</li>\n<li>@Compendium[pf1spheres.combat-talents.phCKbFtnLU80FK4n]{Pet}</li>\n<li>@Compendium[pf1spheres.combat-talents.f4JH5UlnXzgqsqkv]{Rapid Handle}</li>\n<li>@Compendium[pf1spheres.combat-talents.9x9lPa4F3YeCw7MS]{Steady Handler}</li>\n<li>@Compendium[pf1spheres.combat-talents.OAjDyquEFmwurbOr]{Two As One}</li>\n</ul><br /><b>Handle Animal Talents</b><br /><ul>\n<li>@Compendium[pf1spheres.combat-talents.Xc0ZMvJlLjemaCH9]{Animal Empathy}</li>\n<li>@Compendium[pf1spheres.combat-talents.LbvvPv8spxDqxQFw]{Bee Keeper}</li>\n<li>@Compendium[pf1spheres.combat-talents.a9jFNYHEc2pqlnla]{Bolster Beast}</li>\n<li>@Compendium[pf1spheres.combat-talents.f9QBhWdiARYrY567]{Broad Skills}</li>\n<li>@Compendium[pf1spheres.combat-talents.qTV9an2bWkFtWQYZ]{Greater Trainer}</li>\n<li>@Compendium[pf1spheres.combat-talents.I4f4kWUv1m9bImqa]{Hands-On Handler}</li>\n<li>@Compendium[pf1spheres.combat-talents.b8qYYAl2sqMZ82t6]{Mass Handle}</li>\n<li>@Compendium[pf1spheres.combat-talents.Hg4tx4iFAJjZupZu]{Purposeful Training}</li>\n</ul><br /><b>Ride Talents</b><br /><ul>\n<li>@Compendium[pf1spheres.combat-talents.dJqbCNixh2Cp0XQz]{Acrobatic Mount}</li>\n<li>@Compendium[pf1spheres.combat-talents.INJJVzlCd9oJFi5n]{Barding Expertise}</li>\n<li>@Compendium[pf1spheres.combat-talents.8BlF92fH0pIKw20B]{Bronco Buster}</li>\n<li>@Compendium[pf1spheres.combat-talents.KjhEAW3p8uzuhTGh]{Frenzy Rider}</li>\n<li>@Compendium[pf1spheres.combat-talents.LQmv2mIez7QuMMXG]{Guided Maneuvers}</li>\n<li>@Compendium[pf1spheres.combat-talents.kISTAgjixPxFAmWn]{Knock Down}</li>\n<li>@Compendium[pf1spheres.combat-talents.pVt58KWBHGPyWCSU]{Leaping Rider}</li>\n<li>@Compendium[pf1spheres.combat-talents.2bKesX5pDseAs566]{Meat Shield}</li>\n<li>@Compendium[pf1spheres.combat-talents.WPL3FmYz0XxIPXeu]{Run Down}</li>\n<li>@Compendium[pf1spheres.combat-talents.NIEJe963ioxcmqwE]{Skirmish Rider}</li>\n<li>@Compendium[pf1spheres.combat-talents.4aWvpvWrboL9W7XQ]{Vaulting Flank}</li>\n<li>@Compendium[pf1spheres.combat-talents.lZZzW7RQMvNaE6qo]{Wild Rider}</li>\n</ul><br /><b>Legendary Talents</b><br /><ul>\n<li>@Compendium[pf1spheres.combat-talents.P3xf8YBK9pIEa5HY]{Beast Tamer}</li>\n<li>@Compendium[pf1spheres.combat-talents.fjRomzuflLxXpGj9]{Call Beast}</li>\n<li>@Compendium[pf1spheres.combat-talents.B7rjcim8gmkBGxwO]{Carry Companion}</li>\n<li>@Compendium[pf1spheres.combat-talents.iOFgZOm0DrSYp609]{Distant Tamer}</li>\n<li>@Compendium[pf1spheres.combat-talents.GXND0MgmIBVxuVYs]{Enduring Control}</li>\n<li>@Compendium[pf1spheres.combat-talents.zLsjtTvAf26Yx67u]{Improved Animal Companion}</li>\n<li>@Compendium[pf1spheres.combat-talents.UrGrhh7UVVs6hPSk]{Improved Pet}</li>\n<li>@Compendium[pf1spheres.combat-talents.3UZsjO254KeU2dWR]{Lions And Wardrobes}</li>\n<li>@Compendium[pf1spheres.combat-talents.l6jfW2PDubScYV8R]{Mass Tame}</li>\n<li>@Compendium[pf1spheres.combat-talents.sZgHcy6zkTg2hLLM]{Mindless Mastery}</li>\n<li>@Compendium[pf1spheres.combat-talents.59uAFjfDlmWvLl0k]{Monster Breaker}</li>\n<li>@Compendium[pf1spheres.combat-talents.KGUP43ihpaP5Rz1X]{Perfect Rider}</li>\n<li>@Compendium[pf1spheres.combat-talents.rlQJbCAx9xgeMljk]{Permanent Control}</li>\n<li>@Compendium[pf1spheres.combat-talents.6V9jUQ5L7MfOxsFF]{Wild Speaker}</li></ul>"
      },
      "_id": "cZpf0zh9Rs2yk14N",
      "image": {},
      "video": {
        "controls": true,
        "volume": 0.5
      },
      "src": null,
      "system": {},
      "sort": 0,
      "ownership": {
        "default": -1
      },
      "flags": {}
    }
  ],
  "ownership": {
    "default": 0
  },
  "_stats": {
    "systemId": "pf1",
    "systemVersion": "0.82.2",
    "coreVersion": "10.285",
    "createdTime": 1663169292929,
    "modifiedTime": 1663181691508,
    "lastModifiedBy": "pf1spheres-db000"
  }
}
