{
  "_id": "ihz9mcLWCmdEm3et",
  "name": "Dual Wielding",
  "folder": null,
  "sort": 0,
  "flags": {
    "pf1spheres": {
      "sphere": "dualWielding"
    }
  },
  "pages": [
    {
      "name": "Dual Wielding",
      "type": "text",
      "title": {
        "show": false,
        "level": 1
      },
      "text": {
        "format": 1,
        "content": "<img src=\"modules/pf1spheres/assets/icons/spheres/dual_wielding.webp\" style=\"float:right;border:none;outline:none\" />Dual wielders train in ambidextrous techniques that allow them to wield double weapons or two weapons simultaneously. Whether blending sword and dagger or spinning a double-bladed sword through a dazzling attack routine, few warriors are as awesome to behold as practitioners of the Dual Wielding sphere.\n<h2 id=\"toc0\"><span><span style=\"color:#993300\">Dual Attack</span></span></h2>\n<p>Whenever you make an attack action with a light or one-handed weapon, you can make an additional attack with a light or one-handed weapon held in your off-hand, though both attacks take a -2 penalty on their attack rolls when doing so; only your initial main hand attack qualifies as an attack action, and the additional attack cannot be made with the same weapon as your initial main hand attack. Your off-hand attack only applies 1/2 your Strength modifier, and if your off-hand attack is made with anything other than a light weapon, both attacks take an additional -2 penalty. <strong>Associated Feat:</strong> Two-Weapon Fighting</p>\n<hr /><br />\n<br /><b>Dual Wielding Talents</b><br /><ul>\n<li>@Compendium[pf1spheres.combat-talents.JaK5IIJSTblZbQXG]{Asynchronous Swing}</li>\n<li>@Compendium[pf1spheres.combat-talents.hf2XuAbHxscrCNmG]{Balanced Blows}</li>\n<li>@Compendium[pf1spheres.combat-talents.09RQn2BgaVoXvINx]{Combo Maneuvers}</li>\n<li>@Compendium[pf1spheres.combat-talents.Ndsz2Yk5rY2J3h6j]{Concentrated Breakdown}</li>\n<li>@Compendium[pf1spheres.combat-talents.oRoG1j54kxlmTsxr]{Critical Follow Up}</li>\n<li>@Compendium[pf1spheres.combat-talents.YNhCdIE6bNeorrhI]{Crushing Combo}</li>\n<li>@Compendium[pf1spheres.combat-talents.UAsaq5jxTUgHMEyR]{Cunning Combo}</li>\n<li>@Compendium[pf1spheres.combat-talents.15Vd3kZwn4br7QlR]{Dancing Display}</li>\n<li>@Compendium[pf1spheres.combat-talents.7BvdxuwpPsMGthj9]{Defensive Whirl}</li>\n<li>@Compendium[pf1spheres.combat-talents.CRLAu1as3wH6CnKX]{Drumroll}</li>\n<li>@Compendium[pf1spheres.combat-talents.GbyRLQ8xsuD9TPsA]{Dizzying Combination}</li>\n<li>@Compendium[pf1spheres.combat-talents.yu1mvAv1RKh9ACI8]{Dual Opportunity}</li>\n<li>@Compendium[pf1spheres.combat-talents.zrwXj5S2FUFRzMh1]{Focusing Defense}</li>\n<li>@Compendium[pf1spheres.combat-talents.blby91DzfUOhXZ4W]{Following Strike}</li>\n<li>@Compendium[pf1spheres.combat-talents.fHn5RY34aH7tzlsC]{Gemini Dancer}</li>\n<li>@Compendium[pf1spheres.combat-talents.noXIVOJciBNIynM4]{High-Low Combination}</li>\n<li>@Compendium[pf1spheres.combat-talents.cVssms8VZdNysEAg]{Impossible Reload}</li>\n<li>@Compendium[pf1spheres.combat-talents.FFyAeEj1whLZFnne]{Mercurial Flow}</li>\n<li>@Compendium[pf1spheres.combat-talents.eJoXU750sdO3S3Vc]{Mixed Assault}</li>\n<li>@Compendium[pf1spheres.combat-talents.vRBhmcdI2C9z9oKl]{Mixed Defense}</li>\n<li>@Compendium[pf1spheres.combat-talents.DuMcqkr1YPlq591B]{Offhand Parry}</li>\n<li>@Compendium[pf1spheres.combat-talents.lzajiok6z6uZ7a02]{Paired Proficiency}</li>\n<li>@Compendium[pf1spheres.combat-talents.uTiwzM5tmpIDt2V0]{Perfect Set-Up}</li>\n<li>@Compendium[pf1spheres.combat-talents.F6gmr3ec2Pr5iwLk]{Repositioning Routine}</li>\n<li>@Compendium[pf1spheres.combat-talents.37sgHwoNA2TaDzjO]{Snapping Crab}</li>\n<li>@Compendium[pf1spheres.combat-talents.UFUIvPS8hKWNQlre]{Strategic Set-Up}</li>\n<li>@Compendium[pf1spheres.combat-talents.L56NEV3vpLwMIKdI]{Synchronous Accuracy}</li>\n<li>@Compendium[pf1spheres.combat-talents.cmgaekvuDiNt0qPs]{Tandem Offensive}</li>\n<li>@Compendium[pf1spheres.combat-talents.hS72nSKM5VMaSUva]{Two In The Hand}</li>\n</ul><br /><b>Legendary Talents</b><br /><ul>\n<li>@Compendium[pf1spheres.combat-talents.LGZtjCGrOpLI7Scl]{Cyclone Cut}</li>\n<li>@Compendium[pf1spheres.combat-talents.oirGrmfW2QIjImmO]{Hurricane Twist}</li>\n<li>@Compendium[pf1spheres.combat-talents.UWX6P0gEiszHqRIW]{Spinning Reflection}</li>\n<li>@Compendium[pf1spheres.combat-talents.muTvNoViBDGnZ6Kv]{Tandem Enchantment}</li>\n<li>@Compendium[pf1spheres.combat-talents.737GG6O643s8h1F5]{Three-Sword Style}</li></ul>"
      },
      "_id": "rwizDxEVgYVqGsJl",
      "image": {},
      "video": {
        "controls": true,
        "volume": 0.5
      },
      "src": null,
      "system": {},
      "sort": 0,
      "ownership": {
        "default": -1
      },
      "flags": {}
    }
  ],
  "ownership": {
    "default": 0
  },
  "_stats": {
    "systemId": "pf1",
    "systemVersion": "0.82.2",
    "coreVersion": "10.285",
    "createdTime": 1663169292939,
    "modifiedTime": 1663181691559,
    "lastModifiedBy": "pf1spheres-db000"
  }
}
