{
  "_id": "0nD1JIofyAxUolTm",
  "name": "Equipment",
  "folder": null,
  "sort": 0,
  "flags": {
    "pf1spheres": {
      "sphere": "equipment"
    }
  },
  "pages": [
    {
      "name": "Equipment",
      "type": "text",
      "title": {
        "show": false,
        "level": 1
      },
      "text": {
        "format": 1,
        "content": "<img src=\"modules/pf1spheres/assets/icons/spheres/equipment.webp\" style=\"float:right;border:none;outline:none\" /><br />\n<br /><b>Equipment Talents</b><br /><ul>\n<li>@Compendium[pf1spheres.combat-talents.WI8rC2BlcQ8Qz768]{Armor Expert}</li>\n<li>@Compendium[pf1spheres.combat-talents.UpWRgYimlwBm7rkf]{Armor Training}</li>\n<li>@Compendium[pf1spheres.combat-talents.VnTOS4ApnoSuLWUO]{Armored Defense}</li>\n<li>@Compendium[pf1spheres.combat-talents.6riQAseLvS7XGui2]{Armored Deflection}</li>\n<li>@Compendium[pf1spheres.combat-talents.Qgx5sgyT5Ne46DRE]{Armored Evasion}</li>\n<li>@Compendium[pf1spheres.combat-talents.cs0Hxi3S04oBrARH]{Arcane Armor}</li>\n<li>@Compendium[pf1spheres.combat-talents.wfQaO7Qmx8rEbgej]{Balanced Defense}</li>\n<li>@Compendium[pf1spheres.combat-talents.J3rOQ1sr2Th5zRh2]{Battle Ready Armor}</li>\n<li>@Compendium[pf1spheres.combat-talents.gPWglxIyIbjwsPyO]{Bowling Bolas}</li>\n<li>@Compendium[pf1spheres.combat-talents.Miy1ooNqrvIkjIYE]{Cavalry Ready}</li>\n<li>@Compendium[pf1spheres.combat-talents.tBz7IIh7xgTudVuR]{Cloth Snake Puppetry}</li>\n<li>@Compendium[pf1spheres.combat-talents.Ldb9n7OZtuNsUDLj]{Cold-Weather Adaptation}</li>\n<li>@Compendium[pf1spheres.combat-talents.SsGNYiWrG4UYU3UU]{Craftsman}</li>\n<li>@Compendium[pf1spheres.combat-talents.1xafcqc4bggaA25C]{Critical Genius}</li>\n<li>@Compendium[pf1spheres.combat-talents.SSkeXW8ovAlTKpHI]{Crushing Thrower}</li>\n<li>@Compendium[pf1spheres.combat-talents.LExD1AZDFTdZXFQh]{Dagger Bravo}</li>\n<li>@Compendium[pf1spheres.combat-talents.mfsa3ZOBkOOZ5bBk]{Dagger Dancer}</li>\n<li>@Compendium[pf1spheres.combat-talents.4CnWOph1PzG0VK8r]{Dual Blade Savant}</li>\n<li>@Compendium[pf1spheres.combat-talents.NQGU3BCBhLB0vjC2]{Duelist’s Grip}</li>\n<li>@Compendium[pf1spheres.combat-talents.cQOnWprog98VH103]{Expert Reloading}</li>\n<li>@Compendium[pf1spheres.combat-talents.fZMI9AmvhF4LD4NK]{Fast Draw}</li>\n<li>@Compendium[pf1spheres.combat-talents.8YzsFvi2J2b5Zsku]{Finesse Fighting}</li>\n<li>@Compendium[pf1spheres.combat-talents.J0fo7i5G3hw3WOBB]{Garrote Grappler}</li>\n<li>@Compendium[pf1spheres.combat-talents.zntMQZsPcLwG1VZM]{Gauntlet Shield}</li>\n<li>@Compendium[pf1spheres.combat-talents.CDmxljpQlS8AczfK]{Guarded Combatant}</li>\n<li>@Compendium[pf1spheres.combat-talents.sdGrHIos1BfGCHNf]{Gun Kata}</li>\n<li>@Compendium[pf1spheres.combat-talents.4Q7S4jnfZODO1TUB]{Immovable Object}</li>\n<li>@Compendium[pf1spheres.combat-talents.Dr4rkQIwCNojScSa]{Mechanical Savant}</li>\n<li>@Compendium[pf1spheres.combat-talents.Y5rxTiRbmmiLDWKr]{Natural Materials}</li>\n<li>@Compendium[pf1spheres.combat-talents.LdOS3666w46jcGSI]{Net Master}</li>\n<li>@Compendium[pf1spheres.combat-talents.2U5WNVsac2x2xsDe]{Palm Throw}</li>\n<li>@Compendium[pf1spheres.combat-talents.xgiVKnlsy6o5FLKV]{Particle Blade Emulation}</li>\n<li>@Compendium[pf1spheres.combat-talents.iPLmnT2LkLaxGii2]{Polearm Mastery}</li>\n<li>@Compendium[pf1spheres.combat-talents.8GDWPDhZoKG1Ejgv]{Shield Expert}</li>\n<li>@Compendium[pf1spheres.combat-talents.aAGGRPn6oM0drqIK]{Shortbow Mastery}</li>\n<li>@Compendium[pf1spheres.combat-talents.K2aOYnL9omq2dK7x]{Skin of Steel}</li>\n<li>@Compendium[pf1spheres.combat-talents.if9kdRLJ51zK9zDo]{Sling Combatant}</li>\n<li>@Compendium[pf1spheres.combat-talents.peZoS5c7Jl0Ivqku]{Small Arms}</li>\n<li>@Compendium[pf1spheres.combat-talents.I7ai2b04P8B8bUKY]{Spear Dancer}</li>\n<li>@Compendium[pf1spheres.combat-talents.TI4hotjeoM9lslcn]{Spiked Defense}</li>\n<li>@Compendium[pf1spheres.combat-talents.19NkUUHy9W3MrR4L]{Splitshot}</li>\n<li>@Compendium[pf1spheres.combat-talents.uK06HI9OgzsBaUMe]{Staff Mastery}</li>\n<li>@Compendium[pf1spheres.combat-talents.iw6kOfkyjxkVzR3k]{Steady Shooting}</li>\n<li>@Compendium[pf1spheres.combat-talents.FhNVfwduqBslNd2n]{Steel Martyr}</li>\n<li>@Compendium[pf1spheres.combat-talents.17Gh4ZiNpoZeoFVZ]{Throw Bash}</li>\n<li>@Compendium[pf1spheres.combat-talents.Bu6X2GOL2ycHuCEY]{Throwing Mastery}</li>\n<li>@Compendium[pf1spheres.combat-talents.gtgDpO2jSUWAa9DF]{Thrower’s Reflexes}</li>\n<li>@Compendium[pf1spheres.combat-talents.Wk2BUvtdwhs7YkDZ]{Tower Shield Mastery}</li>\n<li>@Compendium[pf1spheres.combat-talents.Q9gmGek5Oj6Ale67]{Unarmored Training}</li>\n<li>@Compendium[pf1spheres.combat-talents.FnceC9mcDVaQjozc]{Unfettering Armor}</li>\n<li>@Compendium[pf1spheres.combat-talents.PU1RKiTxu79sBvhA]{Unorthodox Firing}</li>\n<li>@Compendium[pf1spheres.combat-talents.W1zarl4qt1aZiiQ0]{Unstoppable Force}</li>\n<li>@Compendium[pf1spheres.combat-talents.zPiXj0B0HnZ0wySW]{Versatile Fighter}</li>\n<li>@Compendium[pf1spheres.combat-talents.tG4bhfMDcEp5DXMn]{Versatile Shield}</li>\n<li>@Compendium[pf1spheres.combat-talents.Hn6163isik2q3gz9]{Weaponmaster}</li>\n<li>@Compendium[pf1spheres.combat-talents.7Nqj26ONEHIjgADr]{Whip Fiend}</li>\n</ul><br /><b>Discipline Talents</b><br /><ul>\n<li>@Compendium[pf1spheres.combat-talents.a1j1uZg4BgtszLZo]{Archery Bash}</li>\n<li>@Compendium[pf1spheres.combat-talents.WwzNEuYegz9W4Xe0]{Bounty Hunter’s Tools}</li>\n<li>@Compendium[pf1spheres.combat-talents.vj4ktgTZXTW85032]{Bushido Training}</li>\n<li>@Compendium[pf1spheres.combat-talents.joLzFRFnTnjbvA7q]{Caber Toss}</li>\n<li>@Compendium[pf1spheres.combat-talents.wm8sjlmpf9EheJQE]{Catfolk Training}</li>\n<li>@Compendium[pf1spheres.combat-talents.pYmT6KYD6ZZbHAJB]{Custom Training}</li>\n<li>@Compendium[pf1spheres.combat-talents.3oVlfQ8JLxaXR1ws]{Dancer Training}</li>\n<li>@Compendium[pf1spheres.combat-talents.qd2vuyUjNGtnuFW7]{Deep Fighter Training}</li>\n<li>@Compendium[pf1spheres.combat-talents.aL9gANj4S1MapveQ]{Double Weapon Training}</li>\n<li>@Compendium[pf1spheres.combat-talents.k8woFcKJGTVxzban]{Duelist Training}</li>\n<li>@Compendium[pf1spheres.combat-talents.LNNtPW89Hi4bAnl8]{Dwarven Heritage}</li>\n<li>@Compendium[pf1spheres.combat-talents.LntBZS68BRDaby7a]{Elvish Heritage}</li>\n<li>@Compendium[pf1spheres.combat-talents.OHCIFJw9WwsfGvcT]{Enforcer Training}</li>\n<li>@Compendium[pf1spheres.combat-talents.4ORT1agzlr7n4MGz]{Firearm Proficiency}</li>\n<li>@Compendium[pf1spheres.combat-talents.CQO1IF9tyC9EJi40]{Gallowglass Training}</li>\n<li>@Compendium[pf1spheres.combat-talents.ddJWhIF8NDeWyRsV]{Gladiator Training}</li>\n<li>@Compendium[pf1spheres.combat-talents.3K2JB43qRP0MjOGl]{Gnomish Heritage}</li>\n<li>@Compendium[pf1spheres.combat-talents.j36KgyeQG5WeZzoN]{Goblin Heritage}</li>\n<li>@Compendium[pf1spheres.combat-talents.LSOZ2VuTK8s4id1R]{Halfling Heritage}</li>\n<li>@Compendium[pf1spheres.combat-talents.3dJhwaF2QlOgCFHz]{Huntsman Training}</li>\n<li>@Compendium[pf1spheres.combat-talents.otQ8HtyAl7n1wdAc]{Knightly Training}</li>\n<li>@Compendium[pf1spheres.combat-talents.xIFgsDifVccYC8EO]{Mechanical Training}</li>\n<li>@Compendium[pf1spheres.combat-talents.6CoKPE450o9wgAMP]{Medical Malpractice}</li>\n<li>@Compendium[pf1spheres.combat-talents.4IBQJtqympNu8pqR]{Monk Weapon Training}</li>\n<li>@Compendium[pf1spheres.combat-talents.2b2KOyoBf3Wh7OB9]{Ninjutsu Training}</li>\n<li>@Compendium[pf1spheres.combat-talents.7fiadFL6lsAOU0GS]{Orc Heritage}</li>\n<li>@Compendium[pf1spheres.combat-talents.P1Uqi4Ebwp0Ao72y]{Outrider Training}</li>\n<li>@Compendium[pf1spheres.combat-talents.u3ymi8rLooN79WlB]{Peasant Training}</li>\n<li>@Compendium[pf1spheres.combat-talents.34iPsKRwRdVTYmk3]{Pikeman Training}</li>\n<li>@Compendium[pf1spheres.combat-talents.JH4cdz74ymFD6mTO]{Pirate Training}</li>\n<li>@Compendium[pf1spheres.combat-talents.2X9P1QAEkqXLF5Ps]{Rock Toss}</li>\n<li>@Compendium[pf1spheres.combat-talents.BcwpRBFytfcCHmwm]{Rogue Weapon Training}</li>\n<li>@Compendium[pf1spheres.combat-talents.Z5WoRLXHHlTRMAju]{Shield Training}</li>\n<li>@Compendium[pf1spheres.combat-talents.WuGre7KAqKZMFoNH]{Swashbuckler Training}</li>\n<li>@Compendium[pf1spheres.combat-talents.QTdCSgtjgYlpjAw6]{Techmaniac}</li>\n<li>@Compendium[pf1spheres.combat-talents.VzIPgVtoiqqOtocO]{Toolkit Training}</li>\n<li>@Compendium[pf1spheres.combat-talents.MH51eZGy0SS9twnw]{Tribal Training}</li>\n<li>@Compendium[pf1spheres.combat-talents.4Po2ZizFoSYRbtyz]{Unarmed Training}</li>\n</ul><br /><b>Legendary Talents</b><br /><ul>\n<li>@Compendium[pf1spheres.combat-talents.oRz8lJENPYkOvo6Y]{Adamantine Bulwark}</li>\n<li>@Compendium[pf1spheres.combat-talents.9xMd5l9lZH5ViOYi]{Armored Armaments}</li>\n<li>@Compendium[pf1spheres.combat-talents.e5xOJu7hU1d6Vtzr]{Force Redirection Technique}</li>\n<li>@Compendium[pf1spheres.combat-talents.xn64jbmNi67nPNo1]{Get Over Here!}</li>\n<li>@Compendium[pf1spheres.combat-talents.keFuuRrgEobl8nsq]{Magic Armor}</li>\n<li>@Compendium[pf1spheres.combat-talents.BRgjC91Mt6ap67a3]{Oversized Weapons}</li>\n<li>@Compendium[pf1spheres.combat-talents.Q9rWIJxh3IveFm1F]{Stable Shooter}</li>\n<li>@Compendium[pf1spheres.combat-talents.yuppOeh6u8cnWKwv]{Sword Shooter}</li>\n<li>@Compendium[pf1spheres.combat-talents.CX0MGCB24cHAwvtN]{Titan’s Shield}</li></ul>"
      },
      "_id": "OvqUMfEKwrSvRiga",
      "image": {},
      "video": {
        "controls": true,
        "volume": 0.5
      },
      "src": null,
      "system": {},
      "sort": 0,
      "ownership": {
        "default": -1
      },
      "flags": {}
    }
  ],
  "ownership": {
    "default": 0
  },
  "_stats": {
    "systemId": "pf1",
    "systemVersion": "0.82.2",
    "coreVersion": "10.285",
    "createdTime": 1663169292924,
    "modifiedTime": 1663181691400,
    "lastModifiedBy": "pf1spheres-db000"
  }
}
