{
  "_id": "Cpfxf2bC9k6vYlzm",
  "name": "Open Hand",
  "folder": null,
  "sort": 0,
  "flags": {
    "pf1spheres": {
      "sphere": "openHand"
    }
  },
  "pages": [
    {
      "name": "Open Hand",
      "type": "text",
      "title": {
        "show": false,
        "level": 1
      },
      "text": {
        "format": 1,
        "content": "<img src=\"modules/pf1spheres/assets/icons/spheres/open_hand.webp\" style=\"float:right;border:none;outline:none\" />Masters of unarmed combat, Open Hand practitioners are known for their varied styles and unorthodox combat technique. Open Hand practitioners are unarmed fighters who deal additional damage with their unarmed strikes as described in the unarmed strike practitioner table. <strong>Associated Feat:</strong> Improved Unarmed Strike.\n<p>In addition, all practitioners of the Open Hand sphere gain the following ability:</p>\n<h2 id=\"toc0\"><span><span style=\"color:#993300\">Sweep</span></span></h2>\n<p>You may attempt a trip combat maneuver with a -2 penalty as a move action, although you may not use a manufactured weapon to make this trip attempt. This does not provoke an attack of opportunity.</p>\n<h4 id=\"toc1\"><span>Unarmed Combatants</span></h4>\n<p>Practitioners who train in certain spheres focused on unarmed combat, such as Boxing, deal additional damage with their unarmed strikes based on the total number of unarmed spheres and talents they possess, as shown in the following table. Practitioners from a class that already grants an unarmed damage progression, such as the brawler or monk, may treat their unarmed strike as one size category larger if they have 3 or more talents in an unarmed combat sphere, but receive no further benefits. In addition, any practitioner with at least 1 talent in an unarmed sphere gains the benefits of the Improved Unarmed Strike feat.</p>\n<h4 id=\"toc2\"><span>Table: Practitioner Unarmed Damage</span></h4>\n<table class=\"wiki-content-table\">\n<tbody><tr>\n<th>Level</th>\n<th>Damage (Small Practitioner)</th>\n<th>Damage (Medium Practitioner)</th>\n<th>Damage (Large Practitioner)</th>\n</tr>\n<tr>\n<td>1-3 talents</td>\n<td>1d3</td>\n<td>1d4</td>\n<td>1d6</td>\n</tr>\n<tr>\n<td>4-7 talents</td>\n<td>1d4</td>\n<td>1d6</td>\n<td>1d8</td>\n</tr>\n<tr>\n<td>8-11 talents</td>\n<td>1d6</td>\n<td>1d8</td>\n<td>2d6</td>\n</tr>\n<tr>\n<td>12-15 talents</td>\n<td>1d8</td>\n<td>2d6</td>\n<td>3d6</td>\n</tr>\n<tr>\n<td>16-19 talents</td>\n<td>2d6</td>\n<td>2d8</td>\n<td>3d8</td>\n</tr>\n<tr>\n<td>20+ talents</td>\n<td>2d8</td>\n<td>2d10</td>\n<td>4d8</td>\n</tr>\n</tbody></table>\n<hr /><br />\n<br /><b>Open Hand Talents</b><br /><ul>\n<li>@Compendium[pf1spheres.combat-talents.gf9bSkcjuDuRRePH]{Aquatic Stalker}</li>\n<li>@Compendium[pf1spheres.combat-talents.lQ3FMECCA3tQrJ0c]{Axe Kick}</li>\n<li>@Compendium[pf1spheres.combat-talents.9VbciqFm4Bm1pPoL]{Capoeira Spin}</li>\n<li>@Compendium[pf1spheres.combat-talents.hccRuFrI1weEbjWC]{Cooperative Clothesline}</li>\n<li>@Compendium[pf1spheres.combat-talents.yWdRARSJsbCcEmP2]{Counterbalance}</li>\n<li>@Compendium[pf1spheres.combat-talents.KlhkytLPMiOr34nY]{Fading Slide}</li>\n<li>@Compendium[pf1spheres.combat-talents.Ma0HTggOZq0pFrJC]{Featherlight Positioning}</li>\n<li>@Compendium[pf1spheres.combat-talents.Js83bBmy5sinOFtk]{Focusing Breath}</li>\n<li>@Compendium[pf1spheres.combat-talents.wfwtSYGNXEICzpq7]{Grasping Hand}</li>\n<li>@Compendium[pf1spheres.combat-talents.VLoxi9n1Pen5pfUG]{Greater Trip}</li>\n<li>@Compendium[pf1spheres.combat-talents.gzrM3rQth9MdkwFj]{Hard Landing}</li>\n<li>@Compendium[pf1spheres.combat-talents.2A8AIPVrZTTkl9Sk]{Hurricane Kick}</li>\n<li>@Compendium[pf1spheres.combat-talents.XiZtkvAInaSfNPC9]{Iron Fist}</li>\n<li>@Compendium[pf1spheres.combat-talents.kI3BiVRsaHSRRT4v]{Joint Lock}</li>\n<li>@Compendium[pf1spheres.combat-talents.EwRig9ziQvtjrN4i]{Judo Throw}</li>\n<li>@Compendium[pf1spheres.combat-talents.kZtE15UyAkXQybdQ]{Kick-Off}</li>\n<li>@Compendium[pf1spheres.combat-talents.WKFQCl2f5XiDHdIJ]{Ladder Strike}</li>\n<li>@Compendium[pf1spheres.combat-talents.uRHCxaFbh0ok7O1z]{Leopard’s Gambit}</li>\n<li>@Compendium[pf1spheres.combat-talents.wbWlWWANZhqmcDlG]{Lotus Touch}</li>\n<li>@Compendium[pf1spheres.combat-talents.EXeO5DJrUMXYsSd9]{Mystic Fists}</li>\n<li>@Compendium[pf1spheres.combat-talents.UCWDM28SNY79VneD]{Palm Block}</li>\n<li>@Compendium[pf1spheres.combat-talents.yp0gmNW6yOUohmTf]{Rippling Blow}</li>\n<li>@Compendium[pf1spheres.combat-talents.RMmQJiDExLvcARgO]{Rising Leverage}</li>\n<li>@Compendium[pf1spheres.combat-talents.gSDzMv3l9nqvLm0a]{Shattering Palm}</li>\n<li>@Compendium[pf1spheres.combat-talents.JQaCeazpy34ITgOF]{Sliding Heelkick}</li>\n<li>@Compendium[pf1spheres.combat-talents.noEiR4PyniqCIL27]{Snap Kick}</li>\n<li>@Compendium[pf1spheres.combat-talents.VM68BWKX7KYa7LKg]{Spinning Heel Kick}</li>\n<li>@Compendium[pf1spheres.combat-talents.SqLbTeym6HnlRqRH]{Suppressive Rush}</li>\n<li>@Compendium[pf1spheres.combat-talents.zhPvih1pQtPuy2o7]{Sweeping Kick}</li>\n<li>@Compendium[pf1spheres.combat-talents.DK726zNqb5WfA4E3]{Swinging Swap}</li>\n<li>@Compendium[pf1spheres.combat-talents.38guBlDbArupb5Kf]{Tear Flesh}</li>\n<li>@Compendium[pf1spheres.combat-talents.UucdewhiDx0rSfJZ]{Thunderous Punishment}</li>\n<li>@Compendium[pf1spheres.combat-talents.qvN4rpZb5tleOlYD]{Up High, Down Low, Too Slow}</li>\n<li>@Compendium[pf1spheres.combat-talents.RNGwlRbNjx1ogPxx]{Vibrating Impacts}</li>\n<li>@Compendium[pf1spheres.combat-talents.vOAJFeToDhUbBw33]{Waving Hand}</li>\n<li>@Compendium[pf1spheres.combat-talents.cMgvqwiSgvQEIBNu]{Withering Defense}</li>\n</ul><br /><b>Legendary Talents</b><br /><ul>\n<li>@Compendium[pf1spheres.combat-talents.XKYQVTHgDwnIQy7h]{Air Cannon}</li>\n<li>@Compendium[pf1spheres.combat-talents.PLmiVyjqwQxdG5yJ]{Devil’s Strikes}</li>\n<li>@Compendium[pf1spheres.combat-talents.vbQpBV67qfWbH8ug]{Final Judgement}</li>\n<li>@Compendium[pf1spheres.combat-talents.9PvAsn0M0gJplUsN]{God Hand}</li>\n<li>@Compendium[pf1spheres.combat-talents.PXoRq9pcsGRSHwUU]{Perfect Attunement}</li>\n<li>@Compendium[pf1spheres.combat-talents.IWansjen2xAkaUeS]{Soul Punch}</li>\n<li>@Compendium[pf1spheres.combat-talents.D5ozAHkFBuwgXHig]{Soul Sunder}</li></ul>"
      },
      "_id": "aDl29BHfY1ogutSc",
      "image": {},
      "video": {
        "controls": true,
        "volume": 0.5
      },
      "src": null,
      "system": {},
      "sort": 0,
      "ownership": {
        "default": -1
      },
      "flags": {}
    }
  ],
  "ownership": {
    "default": 0
  },
  "_stats": {
    "systemId": "pf1",
    "systemVersion": "0.82.2",
    "coreVersion": "10.285",
    "createdTime": 1663169292927,
    "modifiedTime": 1663181691460,
    "lastModifiedBy": "pf1spheres-db000"
  }
}
