{
  "_id": "HlvwNlpIvOD25yHP",
  "name": "Calming",
  "type": "feat",
  "img": "icons/svg/item-bag.svg",
  "effects": [],
  "folder": null,
  "sort": 0,
  "flags": {},
  "system": {
    "description": {
      "value": "<p><strong>Benefits:</strong> While using the calming purr, you and allies within your purring aura gain a +2 bonus on saving throws against mind-affecting effects and to the DC to Intimidate them. Each creature benefiting from the calming purr may spend a move action to lessen the severity of any fear effect they are subject to (panicked to frightened to shaken to unaffected). Each creature may only benefit from this feat to lessen a fear effect once per round; a creature may take an action to lessen a fear effect even if they would be required to run from the source of their fear first.</p>\n<p><strong>Powerful Purring:</strong> Creatures benefiting from the calming purring may lessen the severity of a fear effect as a free action and may reduce cowering to panicked. A creature benefiting from the calming purring rolls twice and takes the better result when attempting a saving throw which the calming purr grants a bonus against.</p>\n",
      "unidentified": ""
    },
    "tags": ["Purring"],
    "actions": [],
    "uses": {
      "per": null,
      "value": 0,
      "maxFormula": "",
      "autoDeductChargesCost": "1"
    },
    "attackNotes": [],
    "effectNotes": [],
    "changes": [],
    "changeFlags": {
      "loseDexToAC": false,
      "noEncumbrance": false,
      "mediumArmorFullSpeed": false,
      "heavyArmorFullSpeed": false
    },
    "contextNotes": [],
    "links": {
      "children": [],
      "charges": []
    },
    "tag": "",
    "useCustomTag": false,
    "armorProf": {
      "value": [],
      "custom": ""
    },
    "weaponProf": {
      "value": [],
      "custom": ""
    },
    "languages": {
      "value": [],
      "custom": ""
    },
    "flags": {
      "boolean": {},
      "dictionary": {}
    },
    "scriptCalls": [],
    "subType": "feat",
    "associations": {
      "classes": []
    },
    "showInQuickbar": false,
    "abilityType": "none",
    "crOffset": "",
    "disabled": false,
    "classSkills": {},
    "nonlethal": false,
    "duration": {
      "value": null,
      "units": ""
    },
    "target": {
      "value": ""
    },
    "attackName": "",
    "actionType": null,
    "attackBonus": "",
    "critConfirmBonus": "",
    "damage": {
      "parts": [],
      "critParts": [],
      "nonCritParts": []
    },
    "attackParts": [],
    "formulaicAttacks": {
      "count": {
        "formula": ""
      },
      "bonus": {
        "formula": ""
      },
      "label": null
    },
    "formula": "",
    "ability": {
      "attack": null,
      "damage": null,
      "damageMult": 1,
      "critRange": 20,
      "critMult": 2
    },
    "save": {
      "dc": 0,
      "type": "",
      "description": ""
    },
    "soundEffect": ""
  },
  "ownership": {
    "default": 0
  },
  "_stats": {
    "systemId": "pf1",
    "systemVersion": "9.0",
    "coreVersion": "10.291",
    "createdTime": 1663168897656,
    "modifiedTime": 1689623925012,
    "lastModifiedBy": "pf1spheres-db000"
  }
}
