{
  "_id": "YATniMJopLrFyg9E",
  "name": "Channeled Detonation",
  "type": "feat",
  "img": "icons/svg/item-bag.svg",
  "effects": [],
  "folder": null,
  "sort": 0,
  "flags": {},
  "system": {
    "description": {
      "value": "<p>You can overcharge your connection with your undead using your channel energy ability.</p>\n<p><strong>Prerequisites:</strong> Death sphere, ability to channel negative energy, caster level 5th.</p>\n<p><strong>Benefit:</strong> You can spend a use of your channel energy ability as a standard action to detonate a mindless undead you control within 30 feet, destroying it, but causing your channel energy to burst outwards from its location; your channel deals (or heals, as appropriate) 1 additional point of damage per Hit Die of the undead sacrificed. You can activate this ability as an immediate action whenever a mindless undead you control within 30 feet is reduced to 0 hit points by spending a spell point (and a use of channel energy, as normal).</p>\n<p>If you possess the Master&#8217;s Presence (dominion) talent, you may use your dominion range when determining if an undead you control is within range for this feat.</p>\n",
      "unidentified": ""
    },
    "tags": ["Channeling"],
    "actions": [],
    "uses": {
      "per": null,
      "value": 0,
      "maxFormula": "",
      "autoDeductChargesCost": "1"
    },
    "attackNotes": [],
    "effectNotes": [],
    "changes": [],
    "changeFlags": {
      "loseDexToAC": false,
      "noEncumbrance": false,
      "mediumArmorFullSpeed": false,
      "heavyArmorFullSpeed": false
    },
    "contextNotes": [],
    "links": {
      "children": [],
      "charges": []
    },
    "tag": "",
    "useCustomTag": false,
    "armorProf": {
      "value": [],
      "custom": ""
    },
    "weaponProf": {
      "value": [],
      "custom": ""
    },
    "languages": {
      "value": [],
      "custom": ""
    },
    "flags": {
      "boolean": {},
      "dictionary": {}
    },
    "scriptCalls": [],
    "subType": "feat",
    "associations": {
      "classes": []
    },
    "showInQuickbar": false,
    "abilityType": "none",
    "crOffset": "",
    "disabled": false,
    "classSkills": {},
    "nonlethal": false,
    "duration": {
      "value": null,
      "units": ""
    },
    "target": {
      "value": ""
    },
    "attackName": "",
    "actionType": null,
    "attackBonus": "",
    "critConfirmBonus": "",
    "damage": {
      "parts": [],
      "critParts": [],
      "nonCritParts": []
    },
    "attackParts": [],
    "formulaicAttacks": {
      "count": {
        "formula": ""
      },
      "bonus": {
        "formula": ""
      },
      "label": null
    },
    "formula": "",
    "ability": {
      "attack": null,
      "damage": null,
      "damageMult": 1,
      "critRange": 20,
      "critMult": 2
    },
    "save": {
      "dc": 0,
      "type": "",
      "description": ""
    },
    "soundEffect": ""
  },
  "ownership": {
    "default": 0
  },
  "_stats": {
    "systemId": "pf1",
    "systemVersion": "9.0",
    "coreVersion": "10.291",
    "createdTime": 1663168897918,
    "modifiedTime": 1689623925130,
    "lastModifiedBy": "pf1spheres-db000"
  }
}
