{
  "_id": "CzgufjgoW9sMgB5N",
  "name": "Cold Heart",
  "type": "feat",
  "img": "icons/svg/item-bag.svg",
  "effects": [],
  "folder": null,
  "sort": 0,
  "flags": {},
  "system": {
    "description": {
      "value": "<p>Your blood flow slows and heartbeat grows erratic without significant harm to you, increasing your ability to survive freezing temperatures and electric shocks.</p>\n<p><strong>Prerequisite:</strong> Death sphere.</p>\n<p><strong>Benefit:</strong> You gain +1 spell point. You can spend a spell point as an immediate action to gain cold resistance 5 and electricity resistance 5 for 1 round. For each necrosis feat you possess beyond this one, the cold and electricity resistances increase by 5 and the duration increases by 1 round.</p>\n<p><strong>Four Necrosis Feats:</strong> You always have cold resistance 10 and electricity resistance 10, and when you spend a spell point, you gain immunity to cold and electricity for a number of rounds equal to the number of necrosis feats you possess.</p>\n",
      "unidentified": ""
    },
    "tags": ["Necrosis"],
    "actions": [],
    "uses": {
      "per": null,
      "value": 0,
      "maxFormula": "",
      "autoDeductChargesCost": "1"
    },
    "attackNotes": [],
    "effectNotes": [],
    "changes": [],
    "changeFlags": {
      "loseDexToAC": false,
      "noEncumbrance": false,
      "mediumArmorFullSpeed": false,
      "heavyArmorFullSpeed": false
    },
    "contextNotes": [],
    "links": {
      "children": [],
      "charges": []
    },
    "tag": "",
    "useCustomTag": false,
    "armorProf": {
      "value": [],
      "custom": ""
    },
    "weaponProf": {
      "value": [],
      "custom": ""
    },
    "languages": {
      "value": [],
      "custom": ""
    },
    "flags": {
      "boolean": {},
      "dictionary": {}
    },
    "scriptCalls": [],
    "subType": "feat",
    "associations": {
      "classes": []
    },
    "showInQuickbar": false,
    "abilityType": "none",
    "crOffset": "",
    "disabled": false,
    "classSkills": {},
    "nonlethal": false,
    "duration": {
      "value": null,
      "units": ""
    },
    "target": {
      "value": ""
    },
    "attackName": "",
    "actionType": null,
    "attackBonus": "",
    "critConfirmBonus": "",
    "damage": {
      "parts": [],
      "critParts": [],
      "nonCritParts": []
    },
    "attackParts": [],
    "formulaicAttacks": {
      "count": {
        "formula": ""
      },
      "bonus": {
        "formula": ""
      },
      "label": null
    },
    "formula": "",
    "ability": {
      "attack": null,
      "damage": null,
      "damageMult": 1,
      "critRange": 20,
      "critMult": 2
    },
    "save": {
      "dc": 0,
      "type": "",
      "description": ""
    },
    "soundEffect": ""
  },
  "ownership": {
    "default": 0
  },
  "_stats": {
    "systemId": "pf1",
    "systemVersion": "9.0",
    "coreVersion": "10.291",
    "createdTime": 1663168897625,
    "modifiedTime": 1689623925000,
    "lastModifiedBy": "pf1spheres-db000"
  }
}
