{
  "_id": "TZNsUeJGr8dTidTE",
  "name": "Cooperating",
  "type": "feat",
  "img": "icons/svg/item-bag.svg",
  "effects": [],
  "folder": null,
  "sort": 0,
  "flags": {},
  "system": {
    "description": {
      "value": "<p><strong>Prerequisite:</strong> Any one teamwork feat.</p>\n<p><strong>Benefits:</strong> Whenever you begin using the cooperating purr, choose one teamwork feat you possess. While using the cooperating purr, whenever an ally begins their turn within your purring aura, that ally gains the chosen teamwork feat for 1 round. You may share a teamwork feat this way even if your allies could not normally qualify for it.</p>\n<p><strong>Powerful Purring:</strong> Whenever you begin using the cooperating purr, instead of choosing a teamwork feat you possess, you may instead use any teamwork feat you meet the prerequisites for, temporarily gaining that teamwork feat as a bonus feat and granting it to allies which begin their turn within your purring aura. You may choose a different teamwork feat to temporarily gain each time you begin using the cooperating purr.</p>\n",
      "unidentified": ""
    },
    "tags": ["Purring"],
    "actions": [],
    "uses": {
      "per": null,
      "value": 0,
      "maxFormula": "",
      "autoDeductChargesCost": "1"
    },
    "attackNotes": [],
    "effectNotes": [],
    "changes": [],
    "changeFlags": {
      "loseDexToAC": false,
      "noEncumbrance": false,
      "mediumArmorFullSpeed": false,
      "heavyArmorFullSpeed": false
    },
    "contextNotes": [],
    "links": {
      "children": [],
      "charges": []
    },
    "tag": "",
    "useCustomTag": false,
    "armorProf": {
      "value": [],
      "custom": ""
    },
    "weaponProf": {
      "value": [],
      "custom": ""
    },
    "languages": {
      "value": [],
      "custom": ""
    },
    "flags": {
      "boolean": {},
      "dictionary": {}
    },
    "scriptCalls": [],
    "subType": "feat",
    "associations": {
      "classes": []
    },
    "showInQuickbar": false,
    "abilityType": "none",
    "crOffset": "",
    "disabled": false,
    "classSkills": {},
    "nonlethal": false,
    "duration": {
      "value": null,
      "units": ""
    },
    "target": {
      "value": ""
    },
    "attackName": "",
    "actionType": null,
    "attackBonus": "",
    "critConfirmBonus": "",
    "damage": {
      "parts": [],
      "critParts": [],
      "nonCritParts": []
    },
    "attackParts": [],
    "formulaicAttacks": {
      "count": {
        "formula": ""
      },
      "bonus": {
        "formula": ""
      },
      "label": null
    },
    "formula": "",
    "ability": {
      "attack": null,
      "damage": null,
      "damageMult": 1,
      "critRange": 20,
      "critMult": 2
    },
    "save": {
      "dc": 0,
      "type": "",
      "description": ""
    },
    "soundEffect": ""
  },
  "ownership": {
    "default": 0
  },
  "_stats": {
    "systemId": "pf1",
    "systemVersion": "9.0",
    "coreVersion": "10.291",
    "createdTime": 1663168897875,
    "modifiedTime": 1689623925101,
    "lastModifiedBy": "pf1spheres-db000"
  }
}
