{
  "_id": "ksBOyRe9eOYyTdaK",
  "name": "Craft Marvelous Item",
  "type": "feat",
  "img": "icons/svg/item-bag.svg",
  "effects": [],
  "folder": null,
  "sort": 0,
  "flags": {},
  "system": {
    "description": {
      "value": "<p><strong>Prerequisites:</strong> Caster level 1st.</p>\n<p><strong>Benefits:</strong> A marvelous item is a device that produces a magical effect that must be activated (usually activated as a standard action) often through the touch of a button, the speaking of a command word, or some other action such as striking the item against the ground, holding it against the intended target, throwing the item through the air. Marvelous items use the talent-based method of magic item creation. If a wondrous item&#8217;s effect requires a saving throw from any creature, the DC is equal to 10 + 1/2 the item&#8217;s caster level.</p>\n<p>A marvelous item can be used once per day by default, and costs 400 gp x caster level x complexity. Additionally, a marvelous item can possess the following custom multipliers.</p>\n<p><strong>Multiple Uses:</strong> If a marvelous item can be used multiple times per day, multiply the cost by the number of daily uses. If its uses per day is increased to 5, it becomes usable an unlimited number of times per day.</p>\n<p><strong>Limited Uses:</strong> If a marvelous item can be used at will but only a maximum of 50 times before it loses all of its magic, multiply its cost by 2.5.</p>\n",
      "unidentified": ""
    },
    "tags": ["replaces Craft Wondrous Item"],
    "actions": [],
    "uses": {
      "per": null,
      "value": 0,
      "maxFormula": "",
      "autoDeductChargesCost": "1"
    },
    "attackNotes": [],
    "effectNotes": [],
    "changes": [],
    "changeFlags": {
      "loseDexToAC": false,
      "noEncumbrance": false,
      "mediumArmorFullSpeed": false,
      "heavyArmorFullSpeed": false
    },
    "contextNotes": [],
    "links": {
      "children": [],
      "charges": []
    },
    "tag": "",
    "useCustomTag": false,
    "armorProf": {
      "value": [],
      "custom": ""
    },
    "weaponProf": {
      "value": [],
      "custom": ""
    },
    "languages": {
      "value": [],
      "custom": ""
    },
    "flags": {
      "boolean": {},
      "dictionary": {}
    },
    "scriptCalls": [],
    "subType": "feat",
    "associations": {
      "classes": []
    },
    "showInQuickbar": false,
    "abilityType": "none",
    "crOffset": "",
    "disabled": false,
    "classSkills": {},
    "nonlethal": false,
    "duration": {
      "value": null,
      "units": ""
    },
    "target": {
      "value": ""
    },
    "attackName": "",
    "actionType": null,
    "attackBonus": "",
    "critConfirmBonus": "",
    "damage": {
      "parts": [],
      "critParts": [],
      "nonCritParts": []
    },
    "attackParts": [],
    "formulaicAttacks": {
      "count": {
        "formula": ""
      },
      "bonus": {
        "formula": ""
      },
      "label": null
    },
    "formula": "",
    "ability": {
      "attack": null,
      "damage": null,
      "damageMult": 1,
      "critRange": 20,
      "critMult": 2
    },
    "save": {
      "dc": 0,
      "type": "",
      "description": ""
    },
    "soundEffect": ""
  },
  "ownership": {
    "default": 0
  },
  "_stats": {
    "systemId": "pf1",
    "systemVersion": "9.0",
    "coreVersion": "10.291",
    "createdTime": 1663168897993,
    "modifiedTime": 1689623925190,
    "lastModifiedBy": "pf1spheres-db000"
  }
}
