{
  "_id": "ConXWNbKastude4p",
  "name": "Craft Magical Traps",
  "type": "feat",
  "img": "icons/svg/item-bag.svg",
  "effects": [],
  "folder": null,
  "sort": 0,
  "flags": {},
  "system": {
    "description": {
      "value": "<p><strong>Prerequisites:</strong> Contingency; Craft Apparatus or Craft Marvelous Item.</p>\n<p><strong>Benefit:</strong> When crafting a marvelous item, you may increase the item&#8217;s complexity by 3 to build it as a magic trap rather than a marvelous item. Rather than being activated normally, a magic trap activates automatically when certain conditions are met, as per a sphere effect prepared using the Contingency feat. A magic trap may activate based upon the same parameters as a Contingency effect and may be perceived and disabled in the same manner as a Contingency effect. A magic trap is limited in its activations per day in the same manner as a normal marvelous item and cannot be activated more than once per minute. Changing a magic trap&#8217;s contingency conditions takes 10 minutes of work by the creator or somebody who has successfully disabled the trap with a Disable Device check.</p>\n<p>GM discretion is advised in the creation of magic traps. A magic trap is considered to have the Area Bound drawback even if you do not have that crafting drawback and only functions within 100 feet of the space in which it was created.</p>\n",
      "unidentified": ""
    },
    "tags": ["Item Creation"],
    "actions": [],
    "uses": {
      "per": null,
      "value": 0,
      "maxFormula": "",
      "autoDeductChargesCost": "1"
    },
    "attackNotes": [],
    "effectNotes": [],
    "changes": [],
    "changeFlags": {
      "loseDexToAC": false,
      "noEncumbrance": false,
      "mediumArmorFullSpeed": false,
      "heavyArmorFullSpeed": false
    },
    "contextNotes": [],
    "links": {
      "children": [],
      "charges": []
    },
    "tag": "",
    "useCustomTag": false,
    "armorProf": {
      "value": [],
      "custom": ""
    },
    "weaponProf": {
      "value": [],
      "custom": ""
    },
    "languages": {
      "value": [],
      "custom": ""
    },
    "flags": {
      "boolean": {},
      "dictionary": {}
    },
    "scriptCalls": [],
    "subType": "feat",
    "associations": {
      "classes": []
    },
    "showInQuickbar": false,
    "abilityType": "none",
    "crOffset": "",
    "disabled": false,
    "classSkills": {},
    "nonlethal": false,
    "duration": {
      "value": null,
      "units": ""
    },
    "target": {
      "value": ""
    },
    "attackName": "",
    "actionType": null,
    "attackBonus": "",
    "critConfirmBonus": "",
    "damage": {
      "parts": [],
      "critParts": [],
      "nonCritParts": []
    },
    "attackParts": [],
    "formulaicAttacks": {
      "count": {
        "formula": ""
      },
      "bonus": {
        "formula": ""
      },
      "label": null
    },
    "formula": "",
    "ability": {
      "attack": null,
      "damage": null,
      "damageMult": 1,
      "critRange": 20,
      "critMult": 2
    },
    "save": {
      "dc": 0,
      "type": "",
      "description": ""
    },
    "soundEffect": ""
  },
  "ownership": {
    "default": 0
  },
  "_stats": {
    "systemId": "pf1",
    "systemVersion": "9.0",
    "coreVersion": "10.291",
    "createdTime": 1663168897623,
    "modifiedTime": 1689623924999,
    "lastModifiedBy": "pf1spheres-db000"
  }
}
