{
  "_id": "UMGduq93wLQ1klOq",
  "name": "Cultivate Ki",
  "type": "feat",
  "img": "icons/svg/item-bag.svg",
  "effects": [],
  "folder": null,
  "sort": 0,
  "flags": {},
  "system": {
    "description": {
      "value": "<p><strong>Prerequisites:</strong> Improved Unarmed Strike, base attack bonus +4, martial focus.</p>\n<p><strong>Benefits:</strong> You gain one ki power from the unchained monk&#8217;s list of ki powers, treating your base attack bonus as your unchained monk level and using your practitioner modifier in place of your Wisdom modifier when determining the effects of ki powers you gain. Whenever you would gain ki powers that require the unchained monk to be of a specific level or higher before they can be chosen, use your base attack bonus in place of your unchained monk level.</p>\n<p><strong>Special:</strong> If you do not have a ki pool, instead of spending one or more ki points on a ki power, you may instead spend one spell point per ki point required. As long as you have one or more spell points in your spell pool, you are treated as having at least one ki point in your ki pool for the purposes of ki powers.</p>\n",
      "unidentified": ""
    },
    "tags": ["combat"],
    "actions": [],
    "uses": {
      "per": null,
      "value": 0,
      "maxFormula": "",
      "autoDeductChargesCost": "1"
    },
    "attackNotes": [],
    "effectNotes": [],
    "changes": [],
    "changeFlags": {
      "loseDexToAC": false,
      "noEncumbrance": false,
      "mediumArmorFullSpeed": false,
      "heavyArmorFullSpeed": false
    },
    "contextNotes": [],
    "links": {
      "children": [],
      "charges": []
    },
    "tag": "",
    "useCustomTag": false,
    "armorProf": {
      "value": [],
      "custom": ""
    },
    "weaponProf": {
      "value": [],
      "custom": ""
    },
    "languages": {
      "value": [],
      "custom": ""
    },
    "flags": {
      "boolean": {},
      "dictionary": {}
    },
    "scriptCalls": [],
    "subType": "feat",
    "associations": {
      "classes": []
    },
    "showInQuickbar": false,
    "abilityType": "none",
    "crOffset": "",
    "disabled": false,
    "classSkills": {},
    "nonlethal": false,
    "duration": {
      "value": null,
      "units": ""
    },
    "target": {
      "value": ""
    },
    "attackName": "",
    "actionType": null,
    "attackBonus": "",
    "critConfirmBonus": "",
    "damage": {
      "parts": [],
      "critParts": [],
      "nonCritParts": []
    },
    "attackParts": [],
    "formulaicAttacks": {
      "count": {
        "formula": ""
      },
      "bonus": {
        "formula": ""
      },
      "label": null
    },
    "formula": "",
    "ability": {
      "attack": null,
      "damage": null,
      "damageMult": 1,
      "critRange": 20,
      "critMult": 2
    },
    "save": {
      "dc": 0,
      "type": "",
      "description": ""
    },
    "soundEffect": ""
  },
  "ownership": {
    "default": 0
  },
  "_stats": {
    "systemId": "pf1",
    "systemVersion": "9.0",
    "coreVersion": "10.291",
    "createdTime": 1663168897883,
    "modifiedTime": 1689623925109,
    "lastModifiedBy": "pf1spheres-db000"
  }
}
