{
  "_id": "awTHrlwEPyaTAlcZ",
  "name": "Dragon’s Tattoos",
  "type": "feat",
  "img": "icons/svg/item-bag.svg",
  "effects": [],
  "folder": null,
  "sort": 0,
  "flags": {},
  "system": {
    "description": {
      "value": "<p>Etching your limbs with exquisite art, your body truly becomes a weapon.</p>\n<p><strong>Prerequisites:</strong> Improved Unarmed Strike, Craft (tattoos) 5 ranks.</p>\n<p><strong>Benefit:</strong> You learn how to adorn yourself with the sacred tattoos that are said to have been first conceived by an ancient monk known only as &#8220;the Dragon&#8221;. Covering your body in these intricate tattoos etched by your own hand, your limbs, grapples, and unarmed strikes are now treated as masterwork weapons, and may be enhanced just as any other masterwork weapon. Enhancements applied via this ability apply to all unarmed strikes or grapple checks you make, regardless of the limb you choose to use; essentially, your entire body is treated as a single weapon.</p>\n<p><strong>Author's Note:</strong> Dragon's Tattoos applies to all of your unarmed strikes and natural attacks, essentially like an amulet of mighty fists.</p>\n",
      "unidentified": ""
    },
    "tags": [],
    "actions": [],
    "uses": {
      "per": null,
      "value": 0,
      "maxFormula": "",
      "autoDeductChargesCost": "1"
    },
    "attackNotes": [],
    "effectNotes": [],
    "changes": [],
    "changeFlags": {
      "loseDexToAC": false,
      "noEncumbrance": false,
      "mediumArmorFullSpeed": false,
      "heavyArmorFullSpeed": false
    },
    "contextNotes": [],
    "links": {
      "children": [],
      "charges": []
    },
    "tag": "",
    "useCustomTag": false,
    "armorProf": {
      "value": [],
      "custom": ""
    },
    "weaponProf": {
      "value": [],
      "custom": ""
    },
    "languages": {
      "value": [],
      "custom": ""
    },
    "flags": {
      "boolean": {},
      "dictionary": {}
    },
    "scriptCalls": [],
    "subType": "feat",
    "associations": {
      "classes": []
    },
    "showInQuickbar": false,
    "abilityType": "none",
    "crOffset": "",
    "disabled": false,
    "classSkills": {},
    "nonlethal": false,
    "duration": {
      "value": null,
      "units": ""
    },
    "target": {
      "value": ""
    },
    "attackName": "",
    "actionType": null,
    "attackBonus": "",
    "critConfirmBonus": "",
    "damage": {
      "parts": [],
      "critParts": [],
      "nonCritParts": []
    },
    "attackParts": [],
    "formulaicAttacks": {
      "count": {
        "formula": ""
      },
      "bonus": {
        "formula": ""
      },
      "label": null
    },
    "formula": "",
    "ability": {
      "attack": null,
      "damage": null,
      "damageMult": 1,
      "critRange": 20,
      "critMult": 2
    },
    "save": {
      "dc": 0,
      "type": "",
      "description": ""
    },
    "soundEffect": ""
  },
  "ownership": {
    "default": 0
  },
  "_stats": {
    "systemId": "pf1",
    "systemVersion": "9.0",
    "coreVersion": "10.291",
    "createdTime": 1663168897937,
    "modifiedTime": 1689623925147,
    "lastModifiedBy": "pf1spheres-db000"
  }
}
