{
  "_id": "ucNcaLxX5PJrNWVY",
  "name": "Eldritch Craft",
  "type": "feat",
  "img": "icons/svg/item-bag.svg",
  "effects": [],
  "folder": null,
  "sort": 0,
  "flags": {},
  "system": {
    "description": {
      "value": "<p>Your strange magics bleed into the devices you forge.</p>\n<p><strong>Prerequisite:</strong> Any item creation feat.</p>\n<p><strong>Benefit:</strong> Any magic items that you craft share the benefits of boons that you possess. For example, you possess the Alien Source boon, creatures take penalties to counterspell the item and spell resistance against the item&#8217;s effects. Similarly, the item&#8217;s caster level would increase in specific weather conditions if you possess the Atmoturgy boon or when at least three creatures are already affected by the item if you possess the Draw Magic boon. Boons which apply negative conditions (such as Overcharge) or which are dependent upon certain factors of the user (such as Deathful Magic) consider the state of the creature using the effect rather than the item to determine effects. This feat cannot be used in conjunction with boons that require a specific drawback such as Fortified Casting.</p>\n",
      "unidentified": ""
    },
    "tags": ["Item Creation"],
    "actions": [],
    "uses": {
      "per": null,
      "value": 0,
      "maxFormula": "",
      "autoDeductChargesCost": "1"
    },
    "attackNotes": [],
    "effectNotes": [],
    "changes": [],
    "changeFlags": {
      "loseDexToAC": false,
      "noEncumbrance": false,
      "mediumArmorFullSpeed": false,
      "heavyArmorFullSpeed": false
    },
    "contextNotes": [],
    "links": {
      "children": [],
      "charges": []
    },
    "tag": "",
    "useCustomTag": false,
    "armorProf": {
      "value": [],
      "custom": ""
    },
    "weaponProf": {
      "value": [],
      "custom": ""
    },
    "languages": {
      "value": [],
      "custom": ""
    },
    "flags": {
      "boolean": {},
      "dictionary": {}
    },
    "scriptCalls": [],
    "subType": "feat",
    "associations": {
      "classes": []
    },
    "showInQuickbar": false,
    "abilityType": "none",
    "crOffset": "",
    "disabled": false,
    "classSkills": {},
    "nonlethal": false,
    "duration": {
      "value": null,
      "units": ""
    },
    "target": {
      "value": ""
    },
    "attackName": "",
    "actionType": null,
    "attackBonus": "",
    "critConfirmBonus": "",
    "damage": {
      "parts": [],
      "critParts": [],
      "nonCritParts": []
    },
    "attackParts": [],
    "formulaicAttacks": {
      "count": {
        "formula": ""
      },
      "bonus": {
        "formula": ""
      },
      "label": null
    },
    "formula": "",
    "ability": {
      "attack": null,
      "damage": null,
      "damageMult": 1,
      "critRange": 20,
      "critMult": 2
    },
    "save": {
      "dc": 0,
      "type": "",
      "description": ""
    },
    "soundEffect": ""
  },
  "ownership": {
    "default": 0
  },
  "_stats": {
    "systemId": "pf1",
    "systemVersion": "9.0",
    "coreVersion": "10.291",
    "createdTime": 1663168898194,
    "modifiedTime": 1689623925261,
    "lastModifiedBy": "pf1spheres-db000"
  }
}
