{
  "_id": "pQ0fxEsigX3LSpZP",
  "name": "Exarch Of The Pit",
  "type": "feat",
  "img": "icons/svg/item-bag.svg",
  "effects": [],
  "folder": null,
  "sort": 0,
  "flags": {},
  "system": {
    "description": {
      "value": "<p>You are the will of your fiendish patron made manifest.</p>\n<p><strong>Benefit:</strong> You gain several benefits associated with controlling others or gaining favors.</p>\n<p><strong>One Damnation Feat:</strong> You gain a +2 profane bonus on Diplomacy and Intimidate checks against evil creatures as well as a +2 bonus on a Profession check of your choice.</p>\n<p><strong>Two Damnation Feats:</strong> Choose a creature type from the ranger&#8217;s favored enemy list. Creatures of that type take a -1 penalty to saving throws against your abilities.</p>\n<p><strong>Three Damnation Feats:</strong> The skill bonuses and saving throw penalty always apply against other followers of your patron (be they a god, demigod, or organization) and are doubled against such creatures.</p>\n<p><strong>Four Damnation Feats:</strong> If you possess the Fiendish Obedience or Deific Obedience feat, you receive the boons of these feats 2 Hit Dice earlier than you normally would (at 10, 14, and 18 Hit Dice rather than 12, 16, and 20). This does not affect the level at which you gain these abilities if you take a prestige class that causes you to receive them at earlier levels but does stack with the Diverse Obedience feat.</p>\n",
      "unidentified": ""
    },
    "tags": ["Damnation"],
    "actions": [],
    "uses": {
      "per": null,
      "value": 0,
      "maxFormula": "",
      "autoDeductChargesCost": "1"
    },
    "attackNotes": [],
    "effectNotes": [],
    "changes": [],
    "changeFlags": {
      "loseDexToAC": false,
      "noEncumbrance": false,
      "mediumArmorFullSpeed": false,
      "heavyArmorFullSpeed": false
    },
    "contextNotes": [],
    "links": {
      "children": [],
      "charges": []
    },
    "tag": "",
    "useCustomTag": false,
    "armorProf": {
      "value": [],
      "custom": ""
    },
    "weaponProf": {
      "value": [],
      "custom": ""
    },
    "languages": {
      "value": [],
      "custom": ""
    },
    "flags": {
      "boolean": {},
      "dictionary": {}
    },
    "scriptCalls": [],
    "subType": "feat",
    "associations": {
      "classes": []
    },
    "showInQuickbar": false,
    "abilityType": "none",
    "crOffset": "",
    "disabled": false,
    "classSkills": {},
    "nonlethal": false,
    "duration": {
      "value": null,
      "units": ""
    },
    "target": {
      "value": ""
    },
    "attackName": "",
    "actionType": null,
    "attackBonus": "",
    "critConfirmBonus": "",
    "damage": {
      "parts": [],
      "critParts": [],
      "nonCritParts": []
    },
    "attackParts": [],
    "formulaicAttacks": {
      "count": {
        "formula": ""
      },
      "bonus": {
        "formula": ""
      },
      "label": null
    },
    "formula": "",
    "ability": {
      "attack": null,
      "damage": null,
      "damageMult": 1,
      "critRange": 20,
      "critMult": 2
    },
    "save": {
      "dc": 0,
      "type": "",
      "description": ""
    },
    "soundEffect": ""
  },
  "ownership": {
    "default": 0
  },
  "_stats": {
    "systemId": "pf1",
    "systemVersion": "9.0",
    "coreVersion": "10.291",
    "createdTime": 1663168898112,
    "modifiedTime": 1689623925235,
    "lastModifiedBy": "pf1spheres-db000"
  }
}
