{
  "_id": "0EUsTYo1WpwmA4lF",
  "name": "Fiendish Transformation",
  "type": "feat",
  "img": "icons/svg/item-bag.svg",
  "effects": [],
  "folder": null,
  "sort": 0,
  "flags": {},
  "system": {
    "description": {
      "value": "<p>Your form is molded by the dark powers which you serve.</p>\n<p><strong>Benefit:</strong> Your features change to become more inhuman and powerful.</p>\n<p><strong>One Damnation Feat:</strong> You gain either a pair of claws which deal 1d4 damage (1d3 if Small) or a bite or gore attack which deals 1d6 damage (1d4 if Small). These are considered primary natural attacks.</p>\n<p><strong>Two Damnation Feats:</strong> You may gain a natural attack that you did not select for your first Damnation feat or may gain a prehensile tail (as the tiefling racial trait). You count as a tiefling for the purpose of meeting prerequisites.</p>\n<p><strong>Three Damnation Feats:</strong> All of your natural and weapon attacks count as evil for the purpose of overcoming damage reduction. If you are also lawful or chaotic, your attacks count as the corresponding alignment as well.</p>\n<p><strong>Four Damnation Feats:</strong> You gain either wings (which grant you a fly speed of 40 feet with good maneuverability), gills (which grant the ability to breathe water and a swim speed of 30 feet), or DR 5/silver or cold iron (chosen when you take this option) which improves to DR 5/good, chaotic, or lawful (chosen when you gain this improvement) at 10th level.</p>\n",
      "unidentified": ""
    },
    "tags": ["Damnation"],
    "actions": [],
    "uses": {
      "per": null,
      "value": 0,
      "maxFormula": "",
      "autoDeductChargesCost": "1"
    },
    "attackNotes": [],
    "effectNotes": [],
    "changes": [],
    "changeFlags": {
      "loseDexToAC": false,
      "noEncumbrance": false,
      "mediumArmorFullSpeed": false,
      "heavyArmorFullSpeed": false
    },
    "contextNotes": [],
    "links": {
      "children": [],
      "charges": []
    },
    "tag": "",
    "useCustomTag": false,
    "armorProf": {
      "value": [],
      "custom": ""
    },
    "weaponProf": {
      "value": [],
      "custom": ""
    },
    "languages": {
      "value": [],
      "custom": ""
    },
    "flags": {
      "boolean": {},
      "dictionary": {}
    },
    "scriptCalls": [],
    "subType": "feat",
    "associations": {
      "classes": []
    },
    "showInQuickbar": false,
    "abilityType": "none",
    "crOffset": "",
    "disabled": false,
    "classSkills": {},
    "nonlethal": false,
    "duration": {
      "value": null,
      "units": ""
    },
    "target": {
      "value": ""
    },
    "attackName": "",
    "actionType": null,
    "attackBonus": "",
    "critConfirmBonus": "",
    "damage": {
      "parts": [],
      "critParts": [],
      "nonCritParts": []
    },
    "attackParts": [],
    "formulaicAttacks": {
      "count": {
        "formula": ""
      },
      "bonus": {
        "formula": ""
      },
      "label": null
    },
    "formula": "",
    "ability": {
      "attack": null,
      "damage": null,
      "damageMult": 1,
      "critRange": 20,
      "critMult": 2
    },
    "save": {
      "dc": 0,
      "type": "",
      "description": ""
    },
    "soundEffect": ""
  },
  "ownership": {
    "default": 0
  },
  "_stats": {
    "systemId": "pf1",
    "systemVersion": "9.0",
    "coreVersion": "10.291",
    "createdTime": 1663168897473,
    "modifiedTime": 1689623924936,
    "lastModifiedBy": "pf1spheres-db000"
  }
}
