{
  "_id": "MFyeJim1kghMFpJY",
  "name": "Forge Charm",
  "type": "feat",
  "img": "icons/svg/item-bag.svg",
  "effects": [],
  "folder": null,
  "sort": 0,
  "flags": {},
  "system": {
    "description": {
      "value": "<p><strong>Prerequisites:</strong> Magic skill bonus +1.</p>\n<p><strong>Benefits:</strong> A creature with the Forge Charm feat knows how to add permanent enhancements and effects to an item, such that whoever wears or uses that item gains that bonus for as long as they are wearing or using that item.</p>\n<p>When forging a charm, the crafter must possess the base sphere associated with the charm to be made. The base cost of a charm, as well as the minimum magic skill bonus required, vary depending on the type of charm being made. As always, crafting a charm costs 1/2 the base cost.</p>\n<p>A charm uses the crafter&#8217;s MSB rather than their caster level when determining the maximum caster level charm they can create. The item&#8217;s minimum caster level is determined by the charm being created, as detailed below. If the item possess multiple charms or other enchantments, use the higher caster level of all included enchantments.</p>\n<strong>Table: Charm Bonuses</strong><br>\n<table class=\"wiki-content-table\">\n<tr>\n<th>Charm</th>\n<th>Minimum Caster Level</th>\n<th>Required Base Sphere</th>\n<th>Maximum Bonus</th>\n<th>Base Cost</th>\n</tr>\n<tr>\n<td>Grant an enhancement bonus to an ability score</td>\n<td>2x enhancement bonus</td>\n<td>Enhancement</td>\n<td>+6</td>\n<td>Bonus squared x 1,000 gp</td>\n</tr>\n<tr>\n<td>AC bonus (deflection)</td>\n<td>3x bonus</td>\n<td>Protection</td>\n<td>+5</td>\n<td>Bonus squared x 2,000 gp</td>\n</tr>\n<tr>\n<td>AC bonus (natural armor)</td>\n<td>3x bonus</td>\n<td>Alteration</td>\n<td>+5</td>\n<td>Bonus squared x 2,000 gp</td>\n</tr>\n<tr>\n<td>AC bonus (other)</td>\n<td>3x bonus</td>\n<td>Various<sup>1</sup></td>\n<td>+3</td>\n<td>Bonus squared x 2,500 gp</td>\n</tr>\n<tr>\n<td>Energy Resistance</td>\n<td>1/2 granted resistance</td>\n<td>Protection</td>\n<td>+30</td>\n<td>1,600 x resistance -4,000, resistance 5 minimum</td>\n</tr>\n<tr>\n<td>Save bonus (resistance)</td>\n<td>3x bonus</td>\n<td>Protection</td>\n<td>+5</td>\n<td>Bonus squared x 1,000 gp</td>\n</tr>\n<tr>\n<td>Save bonus (other)</td>\n<td>3x bonus</td>\n<td>Various<sup>1</sup></td>\n<td>+3</td>\n<td>Bonus squared x 2,000 gp</td>\n</tr>\n<tr>\n<td>Skill bonus (competence)</td>\n<td>1x competence bonus</td>\n<td>Mind</td>\n<td>+20</td>\n<td>Bonus squared x 100 gp</td>\n</tr>\n<tr>\n<td>Spell resistance</td>\n<td>1/2 granted resistance</td>\n<td>Protection</td>\n<td>-</td>\n<td>10,000 gp per point over SR 12, SR 13 minimum</td>\n</tr>\n<tr>\n<td>CMB/CMD (competence, one combat maneuver)</td>\n<td>3x bonus</td>\n<td>Enhancement</td>\n<td>+5</td>\n<td>Bonus squared x 1,000 gp</td>\n</tr>\n</table>\n<p><sup>1: While uncommon, it is possible to have magic items that grant luck, insight, profane, or sacred bonuses to AC or saving throws, morale bonuses to saving throws, or other bonuses. When applying such benefits through a charm, morale bonuses have Mind as a base sphere, insight bonuses have Divination as a base sphere, and luck, profane, and sacred bonuses have Fate as a base sphere.</sup></p>\n",
      "unidentified": ""
    },
    "tags": ["replaces Forge Ring"],
    "actions": [],
    "uses": {
      "per": null,
      "value": 0,
      "maxFormula": "",
      "autoDeductChargesCost": "1"
    },
    "attackNotes": [],
    "effectNotes": [],
    "changes": [],
    "changeFlags": {
      "loseDexToAC": false,
      "noEncumbrance": false,
      "mediumArmorFullSpeed": false,
      "heavyArmorFullSpeed": false
    },
    "contextNotes": [],
    "links": {
      "children": [],
      "charges": []
    },
    "tag": "",
    "useCustomTag": false,
    "armorProf": {
      "value": [],
      "custom": ""
    },
    "weaponProf": {
      "value": [],
      "custom": ""
    },
    "languages": {
      "value": [],
      "custom": ""
    },
    "flags": {
      "boolean": {},
      "dictionary": {}
    },
    "scriptCalls": [],
    "subType": "feat",
    "associations": {
      "classes": []
    },
    "showInQuickbar": false,
    "abilityType": "none",
    "crOffset": "",
    "disabled": false,
    "classSkills": {},
    "nonlethal": false,
    "duration": {
      "value": null,
      "units": ""
    },
    "target": {
      "value": ""
    },
    "attackName": "",
    "actionType": null,
    "attackBonus": "",
    "critConfirmBonus": "",
    "damage": {
      "parts": [],
      "critParts": [],
      "nonCritParts": []
    },
    "attackParts": [],
    "formulaicAttacks": {
      "count": {
        "formula": ""
      },
      "bonus": {
        "formula": ""
      },
      "label": null
    },
    "formula": "",
    "ability": {
      "attack": null,
      "damage": null,
      "damageMult": 1,
      "critRange": 20,
      "critMult": 2
    },
    "save": {
      "dc": 0,
      "type": "",
      "description": ""
    },
    "soundEffect": ""
  },
  "ownership": {
    "default": 0
  },
  "_stats": {
    "systemId": "pf1",
    "systemVersion": "9.0",
    "coreVersion": "10.291",
    "createdTime": 1663168897714,
    "modifiedTime": 1689623925034,
    "lastModifiedBy": "pf1spheres-db000"
  }
}
