{
  "_id": "ta6EAJ38MheyOrvk",
  "name": "Heroic Resolve",
  "type": "feat",
  "img": "icons/svg/item-bag.svg",
  "effects": [],
  "folder": null,
  "sort": 0,
  "flags": {},
  "system": {
    "description": {
      "value": "<p><strong>Prerequisites:</strong> Ability to gain martial focus, Constitution 13 or higher.</p>\n<p><strong>Benefit:</strong> As a move action, you may expend focus to suppress a single instance of the dazzled, fatigued, shaken, or sickened condition for a number of rounds equal to your Constitution modifier (minimum 1). The duration of these conditions continues to expire while suppressed. You may instead choose to treat the frightened condition as shaken, the nauseated condition as sickened, the exhausted condition as fatigued, or the blinded condition as dazzled for the same duration. You may take this move action even if the condition would normally prevent you from taking move actions. You may only have one condition suppressed at a time; suppressing an additional condition forces you to stop suppressing the previous condition.</p>\n<p>If your base attack bonus is +10 or higher, you may suppress the dazed, frightened, nauseated, shaken, staggered, and stunned conditions and treat the panicked condition as shaken, though the duration of the suppression is cut in half (minimum 1 round).</p>\n",
      "unidentified": ""
    },
    "tags": ["combat"],
    "actions": [],
    "uses": {
      "per": null,
      "value": 0,
      "maxFormula": "",
      "autoDeductChargesCost": "1"
    },
    "attackNotes": [],
    "effectNotes": [],
    "changes": [],
    "changeFlags": {
      "loseDexToAC": false,
      "noEncumbrance": false,
      "mediumArmorFullSpeed": false,
      "heavyArmorFullSpeed": false
    },
    "contextNotes": [],
    "links": {
      "children": [],
      "charges": []
    },
    "tag": "",
    "useCustomTag": false,
    "armorProf": {
      "value": [],
      "custom": ""
    },
    "weaponProf": {
      "value": [],
      "custom": ""
    },
    "languages": {
      "value": [],
      "custom": ""
    },
    "flags": {
      "boolean": {},
      "dictionary": {}
    },
    "scriptCalls": [],
    "subType": "feat",
    "associations": {
      "classes": []
    },
    "showInQuickbar": false,
    "abilityType": "none",
    "crOffset": "",
    "disabled": false,
    "classSkills": {},
    "nonlethal": false,
    "duration": {
      "value": null,
      "units": ""
    },
    "target": {
      "value": ""
    },
    "attackName": "",
    "actionType": null,
    "attackBonus": "",
    "critConfirmBonus": "",
    "damage": {
      "parts": [],
      "critParts": [],
      "nonCritParts": []
    },
    "attackParts": [],
    "formulaicAttacks": {
      "count": {
        "formula": ""
      },
      "bonus": {
        "formula": ""
      },
      "label": null
    },
    "formula": "",
    "ability": {
      "attack": null,
      "damage": null,
      "damageMult": 1,
      "critRange": 20,
      "critMult": 2
    },
    "save": {
      "dc": 0,
      "type": "",
      "description": ""
    },
    "soundEffect": ""
  },
  "ownership": {
    "default": 0
  },
  "_stats": {
    "systemId": "pf1",
    "systemVersion": "9.0",
    "coreVersion": "10.291",
    "createdTime": 1663168898186,
    "modifiedTime": 1689623925257,
    "lastModifiedBy": "pf1spheres-db000"
  }
}
