{
  "_id": "2Kjy9qZh06YZWseN",
  "name": "Lurker In Darkness",
  "type": "feat",
  "img": "icons/svg/item-bag.svg",
  "effects": [],
  "folder": null,
  "sort": 0,
  "flags": {},
  "system": {
    "description": {
      "value": "<p><strong>Prerequisite:</strong> Stealth 6 ranks.</p>\n<p><strong>Benefit:</strong> Creatures using unusual forms of sensory perception such as blindsight, greensight, or tremorsense cannot automatically foil your use of Stealth; such creatures must attempt a Perception check as normal to detect you when you make use of the Stealth skill, though they gain a +2 bonus for each unusual form of perception you must try to avoid beyond the first. Lurker In Darkness foils indirect detection (such as a creature using detect magic to search for your magical items while you are using Stealth) in the manner described above, but has no effect on psi-like abilities, powers, spells, spell-like abilities, and/or supernatural abilities specifically used to uncover information about you rather than enhancing the user&#8217;s perception, such as the augury spell. However, when interacting with sphere talents and abilities, Lurker In Darkness foils Divination sphere sense abilities in the manner described above, but has no effect on the Divination sphere divine abilities.</p>\n<p><strong>Note:</strong> This feat was previously published in the Psionic Bestiary, by Dreamscarred Press. It has been modified to work with Spheres of Power.</p>\n",
      "unidentified": ""
    },
    "tags": [],
    "actions": [],
    "uses": {
      "per": null,
      "value": 0,
      "maxFormula": "",
      "autoDeductChargesCost": "1"
    },
    "attackNotes": [],
    "effectNotes": [],
    "changes": [],
    "changeFlags": {
      "loseDexToAC": false,
      "noEncumbrance": false,
      "mediumArmorFullSpeed": false,
      "heavyArmorFullSpeed": false
    },
    "contextNotes": [],
    "links": {
      "children": [],
      "charges": []
    },
    "tag": "",
    "useCustomTag": false,
    "armorProf": {
      "value": [],
      "custom": ""
    },
    "weaponProf": {
      "value": [],
      "custom": ""
    },
    "languages": {
      "value": [],
      "custom": ""
    },
    "flags": {
      "boolean": {},
      "dictionary": {}
    },
    "scriptCalls": [],
    "subType": "feat",
    "associations": {
      "classes": []
    },
    "showInQuickbar": false,
    "abilityType": "none",
    "crOffset": "",
    "disabled": false,
    "classSkills": {},
    "nonlethal": false,
    "duration": {
      "value": null,
      "units": ""
    },
    "target": {
      "value": ""
    },
    "attackName": "",
    "actionType": null,
    "attackBonus": "",
    "critConfirmBonus": "",
    "damage": {
      "parts": [],
      "critParts": [],
      "nonCritParts": []
    },
    "attackParts": [],
    "formulaicAttacks": {
      "count": {
        "formula": ""
      },
      "bonus": {
        "formula": ""
      },
      "label": null
    },
    "formula": "",
    "ability": {
      "attack": null,
      "damage": null,
      "damageMult": 1,
      "critRange": 20,
      "critMult": 2
    },
    "save": {
      "dc": 0,
      "type": "",
      "description": ""
    },
    "soundEffect": ""
  },
  "ownership": {
    "default": 0
  },
  "_stats": {
    "systemId": "pf1",
    "systemVersion": "9.0",
    "coreVersion": "10.291",
    "createdTime": 1663168897500,
    "modifiedTime": 1689623924946,
    "lastModifiedBy": "pf1spheres-db000"
  }
}
