{
  "_id": "pEz8r1qB8EmvpzRf",
  "name": "Martial Presence",
  "type": "feat",
  "img": "icons/svg/item-bag.svg",
  "effects": [],
  "folder": null,
  "sort": 0,
  "flags": {},
  "system": {
    "description": {
      "value": "<p><strong>Prerequisites:</strong> Combat Stamina, base attack bonus +1.</p>\n<p><strong>Benefit:</strong> Choose a basic totem from the War sphere (including totem of war). You can spend 5 points from your stamina pool to create a 30-foot aura that moves with you and that duplicates the effects of this totem. The action required to activate this ability depends on the totem. If the totem has no spell point cost, it is a swift action to create it, if the totem requires a spell point to be created, then activating it is a move action, and if it requires more than 1 spell point, it requires a standard action.</p>\n<p>For the purposes of the totem ability, use your base attack bonus in place of your caster level and use your highest mental ability modifier as your casting ability modifier, if you do not already possess a casting tradition. The aura created is not a true totem, and does not qualify for feats that alter totems. Once activated, the aura remains active for 1 minute. Falling unconscious or dying causes the aura to end.</p>\n<p>This is an extraordinary ability.</p>\n",
      "unidentified": ""
    },
    "tags": ["Combat"],
    "actions": [],
    "uses": {
      "per": null,
      "value": 0,
      "maxFormula": "",
      "autoDeductChargesCost": "1"
    },
    "attackNotes": [],
    "effectNotes": [],
    "changes": [],
    "changeFlags": {
      "loseDexToAC": false,
      "noEncumbrance": false,
      "mediumArmorFullSpeed": false,
      "heavyArmorFullSpeed": false
    },
    "contextNotes": [],
    "links": {
      "children": [],
      "charges": []
    },
    "tag": "",
    "useCustomTag": false,
    "armorProf": {
      "value": [],
      "custom": ""
    },
    "weaponProf": {
      "value": [],
      "custom": ""
    },
    "languages": {
      "value": [],
      "custom": ""
    },
    "flags": {
      "boolean": {},
      "dictionary": {}
    },
    "scriptCalls": [],
    "subType": "feat",
    "associations": {
      "classes": []
    },
    "showInQuickbar": false,
    "abilityType": "none",
    "crOffset": "",
    "disabled": false,
    "classSkills": {},
    "nonlethal": false,
    "duration": {
      "value": null,
      "units": ""
    },
    "target": {
      "value": ""
    },
    "attackName": "",
    "actionType": null,
    "attackBonus": "",
    "critConfirmBonus": "",
    "damage": {
      "parts": [],
      "critParts": [],
      "nonCritParts": []
    },
    "attackParts": [],
    "formulaicAttacks": {
      "count": {
        "formula": ""
      },
      "bonus": {
        "formula": ""
      },
      "label": null
    },
    "formula": "",
    "ability": {
      "attack": null,
      "damage": null,
      "damageMult": 1,
      "critRange": 20,
      "critMult": 2
    },
    "save": {
      "dc": 0,
      "type": "",
      "description": ""
    },
    "soundEffect": ""
  },
  "ownership": {
    "default": 0
  },
  "_stats": {
    "systemId": "pf1",
    "systemVersion": "9.0",
    "coreVersion": "10.291",
    "createdTime": 1663168898095,
    "modifiedTime": 1689623925233,
    "lastModifiedBy": "pf1spheres-db000"
  }
}
