{
  "_id": "nKPHpxf0o5pMF5XB",
  "name": "Pathology",
  "type": "feat",
  "img": "icons/svg/item-bag.svg",
  "effects": [],
  "folder": null,
  "sort": 0,
  "flags": {},
  "system": {
    "description": {
      "value": "<p><strong>Prerequisites:</strong> Blood sphere and 5th caster level; or Death sphere and 5th caster level; or Duelist sphere and base attack bonus +5; or Alchemy sphere and base attack bonus +5; Virulent Ailment.</p>\n<p><strong>Benefit:</strong> Your time spent analyzing mundane illnesses has allowed you to master them. You may choose two diseases from the following list: blinding sickness, bonechill, bubonic plague, cackle fever, cholera, filth fever, leprosy, mindfire, red ache, shakes, sleeping sickness, slimy doom.</p>\n<p>You may create these diseases and use them with your other plague feats. The onset period of any disease created this way becomes immediate, and the saving throw is changed as stated in the plague feat rules.</p>\n<p><strong>Special:</strong> This feat may be selected multiple times, selecting two more diseases each time.</p>\n",
      "unidentified": ""
    },
    "tags": ["Plague"],
    "actions": [],
    "uses": {
      "per": null,
      "value": 0,
      "maxFormula": "",
      "autoDeductChargesCost": "1"
    },
    "attackNotes": [],
    "effectNotes": [],
    "changes": [],
    "changeFlags": {
      "loseDexToAC": false,
      "noEncumbrance": false,
      "mediumArmorFullSpeed": false,
      "heavyArmorFullSpeed": false
    },
    "contextNotes": [],
    "links": {
      "children": [],
      "charges": []
    },
    "tag": "",
    "useCustomTag": false,
    "armorProf": {
      "value": [],
      "custom": ""
    },
    "weaponProf": {
      "value": [],
      "custom": ""
    },
    "languages": {
      "value": [],
      "custom": ""
    },
    "flags": {
      "boolean": {},
      "dictionary": {}
    },
    "scriptCalls": [],
    "subType": "feat",
    "associations": {
      "classes": []
    },
    "showInQuickbar": false,
    "abilityType": "none",
    "crOffset": "",
    "disabled": false,
    "classSkills": {},
    "nonlethal": false,
    "duration": {
      "value": null,
      "units": ""
    },
    "target": {
      "value": ""
    },
    "attackName": "",
    "actionType": null,
    "attackBonus": "",
    "critConfirmBonus": "",
    "damage": {
      "parts": [],
      "critParts": [],
      "nonCritParts": []
    },
    "attackParts": [],
    "formulaicAttacks": {
      "count": {
        "formula": ""
      },
      "bonus": {
        "formula": ""
      },
      "label": null
    },
    "formula": "",
    "ability": {
      "attack": null,
      "damage": null,
      "damageMult": 1,
      "critRange": 20,
      "critMult": 2
    },
    "save": {
      "dc": 0,
      "type": "",
      "description": ""
    },
    "soundEffect": ""
  },
  "ownership": {
    "default": 0
  },
  "_stats": {
    "systemId": "pf1",
    "systemVersion": "9.0",
    "coreVersion": "10.291",
    "createdTime": 1663168898008,
    "modifiedTime": 1689623925196,
    "lastModifiedBy": "pf1spheres-db000"
  }
}
