{
  "_id": "XT4SfkqOGjuqyD8y",
  "name": "Remote Jostle",
  "type": "feat",
  "img": "icons/svg/item-bag.svg",
  "effects": [],
  "folder": null,
  "sort": 0,
  "flags": {},
  "system": {
    "description": {
      "value": "<p><strong>Prerequisite:</strong> Telekinesis sphere.</p>\n<p><strong>Benefit:</strong> As a swift action you may push a creature within close range (25 feet + 5 feet per 2 caster levels) off balance. If you succeed on a ranged touch attack they become battered (see Chapter 1 of Spheres of Might) and suffer one of the following effects, chosen when you use the ability, until the end of your next turn:</p>\n<ul>\n<li>They take a -1 penalty to the next saving throw they make against a Telekinesis sphere ability.</li>\n<li>They take a -1 penalty on Acrobatics checks. For every 4 caster levels, this penalty increases by 1.</li>\n<li>They must make a Reflex saving throw (DC 10 + 1/2 your caster level + your casting ability modifier) or lose one attack of opportunity. If they can only make one attack of opportunity per round, they cannot make an attack of opportunity until the end of your next turn.</li>\n</ul>\n",
      "unidentified": ""
    },
    "tags": ["Combat", "Protokinesis"],
    "actions": [],
    "uses": {
      "per": null,
      "value": 0,
      "maxFormula": "",
      "autoDeductChargesCost": "1"
    },
    "attackNotes": [],
    "effectNotes": [],
    "changes": [],
    "changeFlags": {
      "loseDexToAC": false,
      "noEncumbrance": false,
      "mediumArmorFullSpeed": false,
      "heavyArmorFullSpeed": false
    },
    "contextNotes": [],
    "links": {
      "children": [],
      "charges": []
    },
    "tag": "",
    "useCustomTag": false,
    "armorProf": {
      "value": [],
      "custom": ""
    },
    "weaponProf": {
      "value": [],
      "custom": ""
    },
    "languages": {
      "value": [],
      "custom": ""
    },
    "flags": {
      "boolean": {},
      "dictionary": {}
    },
    "scriptCalls": [],
    "subType": "feat",
    "associations": {
      "classes": []
    },
    "showInQuickbar": false,
    "abilityType": "none",
    "crOffset": "",
    "disabled": false,
    "classSkills": {},
    "nonlethal": false,
    "duration": {
      "value": null,
      "units": ""
    },
    "target": {
      "value": ""
    },
    "attackName": "",
    "actionType": null,
    "attackBonus": "",
    "critConfirmBonus": "",
    "damage": {
      "parts": [],
      "critParts": [],
      "nonCritParts": []
    },
    "attackParts": [],
    "formulaicAttacks": {
      "count": {
        "formula": ""
      },
      "bonus": {
        "formula": ""
      },
      "label": null
    },
    "formula": "",
    "ability": {
      "attack": null,
      "damage": null,
      "damageMult": 1,
      "critRange": 20,
      "critMult": 2
    },
    "save": {
      "dc": 0,
      "type": "",
      "description": ""
    },
    "soundEffect": ""
  },
  "ownership": {
    "default": 0
  },
  "_stats": {
    "systemId": "pf1",
    "systemVersion": "9.0",
    "coreVersion": "10.291",
    "createdTime": 1663168897913,
    "modifiedTime": 1689623925127,
    "lastModifiedBy": "pf1spheres-db000"
  }
}
