{
  "_id": "a759q8Tx1P97Aogm",
  "name": "Ruinous Defiling",
  "type": "feat",
  "img": "icons/svg/item-bag.svg",
  "effects": [],
  "folder": null,
  "sort": 0,
  "flags": {},
  "system": {
    "description": {
      "value": "<p>Your despoilation inflicts pain on those caught in your path.</p>\n<p><strong>Prerequisites:</strong> Terrain Casting drawback, non-good alignment.</p>\n<p><strong>Benefit:</strong> Whenever you blight, corrupt, or drain an area of its nutrients with the Terrain Casting drawback, you may choose to damage all creatures caught inside the defiled area. Creatures other than yourself inside the corrupted area take 1 point of negative energy damage per caster level (Will save negates, DC 10 + 1/2 your character level + your casting ability modifier). This damage does not heal creatures which would be healed by negative energy.</p>\n<p><strong>Four Defiler Feats:</strong> The damage from this feat increases to 2 points of negative energy per caster level.</p>\n",
      "unidentified": ""
    },
    "tags": ["Defiler", "Drawback"],
    "actions": [],
    "uses": {
      "per": null,
      "value": 0,
      "maxFormula": "",
      "autoDeductChargesCost": "1"
    },
    "attackNotes": [],
    "effectNotes": [],
    "changes": [],
    "changeFlags": {
      "loseDexToAC": false,
      "noEncumbrance": false,
      "mediumArmorFullSpeed": false,
      "heavyArmorFullSpeed": false
    },
    "contextNotes": [],
    "links": {
      "children": [],
      "charges": []
    },
    "tag": "",
    "useCustomTag": false,
    "armorProf": {
      "value": [],
      "custom": ""
    },
    "weaponProf": {
      "value": [],
      "custom": ""
    },
    "languages": {
      "value": [],
      "custom": ""
    },
    "flags": {
      "boolean": {},
      "dictionary": {}
    },
    "scriptCalls": [],
    "subType": "feat",
    "associations": {
      "classes": []
    },
    "showInQuickbar": false,
    "abilityType": "none",
    "crOffset": "",
    "disabled": false,
    "classSkills": {},
    "nonlethal": false,
    "duration": {
      "value": null,
      "units": ""
    },
    "target": {
      "value": ""
    },
    "attackName": "",
    "actionType": null,
    "attackBonus": "",
    "critConfirmBonus": "",
    "damage": {
      "parts": [],
      "critParts": [],
      "nonCritParts": []
    },
    "attackParts": [],
    "formulaicAttacks": {
      "count": {
        "formula": ""
      },
      "bonus": {
        "formula": ""
      },
      "label": null
    },
    "formula": "",
    "ability": {
      "attack": null,
      "damage": null,
      "damageMult": 1,
      "critRange": 20,
      "critMult": 2
    },
    "save": {
      "dc": 0,
      "type": "",
      "description": ""
    },
    "soundEffect": ""
  },
  "ownership": {
    "default": 0
  },
  "_stats": {
    "systemId": "pf1",
    "systemVersion": "9.0",
    "coreVersion": "10.291",
    "createdTime": 1663168897929,
    "modifiedTime": 1689623925140,
    "lastModifiedBy": "pf1spheres-db000"
  }
}
