{
  "_id": "jEp9ghRlFpOeJQsA",
  "name": "Shadow Magic",
  "type": "feat",
  "img": "icons/svg/item-bag.svg",
  "effects": [],
  "folder": null,
  "sort": 0,
  "flags": {},
  "system": {
    "description": {
      "value": "<p><strong>Prerequisites:</strong> Illusion sphere (Shadow Infusion) or shadow pool.</p>\n<p><strong>Benefit:</strong> You may mimic other spheres of magic by shaping shadowstuff. As a free action, you may spend 1 shadow point to grant yourself a temporary magic sphere or talent you do not possess from the following list: Alteration, Conjuration, Creation, Dark, Death, Destruction, Enhancement, Light, Nature, Protection or Weather sphere for 1 minute. For every 5 surreal feats you possess, you may grant yourself an additional temporary talent from the chosen sphere. You must still meet any prerequisites that the talents possess. When gaining multiple talents with this feat, you may use a talent gained this way as a prerequisite for other gained talents.</p>\n<p>Any sphere talents or abilities gained from this feat are treated as if they were from the Illusion sphere and possess the shadow descriptor. Shadow magic, by its nature, has a very real effect even if disbelieved, although usually a reduced one. Unless stated otherwise, objects created as shadow illusions are made of shadowstuff (stable), and creatures have 1/5th their normal hit points.</p>\n<p>The effective caster level of effects created using this feat is equal to your caster level in the Illusion sphere -2 (minimum 1). You may not have more than one sphere effect active at a time from the spheres granted from this feat. A second use of this feat immediately ends the duration of the previous use.</p>\n",
      "unidentified": ""
    },
    "tags": ["Surreal"],
    "actions": [],
    "uses": {
      "per": null,
      "value": 0,
      "maxFormula": "",
      "autoDeductChargesCost": "1"
    },
    "attackNotes": [],
    "effectNotes": [],
    "changes": [],
    "changeFlags": {
      "loseDexToAC": false,
      "noEncumbrance": false,
      "mediumArmorFullSpeed": false,
      "heavyArmorFullSpeed": false
    },
    "contextNotes": [],
    "links": {
      "children": [],
      "charges": []
    },
    "tag": "",
    "useCustomTag": false,
    "armorProf": {
      "value": [],
      "custom": ""
    },
    "weaponProf": {
      "value": [],
      "custom": ""
    },
    "languages": {
      "value": [],
      "custom": ""
    },
    "flags": {
      "boolean": {},
      "dictionary": {}
    },
    "scriptCalls": [],
    "subType": "feat",
    "associations": {
      "classes": []
    },
    "showInQuickbar": false,
    "abilityType": "none",
    "crOffset": "",
    "disabled": false,
    "classSkills": {},
    "nonlethal": false,
    "duration": {
      "value": null,
      "units": ""
    },
    "target": {
      "value": ""
    },
    "attackName": "",
    "actionType": null,
    "attackBonus": "",
    "critConfirmBonus": "",
    "damage": {
      "parts": [],
      "critParts": [],
      "nonCritParts": []
    },
    "attackParts": [],
    "formulaicAttacks": {
      "count": {
        "formula": ""
      },
      "bonus": {
        "formula": ""
      },
      "label": null
    },
    "formula": "",
    "ability": {
      "attack": null,
      "damage": null,
      "damageMult": 1,
      "critRange": 20,
      "critMult": 2
    },
    "save": {
      "dc": 0,
      "type": "",
      "description": ""
    },
    "soundEffect": ""
  },
  "ownership": {
    "default": 0
  },
  "_stats": {
    "systemId": "pf1",
    "systemVersion": "9.0",
    "coreVersion": "10.291",
    "createdTime": 1663168897986,
    "modifiedTime": 1689623925183,
    "lastModifiedBy": "pf1spheres-db000"
  }
}
