{
  "_id": "B53NhhqIGowbmMJl",
  "name": "Smith Magical Weapons And Armor",
  "type": "feat",
  "img": "icons/svg/item-bag.svg",
  "effects": [],
  "folder": null,
  "sort": 0,
  "flags": {},
  "system": {
    "description": {
      "value": "<p><strong>Prerequisites:</strong> Magic skill bonus +3.</p>\n<p><strong>Benefits:</strong> This feat allows the user to craft magical weapons and magical armor. Crafting magical weapons and magical armor follows the same rules as core Pathfinder magical weapons and armor, except that a creature must possess the base sphere associated with any special ability before it can be added. Some core Pathfinder special abilities that can be added to magical weapons or armor carry prices calculated in gp costs rather than bonus increases; some of these special abilities are enchantments more appropriately created through the Craft Marvelous Item or Craft Apparatus feats, which should be used to craft such enchantments.</p>\n<p>Magical weapons and armor use the crafter&#8217;s MSB rather than their caster level when determining the maximum caster level item they can create. The item&#8217;s caster level must be at least 3x the enhancement bonus of the weapon or armor. If the item has other magical enchantments placed upon it, use the higher caster level. A magical weapon or magical piece of armor must have at least a 1 enhancement bonus to have any other special abilities.</p>\n<strong>Table: Magical Weapon and Armor Pricing</strong><br>\n<table class=\"wiki-content-table\">\n<tr>\n<th>Weapon Bonus</th>\n<th>Base Price (gp)</th>\n<th>Armor/Shield Bonus</th>\n<th>Base Price (gp)</th>\n</tr>\n<tr>\n<td>+1</td>\n<td>2,000</td>\n<td>+1</td>\n<td>1,000</td>\n</tr>\n<tr>\n<td>+2</td>\n<td>8,000</td>\n<td>+2</td>\n<td>4,000</td>\n</tr>\n<tr>\n<td>+3</td>\n<td>18,000</td>\n<td>+3</td>\n<td>9,000</td>\n</tr>\n<tr>\n<td>+4</td>\n<td>32,000</td>\n<td>+4</td>\n<td>16,000</td>\n</tr>\n<tr>\n<td>+5</td>\n<td>50,000</td>\n<td>+5</td>\n<td>25,000</td>\n</tr>\n<tr>\n<td>+6</td>\n<td>72,000</td>\n<td>+6</td>\n<td>36,000</td>\n</tr>\n<tr>\n<td>+7</td>\n<td>98,000</td>\n<td>+7</td>\n<td>49,000</td>\n</tr>\n<tr>\n<td>+8</td>\n<td>128,000</td>\n<td>+8</td>\n<td>64,000</td>\n</tr>\n<tr>\n<td>+9</td>\n<td>162,000</td>\n<td>+9</td>\n<td>81,000</td>\n</tr>\n<tr>\n<td>+10</td>\n<td>200,000</td>\n<td>+10</td>\n<td>100,000</td>\n</tr>\n</table>\n",
      "unidentified": ""
    },
    "tags": ["replaces Craft Magical Arms or Armor"],
    "actions": [],
    "uses": {
      "per": null,
      "value": 0,
      "maxFormula": "",
      "autoDeductChargesCost": "1"
    },
    "attackNotes": [],
    "effectNotes": [],
    "changes": [],
    "changeFlags": {
      "loseDexToAC": false,
      "noEncumbrance": false,
      "mediumArmorFullSpeed": false,
      "heavyArmorFullSpeed": false
    },
    "contextNotes": [],
    "links": {
      "children": [],
      "charges": []
    },
    "tag": "",
    "useCustomTag": false,
    "armorProf": {
      "value": [],
      "custom": ""
    },
    "weaponProf": {
      "value": [],
      "custom": ""
    },
    "languages": {
      "value": [],
      "custom": ""
    },
    "flags": {
      "boolean": {},
      "dictionary": {}
    },
    "scriptCalls": [],
    "subType": "feat",
    "associations": {
      "classes": []
    },
    "showInQuickbar": false,
    "abilityType": "none",
    "crOffset": "",
    "disabled": false,
    "classSkills": {},
    "nonlethal": false,
    "duration": {
      "value": null,
      "units": ""
    },
    "target": {
      "value": ""
    },
    "attackName": "",
    "actionType": null,
    "attackBonus": "",
    "critConfirmBonus": "",
    "damage": {
      "parts": [],
      "critParts": [],
      "nonCritParts": []
    },
    "attackParts": [],
    "formulaicAttacks": {
      "count": {
        "formula": ""
      },
      "bonus": {
        "formula": ""
      },
      "label": null
    },
    "formula": "",
    "ability": {
      "attack": null,
      "damage": null,
      "damageMult": 1,
      "critRange": 20,
      "critMult": 2
    },
    "save": {
      "dc": 0,
      "type": "",
      "description": ""
    },
    "soundEffect": ""
  },
  "ownership": {
    "default": 0
  },
  "_stats": {
    "systemId": "pf1",
    "systemVersion": "9.0",
    "coreVersion": "10.291",
    "createdTime": 1663168897593,
    "modifiedTime": 1689623924989,
    "lastModifiedBy": "pf1spheres-db000"
  }
}
