{
  "_id": "7XKxzTkJeMAIX7b4",
  "name": "Solar Spell",
  "type": "feat",
  "img": "icons/svg/item-bag.svg",
  "effects": [],
  "folder": null,
  "sort": 0,
  "flags": {},
  "system": {
    "description": {
      "value": "<p><strong>Benefit:</strong> Any talent you cast with the light descriptor that deals damage (including the Light sphere&#8217;s Searing Light talent and any blast type in the Destruction sphere&#8217;s Light blast type group) is fortified with the cleansing energies of the sun. If the talent creates an area of light, all creatures are dazzled for as long as they remain within the light&#8217;s area. Oozes, fungal creatures, creatures from the Shadow Plane, and undead must also succeed at a Will save (normal DC for your talent) or take a &#8211;2 penalty on attack rolls, damage rolls, saving throws, skill checks, and ability checks for as long as they remain within the light&#8217;s area. If the talent normally dazzles or blinds affected creatures with a duration other than instantaneous or permanent, the duration of that effect is increased by a number of rounds equal to 1/2 the talent&#8217;s caster level (minimum 1 round). Saving throws to remove the effect early still apply and can bypass this increase. If the talent deals more damage against oozes, fungal creatures, creatures from the Shadow Plane, or undead with a specific vulnerability to sunlight, the talent deals 1 additional point of damage per die against such creatures. If the damaging effect does not deal damage based on dice, it instead deals 1 additional point of damage per caster level.</p>\n<p><strong>Cost:</strong> +1 spell point</p>\n",
      "unidentified": ""
    },
    "tags": ["Metamagic"],
    "actions": [],
    "uses": {
      "per": null,
      "value": 0,
      "maxFormula": "",
      "autoDeductChargesCost": "1"
    },
    "attackNotes": [],
    "effectNotes": [],
    "changes": [],
    "changeFlags": {
      "loseDexToAC": false,
      "noEncumbrance": false,
      "mediumArmorFullSpeed": false,
      "heavyArmorFullSpeed": false
    },
    "contextNotes": [],
    "links": {
      "children": [],
      "charges": []
    },
    "tag": "",
    "useCustomTag": false,
    "armorProf": {
      "value": [],
      "custom": ""
    },
    "weaponProf": {
      "value": [],
      "custom": ""
    },
    "languages": {
      "value": [],
      "custom": ""
    },
    "flags": {
      "boolean": {},
      "dictionary": {}
    },
    "scriptCalls": [],
    "subType": "feat",
    "associations": {
      "classes": []
    },
    "showInQuickbar": false,
    "abilityType": "none",
    "crOffset": "",
    "disabled": false,
    "classSkills": {},
    "nonlethal": false,
    "duration": {
      "value": null,
      "units": ""
    },
    "target": {
      "value": ""
    },
    "attackName": "",
    "actionType": null,
    "attackBonus": "",
    "critConfirmBonus": "",
    "damage": {
      "parts": [],
      "critParts": [],
      "nonCritParts": []
    },
    "attackParts": [],
    "formulaicAttacks": {
      "count": {
        "formula": ""
      },
      "bonus": {
        "formula": ""
      },
      "label": null
    },
    "formula": "",
    "ability": {
      "attack": null,
      "damage": null,
      "damageMult": 1,
      "critRange": 20,
      "critMult": 2
    },
    "save": {
      "dc": 0,
      "type": "",
      "description": ""
    },
    "soundEffect": ""
  },
  "ownership": {
    "default": 0
  },
  "_stats": {
    "systemId": "pf1",
    "systemVersion": "9.0",
    "coreVersion": "10.291",
    "createdTime": 1663168897556,
    "modifiedTime": 1689623924969,
    "lastModifiedBy": "pf1spheres-db000"
  }
}
