{
  "_id": "IuZozRZ1F2lKdCGf",
  "name": "Warrior-Disciple",
  "type": "feat",
  "img": "icons/svg/item-bag.svg",
  "effects": [],
  "folder": null,
  "sort": 0,
  "flags": {},
  "system": {
    "description": {
      "value": "<p>In spite of your diverse magical training, your armed discipline still remains.</p>\n<p><strong>Prerequisites:</strong> Base attack bonus +3; ability to cast 2nd-level spells, manifest 2nd-level powers, or spherecaster level 3rd.</p>\n<p><strong>Benefits:</strong> At every level that a prestige class advances spellcasting, manifesting, or spherecasting from one of your classes, you may choose to have it also advance as if the prestige class had the same Hit Dice, base attack bonus, and caster level progression of the class whose spellcasting it advances.</p>\n<p>For example, a mageknight 10/forest lord 3 could take this feat choosing mageknight as its advanced casting class at its forest lord levels, causing the forest lord Hit Dice to become d10s, for the forest lord to grant full base attack bonus progression rather than normal 1/2 base attack bonus progression, and for the forest lord&#8217;s caster level progression to advance at 1/2 class level as per a mageknight.</p>\n",
      "unidentified": ""
    },
    "tags": ["Combat"],
    "actions": [],
    "uses": {
      "per": null,
      "value": 0,
      "maxFormula": "",
      "autoDeductChargesCost": "1"
    },
    "attackNotes": [],
    "effectNotes": [],
    "changes": [],
    "changeFlags": {
      "loseDexToAC": false,
      "noEncumbrance": false,
      "mediumArmorFullSpeed": false,
      "heavyArmorFullSpeed": false
    },
    "contextNotes": [],
    "links": {
      "children": [],
      "charges": []
    },
    "tag": "",
    "useCustomTag": false,
    "armorProf": {
      "value": [],
      "custom": ""
    },
    "weaponProf": {
      "value": [],
      "custom": ""
    },
    "languages": {
      "value": [],
      "custom": ""
    },
    "flags": {
      "boolean": {},
      "dictionary": {}
    },
    "scriptCalls": [],
    "subType": "feat",
    "associations": {
      "classes": []
    },
    "showInQuickbar": false,
    "abilityType": "none",
    "crOffset": "",
    "disabled": false,
    "classSkills": {},
    "nonlethal": false,
    "duration": {
      "value": null,
      "units": ""
    },
    "target": {
      "value": ""
    },
    "attackName": "",
    "actionType": null,
    "attackBonus": "",
    "critConfirmBonus": "",
    "damage": {
      "parts": [],
      "critParts": [],
      "nonCritParts": []
    },
    "attackParts": [],
    "formulaicAttacks": {
      "count": {
        "formula": ""
      },
      "bonus": {
        "formula": ""
      },
      "label": null
    },
    "formula": "",
    "ability": {
      "attack": null,
      "damage": null,
      "damageMult": 1,
      "critRange": 20,
      "critMult": 2
    },
    "save": {
      "dc": 0,
      "type": "",
      "description": ""
    },
    "soundEffect": ""
  },
  "ownership": {
    "default": 0
  },
  "_stats": {
    "systemId": "pf1",
    "systemVersion": "9.0",
    "coreVersion": "10.291",
    "createdTime": 1663168897668,
    "modifiedTime": 1689623925017,
    "lastModifiedBy": "pf1spheres-db000"
  }
}
